2020_assignments/LearningGit_Ian/9.9SES330DataFile.csv

#Digilent WaveForms Oscilloscope Acquisition
#Device Name: Discovery2
#Serial Number: SN:210321AE36E8
#Date Time: 2020-09-09 12:03:42.989
#Sample rate: 800000Hz
#Samples: 8192
#Trigger: Source: Channel 1 Type: Edge Condition: Rising Level: 0 V Hyst.: Auto HoldOff: 0 s
#Channel 1: Range: 500 mV/div Offset: 0 V Attenuation: 1 X
#Channel 2: Range: 500 mV/div Offset: 0 V Attenuation: 1 X
#Wavegen Channel 1: Enabled
#Mode: Simple
#Type: Sine
#Frequency: 1 kHz
#Period: 1 ms
#Amplitude: 1 V
#Offset: 0 V
#Symmetry: 50 %
#Phase: 0 °

Time (s),Channel 1 (V),Channel 2 (V)
-0.005119347826086957,-0.680388443827866,0.006409046887135509
-0.005118097826086957,-0.6753995928853885,0.006073755331289589
-0.005116847826086957,-0.6694129717544126,0.006073755331289894
-0.005115597826086957,-0.6630937605606106,0.006744338442981428
-0.005114347826086957,-0.6577723195553014,0.007079629998827349
-0.005113097826086957,-0.6517856984243284,0.007079629998827349
-0.005111847826086957,-0.6457990772933554,0.006744338442981428
-0.005110597826086957,-0.6401450462252168,0.006744338442981428
-0.005109347826086957,-0.6338258350314094,0.006744338442981428
-0.005108097826086956,-0.6271740337747698,0.007079629998827349
-0.005106847826086957,-0.6205222325181361,0.007079629998827349
-0.005105597826086957,-0.6148682014499918,0.007079629998827501
-0.005104347826086957,-0.6078838101305265,0.007414921554673269
-0.005103097826086957,-0.6022297790623854,0.006744338442981428
-0.005101847826086957,-0.5972409281199078,0.007414921554673269
-0.005100597826086957,-0.5905891268632713,0.007414921554673269
-0.005099347826086957,-0.583604735543806,0.007079629998827501
-0.005098097826086957,-0.5779507044756615,0.007414921554673269
-0.005096847826086956,-0.5716314932818535,0.007750213110519493
-0.005095597826086957,-0.5643145118995564,0.008420796222211029
-0.005094347826086957,-0.5589930708942438,0.008420796222210876
-0.005093097826086957,-0.5516760895119468,0.008085504666365109
-0.005091847826086957,-0.5446916981924783,0.008756087778056948
-0.005090597826086957,-0.5387050770615082,0.008420796222211181
-0.005089347826086957,-0.5320532758048687,0.008420796222211029
-0.005088097826086957,-0.5247362944225717,0.008756087778056795
-0.005086847826086957,-0.5190822633544272,0.008420796222211029
-0.005085597826086957,-0.5124304620977868,0.008420796222211029
-0.005084347826086957,-0.5041157105269948,0.008420796222211029
-0.005083097826086957,-0.4971313192075263,0.008420796222211029
-0.005081847826086957,-0.4914772881393851,0.008756087778056948
-0.005080597826086957,-0.4841603067570848,0.009091379333902867
-0.005079347826086957,-0.4768433253747879,0.008420796222211334
-0.005078097826086957,-0.4708567042438115,0.008756087778056948
-0.005076847826086957,-0.4635397228615145,0.009091379333902715
-0.005075597826086957,-0.4562227414792109,0.009426670889748788
-0.005074347826086957,-0.4499035302854031,0.009761962445594708
-0.005073097826086957,-0.4432517290287694,0.009761962445594708
-0.005071847826086957,-0.4356021575836373,0.009761962445594708
-0.005070597826086957,-0.4292829463898324,0.009761962445594708
-0.005069347826086957,-0.4219659650075321,0.009761962445594708
-0.005068097826086957,-0.4146489836252352,0.009426670889748941
-0.005066847826086957,-0.4076645923057634,0.009426670889748788
-0.005065597826086956,-0.4006802009862913,0.009426670889749094
-0.005064347826086957,-0.3926980394783309,0.01009725400144063
-0.005063097826086957,-0.3850484680331958,0.00976196244559486
-0.005061847826086957,-0.3783966667765621,0.01009725400144063
-0.005060597826086957,-0.3710796853942618,0.009761962445594708
-0.005059347826086957,-0.3630975238862978,0.01009725400144063
-0.005058097826086957,-0.356778312692493,0.009761962445594708
-0.005056847826086957,-0.349461331310196,0.01009725400144047
-0.005055597826086957,-0.3414791698022287,0.01043254555728655
-0.005054347826086956,-0.3351599586084202,0.01009725400144078
-0.005053097826086957,-0.3271777971004599,0.01043254555728655
-0.005051847826086957,-0.3191956355924929,0.01076783711313231
-0.005050597826086957,-0.3125438343358592,0.01043254555728655
-0.005049347826086957,-0.3048942628907271,0.01076783711313247
-0.005048097826086957,-0.2965795113199351,0.01076783711313247
-0.005046847826086957,-0.2889299398747991,0.01076783711313247
-0.005045597826086957,-0.2819455485553338,0.01076783711313247
-0.005044347826086957,-0.2739633870473667,0.01076783711313247
-0.005043097826086957,-0.2676441758535585,0.01110312866897839
-0.005041847826086957,-0.2603271944712616,0.01110312866897839
-0.005040597826086957,-0.2516798528376339,0.01110312866897839
-0.005039347826086957,-0.2440302813925018,0.01110312866897839
-0.005038097826086957,-0.237711070198697,0.01110312866897839
-0.005036847826086957,-0.2293963186279049,0.01143842022482416
-0.005035597826086957,-0.2207489769942735,0.01110312866897839
-0.005034347826086957,-0.2140971757376399,0.01076783711313262
-0.005033097826086957,-0.2061150142296729,0.01143842022482431
-0.005031847826086957,-0.1981328527217057,0.01177371178067023
-0.005030597826086957,-0.1911484614022405,0.01177371178067023
-0.005029347826086957,-0.1831662998942765,0.01177371178067023
-0.005028097826086957,-0.1758493185119762,0.01143842022482431
-0.005026847826086957,-0.168199747066844,0.01177371178067023
-0.005025597826086957,-0.159884995496052,0.01177371178067023
-0.005024347826086957,-0.1519028339880842,0.01143842022482431
-0.005023097826086956,-0.1439206724801169,0.01244429489236192
-0.005021847826086957,-0.1366036910978199,0.01210900333651615
-0.005020597826086957,-0.1286215295898522,0.01143842022482446
-0.005019347826086957,-0.1203067780190601,0.01177371178067023
-0.005018097826086957,-0.1123246165110962,0.01210900333651615
-0.005016847826086957,-0.1053402251916277,0.01210900333651615
-0.005015597826086957,-0.09702547362083186,0.01177371178067023
-0.005014347826086957,-0.09004108230136655,0.01177371178067023
-0.005013097826086957,-0.08172633073056756,0.01177371178067023
-0.005011847826086956,-0.07341157915976855,0.01143842022482446
-0.005010597826086957,-0.06642718784030327,0.01177371178067023
-0.005009347826086957,-0.0584450263323355,0.01244429489236192
-0.005008097826086957,-0.05013027476154347,0.01210900333651615
-0.005006847826086957,-0.04314588344207499,0.01244429489236207
-0.005005597826086957,-0.03483113187127918,0.01277958644820799
-0.005004347826086957,-0.02718156042614703,0.01277958644820799
-0.005003097826086957,-0.01953198898101836,0.01277958644820799
-0.005001847826086957,-0.01088464734738724,0.01311487800405391
-0.005000597826086957,-0.002902485839420082,0.0131148780040536
-0.004999347826086957,0.004081905480045223,0.01244429489236207
-0.004998097826086957,0.0120640669880092,0.01244429489236207
-0.004996847826086957,0.02071140862163685,0.01210900333651615
-0.004995597826086957,0.02869357012960082,0.01210900333651615
-0.004994347826086957,0.03567796144906613,0.01210900333651615
-0.004993097826086957,0.04366012295703329,0.01244429489236207
-0.004991847826086957,0.05130969440216196,0.01244429489236207
-0.004990597826086957,0.05862667578446575,0.01244429489236207
-0.004989347826086957,0.06660883729243365,0.01277958644820799
-0.004988097826086957,0.07525617892605738,0.01277958644820799
-0.004986847826086957,0.08224057024552586,0.01277958644820799
-0.004985597826086957,0.09055532181632167,0.01311487800405391
-0.004984347826086957,0.09953525351278114,0.01277958644820799
-0.004983097826086957,0.1068522348950781,0.01311487800405375
-0.004981847826086957,0.1141692162773818,0.01311487800405391
-0.004980597826086956,0.1228165579110126,0.01311487800405375
-0.004979347826086957,0.1298009492304779,0.01277958644820799
-0.004978097826086957,0.1374505206756137,0.01277958644820814
-0.004976847826086957,0.145432682183574,0.01311487800405391
-0.004975597826086957,0.1524170735030425,0.01311487800405391
-0.004974347826086957,0.1597340548853428,0.01277958644820799
-0.004973097826086957,0.1677162163933068,0.01277958644820799
-0.004971847826086957,0.1766961480897622,0.01244429489236222
-0.004970597826086957,0.1833479493464029,0.01277958644820799
-0.004969347826086956,0.1919952909800342,0.01277958644820814
-0.004968097826086957,0.1999774524879945,0.01311487800405391
-0.004966847826086957,0.2059640736189711,0.01345016955989967
-0.004965597826086957,0.2139462351269315,0.01311487800405391
-0.004964347826086957,0.2232587568862228,0.01311487800405391
-0.004963097826086957,0.2295779680800276,0.01311487800405391
-0.004961847826086957,0.2375601295879916,0.01311487800405391
-0.004960597826086957,0.2458748811587836,0.01345016955989967
-0.004959347826086957,0.2525266824154241,0.01345016955989983
-0.004958097826086957,0.259843663797728,0.01311487800405375
-0.004956847826086957,0.2678258253056884,0.01277958644820799
-0.004955597826086957,0.274477626562325,0.01277958644820799
-0.004954347826086957,0.2834575582587845,0.01277958644820799
-0.004953097826086957,0.290441949578253,0.01244429489236207
-0.004951847826086957,0.2980915210233817,0.01277958644820783
-0.004950597826086957,0.3050759123428536,0.01277958644820799
-0.004949347826086957,0.3127254837879823,0.01277958644820799
-0.004948097826086957,0.3200424651702861,0.01311487800405391
-0.004946847826086957,0.32735944655259,0.01277958644820814
-0.004945597826086957,0.3353416080605504,0.01311487800405391
-0.004944347826086957,0.3426585894428507,0.01311487800405391
-0.004943097826086957,0.349975570825151,0.01311487800405391
-0.004941847826086957,0.3572925522074513,0.01345016955989983
-0.004940597826086957,0.3652747137154117,0.01311487800405406
-0.004939347826086957,0.3715939249092201,0.01311487800405391
-0.004938097826086957,0.3782457261658538,0.01277958644820814
-0.004936847826086957,0.3855627075481571,0.01311487800405391
-0.004935597826086957,0.3925470988676292,0.01277958644820799
-0.004934347826086957,0.4005292603755896,0.01277958644820799
-0.004933097826086957,0.4085114218835535,0.01244429489236207
-0.004931847826086957,0.4158284032658539,0.01277958644820799
-0.004930597826086957,0.4224802045224905,0.01277958644820799
-0.004929347826086957,0.4287994157162924,0.01311487800405375
-0.004928097826086957,0.4354512169729319,0.01277958644820799
-0.004926847826086956,0.4424356082924039,0.01244429489236207
-0.004925597826086957,0.4500851797375326,0.01244429489236207
-0.004924347826086957,0.4574021611198359,0.01277958644820814
-0.004923097826086957,0.4640539623764696,0.01311487800405391
-0.004921847826086957,0.4707057636331062,0.01244429489236207
-0.004920597826086957,0.4780227450154065,0.01277958644820799
-0.004919347826086957,0.4840093661463795,0.01244429489236207
-0.004918097826086957,0.4916589375915081,0.0131148780040536
-0.004916847826086957,0.4989759189738119,0.01311487800405391
-0.004915597826086957,0.5049625401047879,0.01244429489236207
-0.004914347826086957,0.5116143413614216,0.01244429489236207
-0.004913097826086957,0.518266142618061,0.01277958644820783
-0.004911847826086957,0.5242527637490312,0.01244429489236207
-0.004910597826086957,0.5312371550684997,0.01210900333651615
-0.004909347826086957,0.5388867265136285,0.01210900333651615
-0.004908097826086957,0.5452059377074366,0.01210900333651615
-0.004906847826086957,0.5511925588384069,0.01244429489236192
-0.004905597826086957,0.5581769501578782,0.01244429489236207
-0.004904347826086957,0.5651613414773492,0.01210900333651615
-0.004903097826086957,0.5708153725454878,0.01210900333651615
-0.004901847826086957,0.5771345837392926,0.01210900333651615
-0.004900597826086957,0.5844515651215929,0.01210900333651615
-0.004899347826086957,0.5894404160640704,0.01210900333651615
-0.004898097826086957,0.5960922173207041,0.01210900333651615
-0.004896847826086957,0.6030766086401755,0.01210900333651615
-0.004895597826086957,0.6080654595826508,0.01210900333651615
-0.004894347826086957,0.6150498509021215,0.01177371178067023
-0.004893097826086957,0.6213690620959288,0.01177371178067007
-0.004891847826086957,0.6266905031012356,0.01143842022482431
-0.004890597826086957,0.6323445341693767,0.01177371178067023
-0.004889347826086957,0.6393289254888452,0.01177371178067023
-0.004888097826086957,0.6449829565569865,0.01177371178067023
-0.004886847826086957,0.6503043975622933,0.01143842022482446
-0.004885597826086957,0.6569561988189324,0.01143842022482431
-0.004884347826086956,0.6622776398242446,0.01110312866897823
-0.004883097826086957,0.6685968510180466,0.01076783711313247
-0.004881847826086957,0.6749160622118537,0.01076783711313262
-0.004880597826086957,0.6802375032171607,0.01110312866897839
-0.004879347826086957,0.6852263541596382,0.01110312866897839
-0.004878097826086957,0.6908803852277793,0.01177371178067023
-0.004876847826086957,0.6965344162959204,0.01110312866897839
-0.004875597826086957,0.7015232672383958,0.01143842022482416
-0.004874347826086957,0.7075098883693709,0.01143842022482431
-0.004873097826086956,0.7134965095003459,0.01143842022482416
-0.004871847826086957,0.7178201803171578,0.01110312866897839
-0.004870597826086957,0.7231416213224701,0.01076783711313247
-0.004869347826086957,0.7297934225791037,0.01076783711313247
-0.004868097826086957,0.7337845033330856,0.01177371178067023
-0.004866847826086957,0.7387733542755609,0.01110312866897869
-0.004865597826086957,0.7440947952808725,0.01043254555728655
-0.004864347826086957,0.7497488263490111,0.01043254555728655
-0.004863097826086957,0.7550702673543229,0.01043254555728655
-0.004861847826086957,0.7603917083596348,0.0104325455572867
-0.004860597826086957,0.7657131493649416,0.01076783711313247
-0.004859347826086957,0.7707020003074191,0.01076783711313247
-0.004858097826086957,0.7746930810614011,0.01009725400144063
-0.004856847826086957,0.7800145220667104,0.01043254555728655
-0.004855597826086957,0.7843381928835222,0.01043254555728655
-0.004854347826086957,0.7889944537631699,0.01043254555728655
-0.004853097826086957,0.7946484848313085,0.01009725400144078
-0.004851847826086957,0.798639565585293,0.01043254555728655
-0.004850597826086957,0.8032958264649408,0.01009725400144047
-0.004849347826086957,0.8079520873445843,0.009761962445594708
-0.004848097826086957,0.81260834822423,0.009761962445594708
-0.004846847826086957,0.8169320190410438,0.009426670889748788
-0.004845597826086957,0.8212556898578576,0.009761962445594708
-0.004844347826086957,0.8249141805490061,0.009426670889748941
-0.004843097826086957,0.8302356215543171,0.009426670889748788
-0.004841847826086956,0.8342267023083012,0.009426670889748483
-0.004840597826086957,0.8388829631879448,0.008756087778056948
-0.004839347826086957,0.8432066340047601,0.009091379333902867
-0.004838097826086957,0.8465325346330769,0.009091379333902867
-0.004836847826086957,0.8511887955127225,0.009091379333902867
-0.004835597826086957,0.8551798762667046,0.009091379333902867
-0.004834347826086957,0.8591709570206865,0.009091379333902867
-0.004833097826086957,0.8631620377746667,0.009426670889748636
-0.004831847826086957,0.8658227582773231,0.008756087778056948
-0.004830597826086956,0.8701464290941386,0.008756087778056795
-0.004829347826086957,0.8738049197852872,0.008420796222211029
-0.004828097826086957,0.8774634104764389,0.008756087778056948
-0.004826847826086957,0.8811219011675875,0.008756087778056948
-0.004825597826086957,0.8854455719844013,0.008420796222211029
-0.004824347826086957,0.888771472612718,0.008420796222211029
-0.004823097826086957,0.8920973732410379,0.008420796222211029
-0.004821847826086957,0.8957558639321864,0.008085504666365262
-0.004820597826086957,0.8990817645605064,0.008085504666365109
-0.004819347826086957,0.9027402552516578,0.008085504666364957
-0.004818097826086957,0.9054009757543112,0.007750213110519188
-0.004816847826086957,0.9083942863197977,0.007750213110519188
-0.004815597826086957,0.9110550068224524,0.007750213110519188
-0.004814347826086957,0.9147134975136025,0.007750213110519188
-0.004813097826086957,0.9187045782675828,0.007750213110519188
-0.004811847826086957,0.921697888833071,0.007079629998827349
-0.004810597826086957,0.9240260192728927,0.007414921554673116
-0.004809347826086957,0.9266867397755485,0.007414921554673269
-0.004808097826086957,0.9290148702153727,0.007414921554673269
-0.004806847826086957,0.9320081807808578,0.007414921554673269
-0.004805597826086957,0.9353340814091762,0.007414921554673269
-0.004804347826086957,0.9373296217861672,0.006744338442981428
-0.004803097826086957,0.93965775222599,0.007414921554673269
-0.004801847826086957,0.94165329260298,0.006409046887135966
-0.004800597826086957,0.9453117832941311,0.006409046887135509
-0.004799347826086956,0.9473073236711229,0.006409046887135356
-0.004798097826086957,0.9489702739852813,0.006073755331289589
-0.004796847826086957,0.9516309944879371,0.006409046887135509
-0.004795597826086957,0.9539591249277588,0.006409046887135509
-0.004794347826086957,0.9562872553675816,0.006409046887135509
-0.004793097826086957,0.9589479758702363,0.005738463775443669
-0.004791847826086957,0.9612761063100591,0.006409046887135509
-0.004790597826086957,0.9626064665613858,0.006073755331289741
-0.004789347826086957,0.9639368268127138,0.006073755331289589
-0.004788097826086956,0.9662649572525374,0.005738463775443517
-0.004786847826086957,0.9679279075666958,0.005403172219597749
-0.004785597826086957,0.9692582678180239,0.005738463775443517
-0.004784347826086957,0.9712538081950141,0.005403172219597749
-0.004783097826086957,0.9725841684463414,0.005403172219597749
-0.004781847826086957,0.9745797088233314,0.005067880663751982
-0.004780597826086957,0.9769078392631552,0.005067880663751829
-0.004779347826086957,0.978238199514482,0.005067880663751829
-0.004778097826086957,0.9789033796401462,0.005403172219597749
-0.004776847826086957,0.9799011498286423,0.00473258910790591
-0.004775597826086957,0.981231510079969,0.00473258910790591
-0.004774347826086957,0.9828944603941282,0.00406200599621407
-0.004773097826086957,0.9838922305826237,0.00406200599621407
-0.004771847826086957,0.9848900007711192,0.00406200599621407
-0.004770597826086957,0.9862203610224459,0.00406200599621407
-0.004769347826086957,0.987218131210942,0.004397297552059989
-0.004768097826086957,0.9875507212737737,0.004732589107905757
-0.004766847826086957,0.9885484914622693,0.00473258910790591
-0.004765597826086957,0.9892136715879334,0.003726714440368302
-0.004764347826086957,0.9898788517135967,0.00406200599621407
-0.004763097826086957,0.9908766219020921,0.00372671444036815
-0.004761847826086957,0.9915418020277559,0.00339142288452223
-0.004760597826086957,0.9918743920905877,0.00305613132867631
-0.004759347826086957,0.9922069821534194,0.003391422884522077
-0.004758097826086957,0.9925395722162513,0.00305613132867631
-0.004756847826086956,0.9925395722162518,0.003056131328676157
-0.004755597826086957,0.9935373424047469,0.00272083977283039
-0.004754347826086957,0.9935373424047469,0.003056131328676005
-0.004753097826086957,0.9935373424047469,0.00238554821698447
-0.004751847826086957,0.9938699324675787,0.00238554821698447
-0.004750597826086957,0.993204752341915,0.00238554821698447
-0.004749347826086957,0.9935373424047469,0.00238554821698447
-0.004748097826086957,0.9935373424047469,0.00238554821698447
-0.004746847826086957,0.9935373424047469,0.00205025666113855
-0.004745597826086956,0.9932047523419149,0.002385548216984318
-0.004744347826086957,0.9928721622790831,0.00205025666113855
-0.004743097826086957,0.9925395722162512,0.001379673549446863
-0.004741847826086957,0.9922069821534195,0.00171496510529263
-0.004740597826086957,0.9915418020277559,0.00171496510529263
-0.004739347826086957,0.9912092119649242,0.001379673549446863
-0.004738097826086957,0.9912092119649241,0.00137967354944671
-0.004736847826086957,0.9902114417764289,0.001044381993600943
-0.004735597826086957,0.9898788517135967,0.001044381993600791
-0.004734347826086957,0.988548491462269,0.001044381993600943
-0.004733097826086957,0.9878833113366057,0.00137967354944671
-0.004731847826086957,0.9868855411481102,0.0007090904377548707
-0.004730597826086957,0.9865529510852784,0.0007090904377548707
-0.004729347826086957,0.985222590833951,0.001044381993600791
-0.004728097826086957,0.9835596405197926,0.0003737988819092557
-0.004726847826086957,0.9828944603941282,0.0003737988819089508
