2020_assignments/Steve Kelley Lab 3/3l_1_resonance_sweep.csv

#Digilent WaveForms Oscilloscope Acquisition
#Device Name: Discovery2
#Serial Number: SN:210321AE3681
#Date Time: 2020-09-14 11:09:51.928
#Sample rate: 800000Hz
#Samples: 8192
#Trigger: Source: Channel 1 Type: Edge Condition: Rising Level: 1 V Hyst.: Auto HoldOff: 0 s
#Channel 1: Range: 500 mV/div Offset: 0 V Attenuation: 1 X
#Channel 2: Range: 200 mV/div Offset: 0 V Attenuation: 1 X
#Wavegen Channel 1: Running
#Mode: Sweep
#Type: Sine
#Frequency: 16.4 kHz
#Period: 60.9756098 us
#Stop: 17 kHz
#Amplitude: 1 V
#Offset: 0 V
#Symmetry: 50 %
#Phase: 0 °

Time (s),Channel 1 (V),Channel 2 (V)
0.001020033783783783,0.460612614870373,0.1498622939262893
0.001021283783783783,0.3387128909990526,0.1491928121138678
0.001022533783783783,0.2114987377490856,0.1455106621455465
0.001023783783783783,0.07897015512065314,0.1394853258337554
0.001025033783783783,-0.05355842750783966,0.1307820622722753
0.001026283783783783,-0.1860870101363324,0.1197356123673199
0.001027533783783783,-0.3149619225670472,0.1070154579313105
0.001028783783783783,-0.4381902537829582,0.09262159896425387
0.001030033783783783,-0.5541112446034252,0.07621929455991949
0.001031283783783784,-0.6600676803390295,0.05814328562452929
0.001032533783783783,-0.7534023463004068,0.03939779487673459
0.001033783783783783,-0.8347795461600379,0.01964808141029007
0.001035033783783783,-0.9015420652284964,-0.0001016320561364956
0.001036283783783783,-0.9526934479973884,-0.01985134552257204
0.001037533783783783,-0.985908631613552,-0.03960105898900759
0.001038783783783783,-1.002184071585472,-0.05868129064302158
0.001040033783783783,-1.001519767913149,-0.07675729957839506
0.001041283783783783,-0.9839157205965822,-0.0931596039827311
0.001042533783783784,-0.9480433222911016,-0.1082229447622218
0.001043783783783783,-0.8952311803414253,-0.1212778401044359
0.001045033783783783,-0.8278043576005758,-0.1319895491031844
0.001046283783783783,-0.7454307022325275,-0.1403580717584499
0.001047533783783783,-0.6497709734179763,-0.1463834080702438
0.001048783783783783,-0.5428180821739782,-0.1504002989447713
0.001050033783783783,-0.4262327876811953,-0.1514045216634054
0.001051283783783783,-0.3020080009568,-0.1497308171323523
0.001052533783783783,-0.172800936689867,-0.1450444444454007
0.001053783783783784,-0.03960805038899053,-0.1380148854149704
0.001055033783783783,0.0932526840756035,-0.1289768809472837
0.001056283783783783,0.2241205075232881,-0.1175956901361175
0.001057533783783783,0.3516668126093563,-0.1042060538876866
0.001058783783783783,0.4735665364806768,-0.08847323129578027
0.001060033783783783,0.5855017052670972,-0.07207092689145994
0.001061283783783783,0.6868080152964472,-0.05399491795607077
0.001062533783783783,0.7764890110600482,-0.03457994539585484
0.001063783783783783,0.8528839333772652,-0.01516497283562123
0.001065033783783783,0.9146641749033501,0.004584740630823445
0.001066283783783783,0.959836824621312,0.02466919500346063
0.001067533783783783,0.9874054270227278,0.04341468575126386
0.001068783783783783,0.9983664376160618,0.06216017649906708
0.001070033783783783,0.9913912490566674,0.07923196271581645
0.001071283783783783,0.9674763168530406,0.09529952621392621
0.001072533783783783,0.9262894891689868,0.1100281260872075
0.001073783783783784,0.8681629178406675,0.1217440578045892
0.001075033783783783,0.7957538175574638,0.1321210258971184
0.001076283783783783,0.7083978846469083,0.1394853258337578
0.001077533783783783,0.6090844856346244,0.1448411803331277
0.001078783783783783,0.4984779241927995,0.1475191075828139
0.001080033783783783,0.3789032631746105,0.1475191075828139
0.001081283783783783,0.2526855654331888,0.1451759212393385
0.001082533783783783,0.1228141974940481,0.1401548076461792
0.001083783783783783,-0.01004653697066533,0.13279050770954
0.001085033783783784,-0.1422429677630562,0.1227482805232113
0.001086283783783783,-0.2734429430468427,0.110697607899629
0.001087533783783783,-0.3993284889521564,0.09697323074497977
0.001088783783783783,-0.5172423907894835,0.08023618543444877
0.001090033783783783,-0.6261881930505002,0.06349914012391017
0.001091283783783783,-0.7251694402266228,0.04508839028232609
0.001092533783783783,-0.809868158447885,0.02634289953451449
0.001093783783783783,-0.8819451068949272,0.006593186068087925
0.001095033783783783,-0.9370823116977915,-0.01282178649214583
0.001096283783783784,-0.9762762283648749,-0.03257149995859004
0.001097533783783783,-0.9988625532238559,-0.05165173161259538
0.001098783783783783,-1.004509134438604,-0.06939299964176629
0.001100033783783783,-0.9905587573198149,-0.08646478585851566
0.001101283783783783,-0.961329395737591,-0.1018628675442112
0.001102533783783783,-0.9141638350026601,-0.1152525037926359
0.001103783783783783,-0.8513871379680894,-0.1266336946038083
0.001105033783783783,-0.7726671527978174,-0.135671699071495
0.001106283783783783,-0.6806610941810085,-0.1427012581019254
0.001107533783783783,-0.5770297212985266,-0.1480571126012983
0.001108783783783783,-0.4640980970036218,-0.1493960762261408
0.001110033783783783,-0.3418662212961397,-0.1487265944137192
0.001111283783783783,-0.2136556125377483,-0.1453791853516115
0.001112533783783783,-0.08245563725390198,-0.1396885899460284
0.001113783783783783,0.05140155271917649,-0.1309853263845523
0.001115033783783783,0.1832658316754069,-0.1202736173858036
0.001116283783783784,0.3131371996146621,-0.1072187220435773
0.001117533783783783,0.4353690753220886,-0.09349434488894187
0.001118783783783783,0.5506257624702242,-0.07709204048460598
0.001120033783783783,0.655917894533415,-0.05935077245544313
0.001121283783783783,0.7505811678394813,-0.04094002261385067
0.001122533783783783,0.8312940640267589,-0.02185979095983667
0.001123783783783783,0.8973922794229244,-0.001775336587190355
0.001125033783783783,0.9468829030109857,0.0179743768792362
0.001126283783783783,0.9810945421356567,0.03671986762704842
0.001127533783783784,0.997369982107576,0.05546535837485971
0.001128783783783783,0.9953770710906071,0.07320662640402256
0.001130033783783783,0.9757801127570547,0.08927418990214632
0.001131283783783783,0.9409041699600987,0.1040027897754136
0.001132533783783783,0.8884241798465603,0.1170576851176337
0.001133783783783783,0.8196687497611016,0.1270999123039568
0.001135033783783783,0.7366307907206926,0.1354684349592261
0.001136283783783783,0.6413032137423464,0.1418285121772279
0.001137533783783783,0.5340181706620946,0.1451759212393385
0.001138783783783784,0.4171007243331418,0.1465148848641807
0.001140033783783783,0.2922116339364235,0.144506439426917
0.001141283783783783,0.1623402659972238,0.1404895485523877
0.001142533783783783,0.03080813887721591,0.1334599895219615
0.001143783783783783,-0.1040455066044083,0.1244219850542707
0.001145033783783783,-0.233916874543549,0.1137102760555308
0.001146283783783783,-0.3617953314658379,0.0999858989008843
0.001147533783783783,-0.481702144320134,0.08525729902761704
0.001148783783783783,-0.5943016167789831,0.06852025371707174
0.001150033783783783,-0.696936534152969,0.05044424478168169
0.001151283783783783,-0.7856210744080855,0.03203349494009761
0.001152533783783783,-0.8613516930529385,0.01328800419229438
0.001153783783783783,-0.922135479070518,-0.00612696836793039
0.001155033783783783,-0.9673081287885004,-0.02621142274057671
0.001156283783783783,-0.9945445793537422,-0.04529165439458203
0.001157533783783783,-1.004176982602442,-0.0633676633299724
0.001158783783783784,-0.996537490370713,-0.08010470864051829
0.001160033783783783,-0.9716261026586017,-0.09617227213862803
0.001161283783783783,-0.9304392749745323,-0.110231390199486
0.001162533783783783,-0.8719805518101109,-0.1222820628230682
0.001163783783783783,-0.7969142368375811,-0.1323242900093914
0.001165033783783783,-0.7092261520909092,-0.1396885899460284
0.001166283783783783,-0.6099127530785801,-0.1450444444454007
0.001167533783783783,-0.4986418879644826,-0.1477223716950857
0.001168783783783783,-0.3784029232739197,-0.1473876307888762
0.001170033783783784,-0.2521852255324387,-0.1447097035391878
0.001171283783783783,-0.121649553920975,-0.1400233308522392
0.001172533783783783,0.01087902870757846,-0.132324290009387
0.001173783783783783,0.1444040668444954,-0.122616803729279
0.001175033783783783,0.2736111311113719,-0.1102313901994805
0.001176283783783783,0.3994966770166319,-0.0965070130448388
0.001177533783783783,0.5184070343624977,-0.08177841317156484
0.001178783783783783,0.6270206847873033,-0.06470662695482324
0.001180033783783783,0.7236768691103888,-0.04629587711322302
0.001181283783783784,0.8087077391677995,-0.02721564545920034
0.001182533783783783,0.8787917765978728,-0.008135413805195023
0.001183783783783783,0.934261133236866,0.01127955875502975
0.001185033783783783,0.9724585943954542,0.03069453131525452
0.001186283783783783,0.9947127674182838,0.04910528115684698
0.001187533783783783,0.9977021339437372,0.06651180827979922
0.001188783783783783,0.9840839086611115,0.08391833540276725
0.001190033783783783,0.9528616360619319,0.09864693527603453
0.001191283783783783,0.9050317716546421,0.1120365715244721
0.001192533783783783,0.8405943154392487,0.123083021429432
0.001193783783783783,0.7615421784328152,0.13279050770954
0.001195033783783783,0.6692039679798805,0.1388158440213338
0.001196283783783783,0.5652404432612884,0.1431674758020739
0.001197533783783783,0.4509802116216855,0.1451759212393385
0.001198783783783783,0.3290804877504205,0.1441716985207066
0.001200033783783783,0.2002055753196503,0.1408242894585985
0.001201283783783783,0.06867344819970223,0.1347989531468073
0.001202533783783783,-0.06518374177349692,0.1264304304915353
0.001203783783783783,-0.1973801725658868,0.1160534623989956
0.001205033783783783,-0.3265872368327045,0.103333307962992
0.001206283783783783,-0.4484869607040249,0.08893944899592884
0.001207533783783783,-0.563411496015951,0.07287188549781179
0.001208783783783783,-0.6690357799153512,0.05546535837485164
0.001210033783783783,-0.7630347495490515,0.0377240903456888
0.001211283783783783,-0.8424190383917253,0.01931334050408828
0.001212533783783784,-0.9071886464432668,-0.0001016320561456289
0.001213783783783783,-0.956679270031328,-0.02018608642878281
0.001215033783783783,-0.9882336944666906,-0.03926631808280504
0.001216283783783783,-1.00384483076628,-0.0573423270181785
0.001217533783783783,-1.000523312404664,-0.07441411323492786
0.001218783783783783,-0.9805942022349659,-0.09081641763925569
0.001220033783783783,-0.943061044748701,-0.1048755357001081
0.001221283783783783,-0.8895845991267018,-0.1169262083236904
0.001222533783783783,-0.8191684098604107,-0.1276379173224406
0.001223783783783784,-0.7354661471476344,-0.1363411808839231
0.001225033783783783,-0.6384778109884807,-0.141697035383293
0.001226283783783783,-0.5301963123997339,-0.1450444444454012
0.001227533783783783,-0.4126145623985683,-0.1460486671640331
0.001228783783783783,-0.2883897756741163,-0.1443749626329792
0.001230033783783783,-0.1581862558988142,-0.1403580717584518
0.001231283783783783,-0.02432906592561568,-0.1336632536342345
0.001232533783783783,0.1088638203751398,-0.1249599900727584
0.001233783783783783,0.239731643822885,-0.1135787992615882
0.001235033783783783,0.3659493415643617,-0.1001891630131505
0.001236283783783783,0.4868526099271422,-0.08512582223367257
0.001237533783783783,0.598455626877452,-0.06872351782934474
0.001238783783783783,0.6994297850705894,-0.0513169907063846
0.001240033783783783,0.7874500216534229,-0.03290624086479214
0.001241283783783783,0.862184184789757,-0.01382600921078682
0.001242533783783783,0.920642907954239,0.005588963349446628
0.001243783783783783,0.9644869503275549,0.02466919500345195
0.001245033783783783,0.9897304898758593,0.04341468575126386
0.001246283783783783,0.9980342857798961,0.06115595378044238
0.001247533783783783,0.989066186203536,0.07789299909097336
0.001248783783783783,0.9624940393106051,0.09329108077666887
0.001250033783783783,0.9186499969372691,0.1070154579313105
0.001251283783783783,0.8588626664281747,0.1190661305548983
0.001252533783783783,0.7837963514556789,0.1284388759287957
0.001253783783783783,0.6957761148728113,0.1358031758654369
0.001255033783783784,0.5938055011711383,0.1404895485523888
0.001256283783783783,0.4818703323847177,0.1428327348958631
0.001257533783783783,0.3612992158579864,0.1428327348958619
0.001258783783783783,0.2350815181166221,0.1401548076461769
0.001260033783783783,0.1042136946689375,0.1354684349592261
0.001261283783783783,-0.02964349530420186,0.1274346532101676
0.001262533783783783,-0.1625042297688563,0.1177271669300552
0.001263783783783783,-0.2923755977079969,0.1063459761188942
0.001265033783783783,-0.4159360807601846,0.09262159896424732
0.001266283783783784,-0.5341821344337764,0.07688877637233359
0.001267533783783783,-0.642795784858582,0.06048647196801323
0.001268783783783783,-0.7387876655093328,0.04174098122020147
0.001270033783783783,-0.822489928222027,0.02299549047240677
0.001271283783783783,-0.891909661979809,0.004584740630814312
0.001272533783783783,-0.9450539557656465,-0.01483023192940163
0.001273783783783783,-0.9819228095796124,-0.03391046358342446
0.001275033783783783,-1.001851919749301,-0.05165173161258731
0.001276283783783783,-1.003512678930119,-0.06939299964176629
0.001277533783783784,-0.9875693907943448,-0.08512582223367943
0.001278783783783783,-0.9536899035058733,-0.1001891630131573
0.001280033783783783,-0.9041992799177896,-0.1125745765429559
0.001281283783783783,-0.8394296718662705,-0.1236210264479113
0.001282533783783783,-0.7590489275151546,-0.1323242900093914
0.001283783783783783,-0.6650499578814544,-0.1390191081336038
0.001285033783783783,-0.5594256739820114,-0.1433707399143469
0.001286283783783783,-0.4441689868339761,-0.1450444444454
0.001287533783783783,-0.3199442001094718,-0.1433707399143469
0.001288783783783783,-0.1914014395148585,-0.1400233308522366
0.001290033783783783,-0.05920500872258747,-0.1343327354466561
0.001291283783783783,0.07365572574206697,-0.125629471885176
0.001292533783783783,0.2055200046982365,-0.1149177628864313
0.001293783783783783,0.3343949171289513,-0.1028670902628435
0.001295033783783783,0.4562946410002162,-0.0881384903895762
0.001296283783783783,0.5698905689675513,-0.07274040870387399
0.001297533783783784,0.6745183973585082,-0.0553338815809058
0.001298783783783783,0.7658601523029166,-0.03759261355174295
0.001300033783783783,0.8442479856370914,-0.01884712280393089
0.001301283783783783,0.9073568345077735,0.0005678497562850483
0.001302533783783783,0.9551866989150491,0.01931334050408828
0.001303783783783783,0.9857446678419196,0.0380588312518915
0.001305033783783783,0.9977021339437385,0.05613484018727319
0.001306283783783783,0.9927198564013162,0.07253714459159355
0.001307533783783783,0.970797835214646,0.0882699671835073
0.001308783783783784,0.9319360703837091,0.1019943443381546
0.001310033783783783,0.8758024100724181,0.1143797578679475
0.001311283783783783,0.8050540689699504,0.1247567259604849
0.001312533783783783,0.7186945915679642,0.1324557668033292
0.001313783783783783,0.62037764806412,0.1374768803964908
0.001315033783783783,0.5110996939669914,0.140824289458597
0.001316283783783783,0.3931857921295608,0.1418285121772308
0.001317533783783783,0.2669680943881965,0.1398200667399671
0.001318783783783783,0.1357681191042929,0.1354684349592261
0.001320033783783784,0.002907384639578209,0.1287736168350064
0.001321283783783783,-0.1296211979888543,0.1194008714611091
0.001322533783783783,-0.2608211732727005,0.1083544215561536
0.001323783783783783,-0.3867067191779606,0.09529952621393351
0.001325033783783783,-0.5066135320323112,0.08057092634065954
0.001326283783783783,-0.6165557898017627,0.06416862193633918
0.001327533783783783,-0.7171977961587884,0.04676209481337158
0.001328783783783783,-0.8035572735607746,0.02835134497178749
0.001330033783783783,-0.8766306775163738,0.009940595130186662
0.001331283783783783,-0.9330964896638707,-0.009139636523835861
0.001332533783783783,-0.9742833173478948,-0.02788512727163056
0.001333783783783783,-0.9988625532238559,-0.04596113620701225
0.001335033783783783,-1.004509134438604,-0.06370240423618317
0.001336283783783783,-0.9928838201729464,-0.08010470864051097
0.001337533783783783,-0.9643187622630587,-0.09483330851377826
0.001338783783783783,-0.9188139607089015,-0.1085576856684266
0.001340033783783784,-0.8560372636743175,-0.1202736173858079
0.001341283783783783,-0.779642341357176,-0.1296463627597052
0.001342533783783783,-0.6883005864126797,-0.1366759217901334
0.001343783783783783,-0.5859978208749422,-0.1410275535708715
0.001345033783783783,-0.4717375892353395,-0.1433707399143469
0.001346283783783783,-0.3501700172001806,-0.1430359990081361
0.001347533783783783,-0.2219594084417892,-0.1400233308522392
0.001348783783783783,-0.09075943315800256,-0.1343327354466586
0.001350033783783783,0.04309775681519644,-0.1269684355100191
0.001351283783783784,0.1749620357714249,-0.1172609492299014
0.001352533783783783,0.304501251874404,-0.1055450175125296
0.001353783783783783,0.4283938867627473,-0.09148589945167007
0.001355033783783783,0.5449791812554285,-0.07575307685977095
0.001356283783783783,0.6515999206633137,-0.05935077245544313
0.001357533783783783,0.7459310421331755,-0.04160950442628028
0.001358783783783783,0.8269760901566576,-0.02353349549089053
0.001360033783783783,0.8947350647336005,-0.004453263836885209
0.001361283783783783,0.9452221438302001,0.0142922269109267
0.001362533783783784,0.9797659347910177,0.03270297675252707
0.001363783783783783,0.996373526599092,0.05010950387547929
0.001365033783783783,0.9957092229267687,0.06785077190465022
0.001366283783783783,0.9777730237740404,0.08324885359034573
0.001367533783783783,0.9425649291409069,0.09730797165119814
0.001368783783783783,0.8907492426997152,0.1103628669934123
0.001370033783783783,0.8226581162865564,0.1207398350859522
0.001371283783783783,0.740284460918508,0.1291083577412176
0.001372533783783783,0.6442925802677577,0.1358031758654369
0.001373783783783783,0.5370075371874958,0.1391505849275451
0.001375033783783783,0.4194257871863301,0.1401548076461769
0.001376283783783783,0.2961974559703631,0.1391505849275446
0.001377533783783783,0.1659939361950018,0.1351336940530154
0.001378783783783783,0.03313320173034736,0.1291083577412215
0.001380033783783783,-0.1003918364065696,0.120739835085956
0.001381283783783783,-0.2315918116904766,0.1100281260872075
0.001382533783783784,-0.3591381167765998,0.09831219436982391
0.001383783783783783,-0.4800413851393804,0.08391833540276725
0.001385033783783783,-0.5936373131067059,0.06751603099843169
0.001386283783783783,-0.6949436231359588,0.05044424478169007
0.001387533783783783,-0.7852889225719238,0.03270297675251915
0.001388783783783783,-0.8610195412167769,0.0142922269109267
0.001390033783783783,-0.9224676309066796,-0.003783782024454987
0.001391283783783783,-0.9663116732799956,-0.02286401367846031
0.001392533783783783,-0.9948767311899163,-0.04094002261385067
0.001393783783783784,-1.005173438110923,-0.05834654973681888
0.001395033783783783,-0.9975339458792093,-0.07608781776598172
0.001396283783783783,-0.9719582544947438,-0.09115115854547255
0.001397533783783783,-0.9291106676299122,-0.1045407947938973
0.001398783783783783,-0.8706519444654643,-0.1162567265112744
0.001400033783783783,-0.7969142368376146,-0.1256294718851717
0.001401283783783783,-0.7092261520909092,-0.1336632536342345
0.001402533783783783,-0.6082519938978178,-0.1386843672273938
0.001403783783783783,-0.4973132806197855,-0.1413622944770823
0.001405033783783784,-0.3774064677653772,-0.141697035383292
0.001406283783783783,-0.2505244663516898,-0.1393538490398176
0.001407533783783783,-0.118992339231682,-0.1350022172590776
0.001408783783783783,0.01453269890529574,-0.1279726582286514
0.001410033783783783,0.1470612815337885,-0.1185999128547498
0.001411283783783783,0.2772648013090907,-0.1065492402311674
0.001412533783783783,0.4024860435420867,-0.09349434488894187
0.001413783783783783,0.5210642490517369,-0.07910048592188523
0.001415033783783783,0.6286814439681608,-0.06303292242376163
0.001416283783783783,0.7260019319635588,-0.04562639530079326
0.001417533783783783,0.8107006501847375,-0.02755038636541979
0.001418783783783783,0.8811168394510043,-0.009139636523827337
0.001420033783783783,0.9359218924176742,0.009271113317765119
