2020_assignments/Steve Kelley Lab 3/3l_2_half_wave.csv

#Digilent WaveForms Oscilloscope Acquisition
#Device Name: Discovery2
#Serial Number: SN:210321AE3681
#Date Time: 2020-09-16 10:08:46.722
#Sample rate: 40000Hz
#Samples: 8192
#Trigger: Source: Channel 1 Type: Edge Condition: Rising Level: 0 V Hyst.: Auto HoldOff: 0 s
#Channel 1: Range: 500 mV/div Offset: 0 V Attenuation: 1 X
#Channel 2: Range: 500 mV/div Offset: 0 V Attenuation: 1 X
#Wavegen Channel 1: Running
#Mode: Simple
#Type: Sine
#Frequency: 60 Hz
#Period: 16.6666667 ms
#Amplitude: 1 V
#Offset: 0 V
#Symmetry: 50 %
#Phase: 180 °
#Wavegen Channel 2: Running
#Mode: Simple
#Type: Sine
#Frequency: 60 Hz
#Period: 16.6666667 ms
#Amplitude: 1 V
#Offset: 0 V
#Symmetry: 50 %
#Phase: 0 °

Time (s),Channel 1 (V),Channel 2 (V)
-0.05699711538461539,-0.4893416365519062,0.0005678497562850483
-0.05697211538461538,-0.497645432455951,0.0005678497562850483
-0.05694711538461538,-0.5062813801961495,0.0005678497562850483
-0.05692211538461538,-0.5135887205917056,0.0005678497562850483
-0.05689711538461539,-0.5218925164957464,0.0005678497562850483
-0.05687211538461539,-0.5298641605636257,0.0002331088500742764
-0.05684711538461538,-0.5381679564676703,0.0005678497562848961
-0.05682211538461538,-0.5464717523717075,0.0002331088500742764
-0.05679711538461538,-0.5534469409311019,0.0005678497562850483
-0.05677211538461539,-0.5617507368351428,0.0005678497562850483
-0.05674711538461539,-0.5693902290668604,0.0005678497562850483
-0.05672211538461538,-0.5770297212985817,0.0005678497562848961
-0.05669711538461538,-0.5850013653664573,0.0002331088500742764
-0.05667211538461538,-0.5923087057620133,0.0002331088500742764
-0.05664711538461539,-0.6002803498298925,0.0005678497562850483
-0.05662211538461539,-0.6072555383892869,0.0005678497562850483
-0.05659711538461538,-0.6152271824571697,0.0005678497562850483
-0.05657211538461538,-0.6228666746888838,0.0005678497562850483
-0.05654711538461538,-0.6295097114121165,0.0005678497562850483
-0.05652211538461539,-0.6374813554799958,0.0002331088500742764
-0.05649711538461539,-0.6444565440393901,0.0005678497562850483
-0.05647211538461538,-0.6517638844349495,0.0002331088500744286
-0.05644711538461538,-0.6590712248305022,0.0005678497562850483
-0.05642211538461538,-0.6657142615537349,0.0002331088500742764
-0.05639711538461539,-0.6733537537854525,0.0002331088500742764
-0.05637211538461539,-0.6803289423448469,0.0002331088500742764
-0.05634711538461538,-0.6873041309042445,0.0002331088500742764
-0.05632211538461538,-0.6942793194636355,0.0002331088500742764
-0.05629711538461538,-0.700258052514545,0.0002331088500742764
-0.05627211538461539,-0.7072332410739394,0.0002331088500742764
-0.05624711538461539,-0.7138762777971721,0.0002331088500742764
-0.05622211538461538,-0.7205193145204078,0.0002331088500742764
-0.05619711538461538,-0.7271623512436376,0.0002331088500742764
-0.05617211538461538,-0.7331410842945469,0.0005678497562850483
-0.05614711538461539,-0.7401162728539413,0.0005678497562850483
-0.05612211538461539,-0.7460950059048508,0.0002331088500742764
-0.05609711538461539,-0.752405890791919,0.0002331088500742764
-0.05607211538461538,-0.7590489275151546,0.0002331088500742764
-0.05604711538461538,-0.7650276605660641,0.0002331088500742764
-0.05602211538461539,-0.7713385454531352,0.0002331088500742764
-0.05599711538461539,-0.7773172785040446,0.0002331088500742764
-0.05597211538461539,-0.7832960115549513,0.0002331088500742764
-0.05594711538461538,-0.7892747446058634,0.0002331088500742764
-0.05592211538461538,-0.7945891739844496,0.0002331088500742764
-0.05589711538461539,-0.8005679070353591,0.0002331088500742764
-0.05587211538461539,-0.8058823364139452,0.0002331088500742764
-0.05584711538461539,-0.8115289176286905,0.0005678497562848961
-0.05582211538461538,-0.8168433470072792,0.0002331088500742764
-0.05579711538461538,-0.8221577763858655,0.0002331088500742764
-0.05577211538461539,-0.8278043576006132,0.0002331088500742764
-0.05574711538461539,-0.8327866351430379,0.0002331088500742764
-0.05572211538461539,-0.8384332163577831,-0.0001016320561363433
-0.05569711538461538,-0.8437476457363718,-0.0001016320561364956
-0.05567211538461538,-0.8483977714426347,-0.0001016320561364956
-0.05564711538461539,-0.8537122008212209,-0.0001016320561364956
-0.05562211538461539,-0.8580301746913221,-0.0001016320561364956
-0.05559711538461539,-0.8633446040699059,0.0002331088500741241
-0.05557211538461538,-0.8679947297761712,0.0002331088500742764
-0.05554711538461538,-0.8723127036462726,0.0002331088500742764
-0.05552211538461539,-0.8776271330248587,0.0002331088500742764
-0.05549711538461539,-0.88194510689496,0.0002331088500742764
-0.05547211538461539,-0.8862630807650592,0.0002331088500742764
-0.05544711538461538,-0.8905810546351625,0.0002331088500742764
-0.05542211538461538,-0.8945668766691022,0.0002331088500742764
-0.05539711538461538,-0.8988848505392034,0.0002331088500742764
-0.05537211538461539,-0.902870672573143,0.0002331088500742764
-0.05534711538461539,-0.9071886464432423,0.0002331088500742764
-0.05532211538461538,-0.911174468477184,0.0002331088500742764
-0.05529711538461538,-0.9148281386749619,0.0005678497562850483
-0.05527211538461538,-0.9188139607089015,0.0002331088500742764
-0.05524711538461539,-0.9227997827428411,0.0002331088500742764
-0.05522211538461539,-0.9264534529406175,0.0002331088500742764
-0.05519711538461538,-0.9304392749745588,0.0002331088500742764
-0.05517211538461538,-0.9337607933361751,0.0002331088500742764
-0.05514711538461538,-0.9374144635339532,0.0002331088500742764
-0.05512211538461539,-0.9404038300594079,0.0002331088500742764
-0.05509711538461539,-0.9433931965848613,0.0002331088500742764
-0.05507211538461538,-0.946714714946479,0.0002331088500742764
-0.05504711538461538,-0.9497040814719337,0.0002331088500742764
-0.05502211538461538,-0.9530255998335501,0.0002331088500742764
-0.05499711538461539,-0.9563471181951664,0.0002331088500742764
-0.05497211538461539,-0.9590043328844583,0.0002331088500742764
-0.05494711538461538,-0.9616615475737526,0.0002331088500742764
-0.05492211538461538,-0.9643187622630457,0.0002331088500742764
-0.05489711538461538,-0.9669759769523388,0.0002331088500742764
-0.05487211538461539,-0.9693010398054702,-0.0001016320561364956
-0.05484711538461539,-0.9716261026586006,0.0002331088500741241
-0.05482211538461538,-0.9739511655117331,-0.0001016320561364956
-0.05479711538461538,-0.975944076528703,-0.0001016320561364956
-0.05477211538461538,-0.9782691393818345,-0.0001016320561364956
-0.05474711538461539,-0.9802620503988042,-0.0001016320561364956
-0.05472211538461539,-0.9819228095796124,-0.0001016320561364956
-0.05469711538461538,-0.9839157205965822,-0.0001016320561364956
-0.05467211538461538,-0.9855764797773904,-0.0001016320561364956
-0.05464711538461538,-0.9875693907943602,-0.0004363729623472675
-0.05462211538461539,-0.9892301499751684,-0.0004363729623472675
-0.05459711538461539,-0.9905587573198149,-0.0001016320561364956
-0.05457211538461538,-0.9922195165006231,-0.0004363729623472675
-0.05454711538461538,-0.9935481238452697,-0.0001016320561364956
-0.05452211538461538,-0.9948767311899163,-0.0004363729623472675
-0.05449711538461539,-0.9958731866984011,-0.0004363729623472675
-0.05447211538461539,-0.996869642206886,-0.0001016320561364956
-0.05444711538461538,-0.9981982495515326,-0.0004363729623472675
-0.05442211538461538,-0.9988625532238559,-0.0004363729623472675
-0.05439711538461538,-1.000191160568502,-0.0001016320561364956
-0.05437211538461539,-1.000855464240826,-0.0004363729623472675
-0.05434711538461539,-1.001519767913149,-0.0004363729623472675
-0.05432211538461538,-1.001851919749311,-0.0004363729623472675
-0.05429711538461538,-1.002516223421634,-0.0004363729623472675
-0.05427211538461538,-1.002848375257795,-0.0001016320561364956
-0.05424711538461539,-1.002848375257795,-0.0007711138685580394
-0.05422211538461539,-1.003180527093957,-0.0007711138685580394
-0.05419711538461538,-1.003512678930119,-0.0007711138685580394
-0.05417211538461538,-1.003180527093957,-0.0007711138685580394
-0.05414711538461538,-1.003180527093957,-0.0007711138685580394
-0.05412211538461539,-1.003180527093957,-0.0007711138685580394
-0.05409711538461539,-1.003180527093957,-0.0007711138685580394
-0.05407211538461538,-1.002848375257795,-0.0004363729623472675
-0.05404711538461538,-1.002516223421634,-0.0004363729623472675
-0.05402211538461538,-1.001851919749311,-0.0004363729623472675
-0.05399711538461539,-1.000855464240826,-0.0004363729623472675
-0.05397211538461539,-1.000191160568502,-0.0004363729623472675
-0.05394711538461538,-0.9995268568961788,-0.0004363729623474197
-0.05392211538461538,-0.9988625532238559,-0.0007711138685580394
-0.05389711538461538,-0.9978660977153709,-0.0004363729623472675
-0.05387211538461539,-0.996869642206886,-0.0004363729623472675
-0.05384711538461539,-0.9955410348622394,-0.0007711138685580394
-0.05382211538461538,-0.9945445793537541,-0.0007711138685580394
-0.05379711538461538,-0.9932159720091081,-0.0007711138685580394
-0.05377211538461538,-0.9922195165006231,-0.0004363729623472675
-0.05374711538461539,-0.9905587573198149,-0.0004363729623472675
-0.05372211538461539,-0.9888979981390068,-0.0004363729623472675
-0.05369711538461538,-0.987237238958198,-0.0007711138685580394
-0.05367211538461538,-0.985908631613552,-0.0007711138685580394
-0.05364711538461538,-0.9835835687604206,-0.0007711138685580394
-0.05362211538461539,-0.9819228095796124,-0.0004363729623472675
-0.05359711538461539,-0.9795977467264809,-0.0007711138685580394
-0.05357211538461538,-0.9779369875456716,-0.0007711138685580394
-0.05354711538461538,-0.9752797728563797,-0.0007711138685580394
-0.05352211538461538,-0.9729547100032482,-0.0004363729623472675
-0.05349711538461539,-0.9709617989862784,-0.0004363729623472675
-0.05347211538461539,-0.9686367361331469,-0.0007711138685580394
-0.05344711538461538,-0.9659795214438528,-0.0004363729623474197
-0.05342211538461538,-0.9636544585907224,-0.0007711138685580394
-0.05339711538461538,-0.9603329402291061,-0.0007711138685580394
-0.05337211538461539,-0.9580078773759746,-0.0007711138685580394
-0.05334711538461539,-0.9550185108505199,-0.0007711138685580394
-0.05332211538461538,-0.9520291443250639,-0.0007711138685580394
-0.05329711538461538,-0.9493719296357721,-0.0007711138685580394
-0.05327211538461538,-0.945718259437994,-0.0007711138685580394
-0.05324711538461539,-0.9427288929125394,-0.0004363729623472675
-0.05322211538461539,-0.9397395263870846,-0.0007711138685580394
-0.05319711538461538,-0.9364180080254667,-0.0007711138685580394
-0.05317211538461538,-0.9330964896638519,-0.0007711138685580394
-0.05314711538461538,-0.9291106676299122,-0.0007711138685580394
-0.05312211538461539,-0.9261213011044576,-0.0007711138685580394
-0.05309711538461539,-0.9224676309066796,-0.0007711138685580394
-0.05307211538461538,-0.9184818088727382,-0.0004363729623474197
-0.05304711538461538,-0.9148281386749619,-0.0007711138685580394
-0.05302211538461538,-0.9105101648048607,-0.001105854774768811
-0.05299711538461539,-0.9068564946070826,-0.0007711138685580394
-0.05297211538461539,-0.9025385207369814,-0.001105854774768811
-0.05294711538461539,-0.8988848505392051,-0.001105854774768811
-0.05292211538461538,-0.8945668766691022,-0.001105854774768811
-0.05289711538461538,-0.8899167509628392,-0.001440595680979583
-0.05287211538461539,-0.8855987770927379,-0.001440595680979583
-0.05284711538461539,-0.880948651386475,-0.001440595680979583
-0.05282211538461539,-0.8766306775163758,-0.001440595680979583
-0.05279711538461538,-0.8719805518101109,-0.001440595680979583
-0.05277211538461538,-0.8666661224315247,-0.001440595680979583
-0.05274711538461539,-0.8623481485614234,-0.001440595680979583
-0.05272211538461539,-0.8570337191828372,-0.001440595680979583
-0.05269711538461539,-0.8520514416404149,-0.001440595680979583
-0.05267211538461538,-0.8474013159341498,-0.001105854774768811
-0.05264711538461538,-0.8420868865555636,-0.001440595680979583
-0.05262211538461539,-0.8377689126854624,-0.001105854774768811
-0.05259711538461539,-0.8317901796345529,-0.001105854774768811
-0.05257211538461539,-0.8264757502559692,-0.001105854774768811
-0.05254711538461538,-0.8208291690412189,-0.001105854774768811
-0.05252211538461538,-0.8151825878264711,-0.001440595680979583
-0.05249711538461539,-0.8102003102840466,-0.001440595680979583
-0.05247211538461539,-0.8045537290692988,-0.001440595680979583
-0.05244711538461539,-0.7989071478545535,-0.001440595680979583
-0.05242211538461538,-0.7935927184759648,-0.001440595680979583
-0.05239711538461538,-0.7872818335888937,-0.001440595680979583
-0.05237211538461539,-0.7816352523741459,-0.001775336587190355
-0.05234711538461539,-0.7756565193232364,-0.001440595680979583
-0.05232211538461539,-0.7693456344361682,-0.001440595680979583
-0.05229711538461538,-0.7633669013852559,-0.001440595680979583
-0.05227211538461538,-0.7570560164981848,-0.001775336587190355
-0.05224711538461538,-0.7510772834472753,-0.001440595680979583
-0.05222211538461539,-0.7447663985602042,-0.001440595680979583
-0.05219711538461539,-0.7381233618369746,-0.001440595680979583
-0.05217211538461538,-0.7318124769499005,-0.001440595680979583
-0.05214711538461538,-0.7251694402266677,-0.001440595680979583
-0.05212211538461538,-0.7191907071757583,-0.001440595680979583
-0.05209711538461539,-0.7125476704525255,-0.001775336587190355
-0.05207211538461539,-0.7052403300569728,-0.001440595680979736
-0.05204711538461538,-0.6989294451698985,-0.001440595680979583
-0.05202211538461538,-0.6916221047743425,-0.001440595680979583
-0.05199711538461538,-0.6853112198872714,-0.001440595680979583
-0.05197211538461539,-0.6780038794917154,-0.001440595680979583
-0.05194711538461539,-0.6710286909323243,-0.001440595680979583
-0.05192211538461538,-0.6643856542090883,-0.001440595680979583
-0.05189711538461538,-0.6567461619773707,-0.001440595680979583
-0.05187211538461538,-0.6501031252541379,-0.001440595680979583
-0.05184711538461539,-0.642795784858582,-0.001440595680979583
-0.05182211538461539,-0.6351562926268678,-0.001775336587190203
-0.05179711538461538,-0.62818110406747,-0.001440595680979583
-0.05177211538461538,-0.6198773081634291,-0.001440595680979583
-0.05174711538461538,-0.6132342714401964,-0.001440595680979583
-0.05172211538461539,-0.6052626273723171,-0.001775336587190355
-0.05169711538461539,-0.5979552869767645,-0.001440595680979736
-0.05167211538461538,-0.5906479465812051,-0.001775336587190355
-0.05164711538461538,-0.5823441506771643,-0.001440595680979583
-0.05162211538461538,-0.5750368102816082,-0.001440595680979583
-0.05159711538461539,-0.5670651662137289,-0.001440595680979583
-0.05157211538461539,-0.559757825818173,-0.001775336587190355
-0.05154711538461538,-0.5521183335864553,-0.001440595680979583
-0.05152211538461538,-0.5438145376824144,-0.001775336587190355
-0.05149711538461538,-0.5365071972868585,-0.001775336587190355
-0.05147211538461539,-0.5278712495466559,-0.002110077493401127
-0.05144711538461539,-0.5198996054787767,-0.001775336587190355
-0.05142211538461538,-0.512260113247059,-0.002110077493401127
-0.05139711538461538,-0.5036241655068565,-0.001775336587190355
-0.05137211538461538,-0.4963168251113005,-0.001775336587190355
-0.05134711538461539,-0.4873487255349364,-0.001775336587190355
-0.05132211538461539,-0.4783806259585722,-0.001775336587190355
-0.05129711538461538,-0.4704089818906889,-0.002110077493400975
-0.05127211538461538,-0.4614408823143287,-0.001775336587190355
-0.05124711538461538,-0.4541335419187728,-0.001775336587190355
-0.05122211538461539,-0.4454975941785702,-0.001775336587190355
-0.05119711538461539,-0.4371937982745293,-0.001775336587190355
-0.05117211538461538,-0.4288900023704842,-0.001775336587190355
-0.05114711538461538,-0.4195897509579626,-0.001775336587190355
-0.05112211538461538,-0.4116181068900833,-0.001775336587190355
-0.05109711538461539,-0.4023178554775576,-0.001775336587190355
-0.05107211538461539,-0.393681907737355,-0.002110077493401127
-0.05104711538461538,-0.3850459599971482,-0.001775336587190355
-0.05102211538461538,-0.3757457085846266,-0.001775336587190355
-0.05099711538461538,-0.368106216352909,-0.001775336587190355
-0.05097211538461539,-0.3588059649403832,-0.002110077493401127
-0.05094711538461539,-0.349837865364019,-0.002110077493401127
-0.05092211538461538,-0.3412019176238123,-0.002110077493401127
-0.05089711538461538,-0.3319016662112907,-0.002110077493401127
-0.05087211538461538,-0.3239300221434114,-0.002110077493401127
-0.05084711538461539,-0.314297618894724,-0.002110077493401127
-0.05082211538461539,-0.3053295193183598,-0.002110077493401127
-0.05079711538461538,-0.2966935715781528,-0.002110077493401127
-0.05077211538461538,-0.2870611683294698,-0.002110077493401127
-0.05074711538461538,-0.2794216760977522,-0.002110077493401127
-0.05072211538461539,-0.2694571210129031,-0.002110077493401127
-0.05069711538461539,-0.2601568696003773,-0.002110077493401127
-0.05067211538461538,-0.2511887700240087,-0.002110077493401127
-0.05064711538461538,-0.2415563667753257,-0.002110077493401127
-0.05062211538461538,-0.2332525708712848,-0.002110077493401127
-0.05059711538461539,-0.2229558639502741,-0.002110077493401127
-0.05057211538461539,-0.2139877643739099,-0.002110077493401127
-0.05054711538461538,-0.2046875129613795,-0.002110077493401127
-0.05052211538461538,-0.194722957876535,-0.002110077493401127
-0.05049711538461538,-0.1864191619724941,-0.002110077493401127
-0.05047211538461539,-0.176454606887645,-0.002110077493401127
-0.05044711538461539,-0.1674865073112808,-0.002110077493401127
-0.05042211538461538,-0.1585184077349121,-0.002110077493401127
-0.05039711538461538,-0.1485538526500676,-0.002110077493401127
-0.05037211538461538,-0.139917904909865,-0.002110077493401127
-0.05034711538461539,-0.1302855016611776,-0.002110077493401127
-0.05032211538461539,-0.1209852502486518,-0.002110077493401127
-0.05029711538461538,-0.1116849988361216,-0.001775336587190507
-0.05027211538461538,-0.1020525955874385,-0.002110077493401127
-0.05024711538461538,-0.093416647847236,-0.002110077493401127
-0.05022211538461539,-0.08345209276238691,-0.002110077493401127
-0.05019711538461539,-0.07381968951369947,-0.002110077493401127
-0.05017211538461538,-0.0648515899373306,-0.002110077493401127
-0.05014711538461538,-0.05455488301632457,-0.002110077493401127
-0.05012211538461538,-0.04625108711228366,-0.002110077493401127
-0.05009711538461539,-0.03595438019127294,-0.002444818399611899
-0.05007211538461539,-0.02698628061490877,-0.002110077493401127
-0.05004711538461538,-0.01768602920237843,-0.00211007749340128
-0.05002211538461538,-0.007721474117533877,-0.002444818399611899
-0.04999711538461538,0.001246625458830295,-0.002110077493401127
-0.04997211538461539,0.01087902870751774,-0.001775336587190355
-0.04994711538461539,0.02017928012004355,-0.002110077493401127
-0.04992211538461538,0.02981168336873538,-0.001775336587190507
-0.04989711538461538,0.03944408661741845,-0.002110077493401127
-0.04987211538461538,0.04808003435762098,-0.001775336587190355
-0.04984711538461539,0.0583767412786317,-0.001775336587190355
-0.04982211538461539,0.06800914452731915,-0.001775336587190355
-0.04979711538461539,0.07697724410367923,-0.001775336587190355
-0.04977211538461538,0.0869417991885324,-0.001775336587190355
-0.04974711538461538,0.09557774692873494,-0.001775336587190355
-0.04972211538461539,0.105542302013584,-0.001775336587190355
-0.04969711538461539,0.1148425534261098,-0.001775336587190355
-0.04967211538461539,0.1238106530024699,-0.001775336587190355
-0.04964711538461538,0.1337752080873231,-0.001775336587190355
-0.04962211538461538,0.1424111558275256,-0.001775336587190355
-0.04959711538461539,0.1523757109123747,-0.002110077493401127
-0.04957211538461539,0.1613438104887389,-0.001775336587190355
-0.04954711538461539,0.170311910065099,-0.001775336587190355
-0.04952211538461538,0.1802764651499521,-0.001775336587190355
-0.04949711538461538,0.1889124128901547,-0.001775336587190355
-0.04947211538461539,0.1988769679750038,-0.001440595680979583
-0.04944711538461539,0.2078450675513679,-0.001440595680979583
-0.04942211538461539,0.2171453189638895,-0.001440595680979583
-0.04939711538461538,0.2267777222125812,-0.001105854774768811
