2020_assignments/Steve Kelley Lab 3/3l_3_full_wave_recitfier_ripple_22microf.csv

#Digilent WaveForms Oscilloscope Acquisition
#Device Name: Discovery2
#Serial Number: SN:210321AE3681
#Date Time: 2020-09-19 21:29:15.835
#Sample rate: 80000Hz
#Samples: 8192
#Trigger: Source: Channel 1 Type: Edge Condition: Rising Level: 0 V Hyst.: Auto HoldOff: 0 s
#Channel 1: Range: 500 mV/div Offset: 0 V Attenuation: 1 X
#Channel 2: Range: 500 mV/div Offset: 0 V Attenuation: 1 X
#Wavegen Channel 1: Enabled
#Mode: Simple
#Type: Sine
#Frequency: 60 Hz
#Period: 16.6666667 ms
#Amplitude: 1 V
#Offset: 0 V
#Symmetry: 50 %
#Phase: 0 °
#Wavegen Channel 2: Enabled
#Mode: Simple
#Type: Sine
#Frequency: 60 Hz
#Period: 16.6666667 ms
#Amplitude: 1 V
#Offset: 0 V
#Symmetry: 50 %
#Phase: 180 °

Time (s),Channel 1 (V),Channel 2 (V)
-0.03403616071428572,-0.5235532756765546,0.3845156691800404
-0.03402366071428571,-0.5162459352809943,0.3845156691800403
-0.03401116071428571,-0.5066135320323112,0.3841809282738297
-0.03399866071428571,-0.4973132806197855,0.3841809282738297
-0.03398616071428572,-0.4873487255349364,0.3841809282738297
-0.03397366071428572,-0.4777163222862489,0.3841809282738297
-0.03396116071428571,-0.4707411337268502,0.3841809282738295
-0.03394866071428571,-0.4611087304781671,0.3838461873676189
-0.03393616071428571,-0.451144175393318,0.3838461873676189
-0.03392366071428572,-0.4408474684723073,0.3835114464614081
-0.03391116071428572,-0.4325436725682664,0.3835114464614081
-0.03389866071428571,-0.4245720285003826,0.3831767055551973
-0.03388616071428571,-0.4146074734155381,0.3831767055551973
-0.03387366071428571,-0.4049750701668506,0.3831767055551973
-0.03386116071428572,-0.3950105150820015,0.3831767055551973
-0.03384866071428572,-0.3850459599971525,0.3831767055551973
-0.03383616071428571,-0.3780707714377535,0.382507223742776
-0.03382366071428571,-0.368106216352909,0.3828419646489866
-0.03381116071428571,-0.3588059649403832,0.3825072237427758
-0.03379866071428572,-0.3485092580193725,0.3825072237427758
-0.03378616071428572,-0.3395411584430083,0.3825072237427758
-0.03377366071428571,-0.3319016662112863,0.3825072237427756
-0.03376116071428571,-0.3222692629626032,0.382172482836565
-0.03374866071428571,-0.3123047078777542,0.382172482836565
-0.03373616071428572,-0.302340152792905,0.3818377419303542
-0.03372366071428572,-0.2930399013803793,0.382172482836565
-0.03371116071428571,-0.2850682573124955,0.3818377419303544
-0.03369866071428571,-0.2751037022276509,0.382172482836565
-0.03368616071428571,-0.2651391471428018,0.3818377419303542
-0.03367366071428572,-0.2555067438941144,0.3815030010241435
-0.03366116071428572,-0.2455421888092653,0.3815030010241435
-0.03364866071428571,-0.2385670002498664,0.3811682601179328
-0.03363616071428571,-0.2286024451650219,0.3811682601179328
-0.03362366071428571,-0.2183057382440111,0.3811682601179328
-0.03361116071428571,-0.2083411831591621,0.3811682601179328
-0.03359866071428572,-0.1987087799104746,0.380833519211722
-0.03358616071428572,-0.191401439514922,0.3811682601179326
-0.03357366071428571,-0.1814368844300696,0.3804987783055112
-0.03356116071428571,-0.1711401775090588,0.380833519211722
-0.03354866071428571,-0.1611756224242097,0.380833519211722
-0.03353616071428572,-0.1518753710116839,0.3804987783055112
-0.03352366071428572,-0.1442358787799698,0.3804987783055112
-0.03351116071428571,-0.1339391718589556,0.3804987783055112
-0.03349866071428571,-0.1243067686102681,0.3801640373993004
-0.03348616071428571,-0.1143422135254191,0.3801640373993004
-0.03347366071428572,-0.10437765844057,0.3798292964930897
-0.03346116071428572,-0.09673816620885581,0.3798292964930897
-0.03344866071428571,-0.0871057629601649,0.3798292964930897
-0.03343616071428571,-0.07714120787531581,0.3798292964930897
-0.03342366071428571,-0.06684450095430511,0.3794945555868789
-0.03341116071428572,-0.05754424954177929,0.3794945555868789
-0.03339866071428572,-0.04957260547390364,0.3794945555868789
-0.03338616071428571,-0.03960805038905094,0.3791598146806681
-0.03337366071428571,-0.0299756471403635,0.3791598146806681
-0.03336116071428571,-0.01967894021935278,0.3788250737744573
-0.03334866071428572,-0.0107108406429886,0.3791598146806681
-0.03333616071428572,-0.002739196575112963,0.3791598146806681
-0.03332366071428571,0.00755751034590138,0.3791598146806681
-0.03331116071428571,0.01718991359458883,0.3791598146806681
-0.03329866071428571,0.02781877235176118,0.3788250737744573
-0.03328616071428572,0.03711902376428699,0.3784903328682466
-0.03327366071428572,0.04442636415983966,0.3784903328682466
-0.03326116071428571,0.05439091924469207,0.3784903328682466
-0.03324866071428571,0.06501977800186443,0.3784903328682466
-0.03323616071428571,0.07465218125055187,0.3784903328682466
-0.03322366071428572,0.08428458449923931,0.3781555919620358
-0.03321116071428572,0.09225622856711495,0.3781555919620358
-0.03319866071428571,0.101888631815806,0.3781555919620358
-0.03318616071428571,0.1118531869006551,0.3781555919620358
-0.03317366071428571,0.1221498938216658,0.377820851055825
-0.03316116071428572,0.1304536897257067,0.3774861101496143
-0.03314866071428572,0.1390896374659053,0.3774861101496143
-0.03313616071428571,0.14938634438692,0.3774861101496143
-0.03312366071428571,0.1590187476356074,0.3774861101496143
-0.03311116071428571,0.1693154545566181,0.3774861101496143
-0.03309866071428572,0.1786157059691439,0.3771513692434035
-0.03308616071428572,0.1859230463646966,0.3771513692434035
-0.03307366071428571,0.195887601449549,0.3768166283371927
-0.03306116071428571,0.2065164602067214,0.3768166283371927
-0.03304866071428571,0.2161488634554088,0.3768166283371927
-0.03303616071428572,0.225116963031773,0.3764818874309819
-0.03302366071428572,0.2334207589358101,0.3764818874309819
-0.03301116071428571,0.2430531621845013,0.3764818874309819
-0.03299866071428571,0.2530177172693504,0.3761471465247712
-0.03298616071428571,0.2629822723541995,0.3764818874309819
-0.03297366071428572,0.2719503719305637,0.3761471465247712
-0.03296116071428572,0.2799220159984394,0.3761471465247712
-0.03294866071428571,0.2905508747556153,0.3758124056185604
-0.03293616071428571,0.2995189743319795,0.3761471465247712
-0.03292366071428571,0.3101478330891518,0.3758124056185604
-0.03291116071428572,0.3194480845016777,0.3758124056185604
-0.03289866071428572,0.3267554248972336,0.3758124056185604
-0.03288616071428571,0.3363878281459211,0.3754776647123496
-0.03287366071428571,0.3466845350669318,0.3754776647123496
-0.03286116071428571,0.3566490901517809,0.3754776647123496
-0.03284866071428572,0.3656171897281451,0.3751429238061388
-0.03283616071428572,0.373920985632186,0.3751429238061388
-0.03282366071428571,0.3835533888808734,0.3748081828999281
-0.03281116071428571,0.3931857921295608,0.3748081828999281
-0.03279866071428571,0.4028181953782483,0.3748081828999281
-0.03278616071428572,0.4121184467907741,0.3748081828999281
-0.03277366071428572,0.4197579390224918,0.3744734419937173
-0.03276116071428571,0.4293903422711792,0.3748081828999281
-0.03274866071428571,0.4393548973560282,0.3748081828999281
-0.03273616071428571,0.4493194524408773,0.3744734419937173
-0.03272366071428572,0.4586197038534032,0.3744734419937173
-0.03271116071428572,0.4655948924127975,0.3744734419937173
-0.03269866071428571,0.4752272956614895,0.3741387010875065
-0.03268616071428571,0.485191850746334,0.3741387010875065
-0.03267366071428571,0.4951564058311831,0.3738039601812957
-0.03266116071428572,0.5034602017352241,0.3738039601812957
-0.03264866071428572,0.5110996939669417,0.3738039601812957
-0.03263616071428571,0.5210642490517954,0.3738039601812956
-0.03262366071428571,0.5310288041366399,0.373469219275085
-0.03261116071428571,0.539996903713004,0.373469219275085
-0.03259866071428572,0.5486328514532066,0.3731344783688742
-0.03258616071428572,0.5569366473572475,0.373469219275085
-0.03257366071428571,0.5662368987697776,0.3734692192750848
-0.03256116071428571,0.5758693020184608,0.3731344783688742
-0.03254866071428571,0.5858338571033098,0.3731344783688742
-0.03253616071428572,0.5944698048435123,0.3731344783688742
-0.03252366071428572,0.6017771452390683,0.3727997374626634
-0.03251116071428571,0.6114095484877601,0.3727997374626634
-0.03249866071428571,0.6210419517364433,0.3727997374626634
-0.03248616071428571,0.6306743549851307,0.3724649965564527
-0.03247366071428572,0.6389781508891715,0.3727997374626634
-0.03246116071428572,0.6469497949570508,0.3724649965564527
-0.03244866071428571,0.656250046369581,0.3721302556502419
-0.03243616071428571,0.6658824496182641,0.3721302556502419
-0.03242366071428571,0.6748505491946283,0.3721302556502419
-0.03241116071428572,0.6834864969348308,0.3721302556502419
-0.03239866071428572,0.6911259891665484,0.3717955147440311
-0.03238616071428571,0.7004262405790785,0.3717955147440311
-0.03237366071428571,0.7100586438277617,0.3717955147440311
-0.03236116071428571,0.7190267434041259,0.3714607738378203
-0.03234866071428572,0.7276626911443285,0.3714607738378203
-0.03233616071428572,0.735302183376046,0.3714607738378203
-0.03232366071428571,0.7442702829524145,0.3714607738378202
-0.03231116071428571,0.753570534364936,0.3711260329316096
-0.03229866071428571,0.7628707857774618,0.3707912920253988
-0.03228616071428572,0.7715067335176644,0.3711260329316096
-0.03227366071428572,0.7788140739132203,0.3711260329316096
-0.03226116071428571,0.7881143253257503,0.3707912920253986
-0.03224866071428571,0.7970824249021103,0.370456551119188
-0.03223616071428571,0.8060505244784745,0.3707912920253988
-0.03222366071428572,0.8140221685463538,0.370456551119188
-0.03221116071428572,0.8216616607780715,0.3701218102129772
-0.03219866071428571,0.8309619121906013,0.3701218102129772
-0.03218616071428571,0.8399300117669614,0.3701218102129772
-0.03217366071428571,0.8488981113433256,0.3701218102129772
-0.03216116071428572,0.8575340590835281,0.3697870693067665
-0.03214866071428572,0.8645092476429225,0.3697870693067665
-0.03213616071428571,0.8734773472192908,0.3697870693067665
-0.03212366071428571,0.8827775986318125,0.3697870693067665
-0.03211116071428571,0.8917456982081766,0.3697870693067665
-0.03209866071428571,0.8993851904398943,0.3694523284005557
-0.03208616071428572,0.9070246826716118,0.3694523284005557
-0.03207366071428571,0.9159927822479799,0.3694523284005555
-0.03206116071428571,0.9242965781520169,0.3691175874943449
-0.03204866071428571,0.9335968295645428,0.3694523284005557
-0.03203616071428571,0.9409041699600987,0.3687828465881341
-0.03202366071428572,0.9485436621918164,0.3691175874943449
-0.03201116071428572,0.9568474580958535,0.3687828465881343
-0.03199866071428571,0.9661477095083831,0.3691175874943449
-0.03198616071428571,0.9747836572485856,0.3684481056819234
-0.03197366071428571,0.9824231494803033,0.3684481056819234
-0.03196116071428572,0.9893983380396977,0.3684481056819234
-0.03194866071428572,0.9977021339437347,0.3684481056819234
-0.03193616071428571,1.006670233520103,0.3684481056819234
-0.03192366071428571,1.015306181260305,0.3681133647757126
-0.03191116071428571,1.022613521655861,0.3681133647757126
-0.03189866071428572,1.030253013887579,0.3677786238695018
-0.03188616071428572,1.038556809791616,0.3681133647757124
-0.03187366071428571,1.047192757531822,0.3677786238695018
-0.03186116071428571,1.056160857108186,0.3677786238695018
-0.03184866071428571,1.062803893831419,0.3677786238695018
-0.03183616071428572,1.070443386063137,0.3674438829632911
-0.03182366071428572,1.078415030131012,0.3677786238695017
-0.03181116071428571,1.08738312970738,0.3674438829632911
-0.03179866071428571,1.095022621939098,0.3674438829632911
-0.03178616071428571,1.102994266006977,0.3671091420570803
-0.03177366071428572,1.109305150894048,0.3671091420570803
-0.03176116071428572,1.117608946798085,0.3671091420570803
-0.03174866071428571,1.125580590865968,0.3671091420570803
-0.03173616071428571,1.134548690442333,0.3667744011508695
-0.03172366071428571,1.141523879001727,0.3667744011508695
-0.03171116071428572,1.14816691572496,0.3667744011508695
-0.03169866071428572,1.156138559792835,0.3667744011508695
-0.03168616071428571,1.164774507533042,0.3664396602446587
-0.03167366071428571,1.173078303437082,0.3664396602446587
-0.03166116071428571,1.180053491996477,0.3664396602446587
-0.03164866071428572,1.186364376883548,0.3664396602446587
-0.03163616071428572,1.194003869115262,0.3661049193384481
-0.03162366071428571,1.202307665019306,0.366104919338448
-0.03161116071428571,1.210611460923347,0.3657701784322372
-0.03159866071428571,1.216922345810418,0.3657701784322372
-0.03158616071428572,1.223897534369813,0.3657701784322372
-0.03157366071428572,1.231204874765365,0.3657701784322372
-0.03156116071428571,1.239176518833248,0.3654354375260265
-0.03154866071428571,1.24781246657345,0.3654354375260265
-0.03153616071428571,1.254123351460522,0.3654354375260265
-0.03152366071428572,1.260766388183754,0.3651006966198157
-0.03151116071428572,1.268405880415468,0.3651006966198157
-0.03149866071428571,1.27604537264719,0.3651006966198157
-0.03148616071428571,1.283684864878907,0.3651006966198157
-0.03147366071428571,1.29032790160214,0.3647659557136049
-0.03146116071428572,1.296638786489211,0.3647659557136049
-0.03144866071428572,1.304278278720925,0.3651006966198155
-0.03143616071428571,1.311585619116485,0.3644312148073942
-0.03142366071428571,1.318892959512041,0.3644312148073942
-0.03141116071428571,1.325535996235273,0.3644312148073942
-0.03139866071428572,1.331846881122345,0.3640964739011834
-0.03138616071428572,1.339154221517897,0.3640964739011834
-0.03137366071428571,1.346793713749618,0.3640964739011834
-0.03136116071428571,1.354101054145174,0.3637617329949726
-0.03134866071428571,1.360411939032245,0.3640964739011834
-0.03133616071428572,1.366390672083154,0.3637617329949726
-0.03132366071428572,1.373698012478711,0.3637617329949726
-0.03131116071428571,1.381005352874267,0.3634269920887618
-0.03129866071428571,1.388312693269823,0.3637617329949726
-0.03128616071428571,1.394623578156894,0.3634269920887618
-0.03127366071428572,1.39993800753548,0.3634269920887618
-0.03126116071428572,1.406913196094874,0.3634269920887618
-0.03124866071428571,1.414552688326592,0.3630922511825511
-0.03123616071428571,1.421527876885986,0.3630922511825511
-0.03122366071428571,1.427174458100734,0.3630922511825511
-0.03121116071428572,1.433485342987805,0.3630922511825511
-0.03119866071428572,1.440128379711038,0.3630922511825511
-0.03118616071428571,1.446771416434274,0.3627575102763403
-0.03117366071428571,1.453746604993665,0.3627575102763403
-0.03116116071428571,1.459393186208413,0.3627575102763403
-0.03114866071428572,1.464707615586999,0.3624227693701295
-0.03113616071428572,1.471682804146393,0.3624227693701295
-0.03112366071428571,1.477993689033468,0.3624227693701295
-0.03111116071428571,1.48530102942902,0.3624227693701295
-0.03109866071428571,1.490615458807606,0.3620880284639187
-0.03108616071428572,1.496262040022354,0.3620880284639187
-0.03107366071428572,1.502572924909425,0.3620880284639187
-0.03106116071428571,1.509215961632661,0.3617532875577078
-0.03104866071428571,1.515526846519729,0.3614185466514972
-0.03103616071428571,1.521173427734477,0.361753287557708
-0.03102366071428572,1.526155705276901,0.3614185466514972
-0.03101116071428572,1.532466590163973,0.3614185466514972
-0.03099866071428571,1.539109626887208,0.3614185466514972
-0.03098616071428571,1.545420511774276,0.3614185466514972
-0.03097366071428571,1.550402789316701,0.3614185466514972
-0.03096116071428572,1.555385066859126,0.3614185466514972
-0.03094866071428572,1.561695951746197,0.3610838057452864
-0.03093616071428571,1.56800683663327,0.3607490648390757
-0.03092366071428571,1.573985569684177,0.3607490648390757
-0.03091116071428571,1.579299999062763,0.3607490648390757
-0.03089866071428572,1.584282276605188,0.3607490648390757
-0.03088616071428572,1.589596705983774,0.3607490648390757
-0.03087366071428571,1.595243287198524,0.3604143239328649
-0.03086116071428571,1.600557716577108,0.3604143239328649
-0.03084866071428571,1.605872145955694,0.3604143239328649
-0.03083616071428572,1.610190119825796,0.3604143239328649
-0.03082366071428572,1.615504549204382,0.3604143239328649
-0.03081116071428571,1.621151130419132,0.3600795830266541
-0.03079866071428571,1.625801256125392,0.3600795830266541
-0.03078616071428571,1.630451381831655,0.3600795830266541
-0.03077366071428572,1.634769355701756,0.3600795830266541
-0.03076116071428572,1.640083785080343,0.3600795830266541
-0.03074866071428571,1.645730366295093,0.3597448421204433
-0.03073616071428571,1.650380492001353,0.3597448421204433
-0.03072366071428571,1.655030617707616,0.3597448421204433
-0.03071116071428572,1.658684287905394,0.3600795830266541
-0.03069866071428572,1.663666565447819,0.3594101012142326
-0.03068616071428571,1.668648842990246,0.3594101012142326
-0.03067366071428571,1.673631120532668,0.3594101012142326
-0.03066116071428571,1.677284790730446,0.3594101012142326
-0.03064866071428572,1.681602764600547,0.3594101012142326
-0.03063616071428572,1.68625289030681,0.3594101012142326
-0.03062366071428571,1.691235167849237,0.3594101012142326
-0.03061116071428571,1.695885293555498,0.3594101012142326
-0.03059866071428571,1.698874660080952,0.3594101012142326
-0.03058616071428572,1.700867571097922,0.3590753603080218
-0.03057366071428572,1.703856937623377,0.3590753603080218
-0.03056116071428571,1.706182000476509,0.3590753603080218
-0.03054866071428571,1.70850706332964,0.3590753603080218
-0.03053616071428571,1.71049997434661,0.3590753603080218
-0.03052366071428571,1.712492885363579,0.3590753603080218
-0.03051116071428572,1.714817948216711,0.358740619401811
-0.03049866071428571,1.717475162906005,0.3587406194018112
-0.03048616071428571,1.719468073922974,0.3590753603080218
-0.03047366071428571,1.721793136776105,0.358740619401811
-0.03046116071428571,1.723786047793075,0.358740619401811
-0.03044866071428572,1.725778958810045,0.358740619401811
-0.03043616071428572,1.728104021663175,0.3590753603080216
-0.03042366071428571,1.730761236352469,0.3590753603080218
-0.03041116071428571,1.732421995533278,0.3590753603080218
-0.03039866071428571,1.734414906550247,0.358740619401811
-0.03038616071428572,1.736407817567217,0.3590753603080218
-0.03037366071428572,1.738732880420347,0.3587406194018112
-0.03036116071428571,1.740725791437318,0.358740619401811
-0.03034866071428571,1.742386550618127,0.358740619401811
-0.03033616071428571,1.744711613471258,0.3590753603080218
-0.03032366071428572,1.746372372652066,0.3590753603080218
-0.03031116071428572,1.748697435505197,0.3590753603080218
-0.03029866071428571,1.751022498358329,0.3590753603080218
-0.03028616071428571,1.752351105702976,0.3594101012142326
-0.03027366071428571,1.754676168556107,0.3594101012142326
-0.03026116071428572,1.756004775900754,0.3594101012142326
-0.03024866071428572,1.758329838753884,0.3594101012142326
-0.03023616071428571,1.759990597934693,0.3597448421204433
-0.03022366071428571,1.761651357115501,0.3597448421204433
-0.03021116071428571,1.76331211629631,0.3597448421204433
-0.03019866071428572,1.765637179149441,0.3597448421204433
-0.03018616071428572,1.766965786494087,0.3600795830266539
-0.03017366071428571,1.769290849347219,0.3600795830266541
-0.03016116071428571,1.770619456691866,0.3604143239328649
-0.03014866071428571,1.771948064036512,0.3604143239328649
-0.03013616071428572,1.77360882321732,0.3604143239328649
-0.03012366071428572,1.775933886070451,0.3607490648390755
-0.03011116071428571,1.77759464525126,0.3610838057452864
-0.03009866071428571,1.778923252595907,0.3610838057452864
-0.03008616071428571,1.780584011776715,0.3614185466514972
-0.03007366071428572,1.781912619121361,0.3614185466514972
-0.03006116071428572,1.783573378302169,0.3617532875577078
-0.03004866071428571,1.785234137482978,0.361753287557708
-0.03003616071428571,1.786894896663786,0.3620880284639187
-0.03002366071428571,1.788223504008432,0.3624227693701295
-0.03001116071428572,1.789552111353079,0.3627575102763403
-0.02999866071428572,1.790880718697725,0.3627575102763403
-0.02998616071428571,1.792873629714695,0.3630922511825511
-0.02997366071428571,1.794202237059342,0.3634269920887618
-0.02996116071428571,1.795530844403988,0.3634269920887618
-0.02994866071428572,1.796859451748635,0.3637617329949726
