2020_assignments/lab3l_2_Skelleyfull_bridge_rectifier.csv

#Digilent WaveForms Oscilloscope Acquisition
#Device Name: Discovery2
#Serial Number: SN:210321AE3681
#Date Time: 2020-09-16 10:54:11.866
#Sample rate: 40000Hz
#Samples: 8192
#Trigger: Source: Channel 1 Type: Edge Condition: Rising Level: 0 V Hyst.: Auto HoldOff: 0 s
#Channel 1: Range: 500 mV/div Offset: 0 V Attenuation: 1 X
#Channel 2: Range: 500 mV/div Offset: 0 V Attenuation: 1 X
#Wavegen Channel 1: Running
#Mode: Simple
#Type: Sine
#Frequency: 60 Hz
#Period: 16.6666667 ms
#Amplitude: 1 V
#Offset: 0 V
#Symmetry: 50 %
#Phase: 180 °
#Wavegen Channel 2: Running
#Mode: Simple
#Type: Sine
#Frequency: 60 Hz
#Period: 16.6666667 ms
#Amplitude: 1 V
#Offset: 0 V
#Symmetry: 50 %
#Phase: 0 °

Time (s),Channel 1 (V),Channel 2 (V)
-0.05698657407407408,-0.972290406330925,0.04341468575126386
-0.05696157407407407,-0.9895623018113372,0.04776631753200571
-0.05693657407407407,-1.005505589947089,0.05178320840653315
-0.05691157407407407,-1.021448878082847,0.05646958109348396
-0.05688657407407408,-1.038720773563252,0.060821212874224
-0.05686157407407408,-1.053335454354364,0.06550758556117481
-0.05683657407407407,-1.070275197998615,0.07019395824812805
-0.05681157407407407,-1.085886334298205,0.07554981274749797
-0.05678657407407407,-1.10116531876164,0.08023618543444877
-0.05676157407407408,-1.117772910569722,0.08559203993382111
-0.05673657407407408,-1.132387591360833,0.08994367171456116
-0.05671157407407407,-1.148995183168922,0.09529952621393595
-0.05668657407407407,-1.163942015796189,0.1006553807133058
-0.05666157407407407,-1.178888848423463,0.1060112352126782
-0.05663657407407408,-1.194832136559221,0.1117018306182613
-0.05661157407407408,-1.208450361841848,0.1167229442114229
-0.05658657407407407,-1.224393649977614,0.1224135396170085
-0.05656157407407407,-1.23934048260488,0.1277693941163784
-0.05653657407407407,-1.253623011559831,0.1331252486157507
-0.05651157407407408,-1.269234147859428,0.1388158440213338
-0.05648657407407408,-1.282520221305893,0.1435022167082847
-0.05646157407407407,-1.297799205769335,0.1491928121138704
-0.05643657407407407,-1.311749582888117,0.1548834075194509
-0.05641157407407407,-1.325699960006906,0.160574002925034
-0.05638657407407408,-1.340646792634179,0.1662645983306172
-0.05636157407407408,-1.353268562408322,0.1712857119237787
-0.05633657407407407,-1.367883243199439,0.1773110482355749
-0.05631157407407407,-1.381169316645899,0.1823321618287342
-0.05628657407407407,-1.394455390092364,0.1880227572343173
-0.05626157407407407,-1.408737919047315,0.1937133526399004
-0.05623657407407408,-1.420695385149134,0.1990692071392728
-0.05621157407407407,-1.435310065940252,0.2044250616386476
-0.05618657407407407,-1.448263987550549,0.2097809161380175
-0.05616157407407407,-1.46055360548853,0.2151367706373898
-0.05613657407407407,-1.474171830771157,0.220827366042973
-0.05611157407407408,-1.486129296872976,0.2255137387299238
-0.05608657407407408,-1.499415370319436,0.2312043341355043
-0.05606157407407407,-1.51137283642126,0.2362254477286685
-0.05603657407407407,-1.523330302523079,0.2412465613218301
-0.05601157407407407,-1.536616375969545,0.2469371567274132
-0.05598657407407408,-1.547245234726717,0.251623529414364
-0.05596157407407408,-1.559867004500853,0.2569793839137339
-0.05593657407407407,-1.571492318766516,0.2616657566006871
-0.05591157407407407,-1.582785481196012,0.266352129287638
-0.05588657407407407,-1.595075099133993,0.2717079837870103
-0.05586157407407408,-1.605371806055003,0.2763943564739611
-0.05583657407407408,-1.616997120320655,0.2814154700671204
-0.05581157407407407,-1.627625979077833,0.2861018427540735
-0.05578657407407407,-1.638586989671167,0.2911229563472351
-0.05576157407407407,-1.649880152100663,0.2958093290341859
-0.05573657407407408,-1.65951255534935,0.2998262199087152
-0.05571157407407408,-1.67080571777884,0.3041778516894532
-0.05568657407407407,-1.681102424699856,0.3085294834701952
-0.05566157407407407,-1.691066979784705,0.313215856157146
-0.05563657407407407,-1.701363686705716,0.3175674879378861
-0.05561157407407408,-1.71033178628208,0.3215843788124153
-0.05558657407407408,-1.720628493203086,0.326270751499364
-0.05556157407407407,-1.729928744615617,0.3302876423738954
-0.05553657407407407,-1.739228996028143,0.3343045332484247
-0.05551157407407407,-1.74886139927683,0.3389909059353755
-0.05548657407407408,-1.757165195180871,0.3423383149974832
-0.05546157407407408,-1.766465446593393,0.3466899467782212
-0.05543657407407407,-1.775101394333599,0.3503720967465417
-0.05541157407407407,-1.784069493909963,0.3540542467148602
-0.05538657407407407,-1.793037593486328,0.3580711375893895
-0.05536157407407408,-1.800344933881884,0.3614185466514972
-0.05533657407407408,-1.808980881622082,0.3654354375260246
-0.05531157407407407,-1.816952525689965,0.3687828465881341
-0.05528657407407407,-1.824592017921683,0.3724649965564527
-0.05526157407407407,-1.832895813825724,0.3758124056185604
-0.05523657407407408,-1.839871002385118,0.3791598146806681
-0.05521157407407408,-1.847178342780671,0.3825072237427743
-0.05518657407407407,-1.85448568317623,0.3858546328048835
-0.05516157407407407,-1.861793023571786,0.3888673009607805
-0.05513657407407407,-1.868768212131181,0.3918799691166774
-0.05511157407407408,-1.874414793345929,0.3945578963663636
-0.05508657407407408,-1.882054285577643,0.3979053054284698
-0.05506157407407407,-1.887700866792394,0.4005832326781575
-0.05503657407407407,-1.893679599843303,0.4032611599278437
-0.05501157407407407,-1.900322636566536,0.4059390871775299
-0.05498657407407408,-1.905969217781284,0.4082822735210053
-0.05496157407407408,-1.911615798996029,0.4112949416769008
-0.05493657407407407,-1.916598076538456,0.4139728689265884
-0.05491157407407407,-1.922244657753204,0.415981314363853
-0.05488657407407407,-1.927891238967952,0.4186592416135392
-0.05486157407407408,-1.932209212838053,0.4206676870508038
-0.05483657407407408,-1.936859338544314,0.4230108733942782
-0.05481157407407407,-1.941841616086741,0.4250193188315439
-0.05478657407407407,-1.946159589956842,0.4270277642688085
-0.05476157407407407,-1.950809715663105,0.4287014687998623
-0.05473657407407408,-1.954795537697045,0.430709914237127
-0.05471157407407408,-1.958781359730984,0.4327183596743916
-0.05468657407407407,-1.962435029928762,0.4340573232992347
-0.05466157407407407,-1.96608870012654,0.4360657687364993
-0.05463657407407407,-1.969410218488156,0.4374047323613424
-0.05461157407407408,-1.972399585013611,0.4390784368923963
-0.05458657407407408,-1.976053255211389,0.4400826596110286
-0.05456157407407407,-1.979042621736844,0.4417563641420825
-0.05453657407407407,-1.981367684589975,0.4430953277669256
-0.05451157407407407,-1.98435705111543,0.4440995504855578
-0.05448657407407408,-1.9863499621324,0.4454385141104009
-0.05446157407407408,-1.988675024985531,0.4464427368290332
-0.05443657407407407,-1.990335784166339,0.4471122186414548
-0.05441157407407407,-1.992328695183309,0.4481164413600871
-0.05438657407407407,-1.993657302527956,0.4487859231725086
-0.05436157407407408,-1.995318061708764,0.4494554049849302
-0.05433657407407408,-1.996314517217249,0.4501248867973517
-0.05431157407407407,-1.997643124561896,0.4507943686097736
-0.05428657407407407,-1.99863958007038,0.4514638504221948
-0.05426157407407407,-1.999303883742704,0.4517985913284056
-0.05423657407407408,-1.999968187415027,0.4514638504221948
-0.05421157407407408,-2.00063249108735,0.4517985913284056
-0.05418657407407407,-2.00063249108735,0.4517985913284056
-0.05416157407407407,-2.00063249108735,0.4517985913284056
-0.05413657407407407,-2.00063249108735,0.4517985913284056
-0.05411157407407408,-2.000300339251189,0.4517985913284056
-0.05408657407407408,-1.999636035578865,0.4514638504221948
-0.05406157407407407,-1.998971731906542,0.4517985913284054
-0.05403657407407407,-1.998307428234219,0.4514638504221948
-0.05401157407407407,-1.997310972725734,0.4507943686097733
-0.05398657407407408,-1.995982365381087,0.4501248867973517
-0.05396157407407408,-1.994653758036441,0.449790145891141
-0.05393657407407407,-1.993325150691794,0.4491206640787191
-0.05391157407407407,-1.991664391510986,0.4484511822662979
-0.05388657407407407,-1.989671480494016,0.4471122186414548
-0.05386157407407408,-1.987678569477046,0.4464427368290332
-0.05383657407407408,-1.985353506623915,0.4451037732041901
-0.05381157407407407,-1.983028443770782,0.444434291391768
-0.05378657407407407,-1.98037122908149,0.4430953277669256
-0.05376157407407407,-1.977381862556036,0.4417563641420825
-0.05373657407407408,-1.974392496030581,0.4407521414234502
-0.05371157407407408,-1.971070977668965,0.4390784368923963
-0.05368657407407407,-1.968081611143508,0.4377394732675524
-0.05366157407407407,-1.964427940945732,0.4360657687364993
-0.05363657407407407,-1.960774270747954,0.4347268051116562
-0.05361157407407408,-1.957120600550176,0.4330531005806024
-0.05358657407407408,-1.953134778516236,0.4310446551433377
-0.05356157407407407,-1.948816804646133,0.4293709506122831
-0.05353657407407407,-1.944498830776034,0.4276972460812301
-0.05351157407407407,-1.939516553233609,0.4256888006439654
-0.05348657407407408,-1.935198579363508,0.42334561430049
-0.05346157407407408,-1.929884149984922,0.4213371688632254
-0.05343657407407407,-1.925566176114818,0.4189939825197489
-0.05341157407407407,-1.919919594900073,0.4166507961762745
-0.05338657407407407,-1.914605165521486,0.4139728689265884
-0.05336157407407408,-1.9092907361429,0.411629682583113
-0.05333657407407408,-1.902979851255829,0.4089517553334268
-0.05331157407407407,-1.897997573713402,0.4062738280837394
-0.05328657407407407,-1.891686688826334,0.4035959008340544
-0.05326157407407407,-1.885043652103101,0.4009179735843683
-0.05323657407407408,-1.879397070888353,0.3982400463346821
-0.05321157407407408,-1.872089730492797,0.3948926372725744
-0.05318657407407407,-1.865778845605723,0.3922147100228868
-0.05316157407407407,-1.858803657046332,0.3892020418669913
-0.05313657407407407,-1.851164164814614,0.3858546328048835
-0.05311157407407407,-1.844521128091381,0.3828419646489866
-0.05308657407407408,-1.836881635859664,0.3794945555868789
-0.05306157407407407,-1.829242143627942,0.3761471465247697
-0.05303657407407407,-1.821602651396228,0.3727997374626634
-0.05301157407407407,-1.813298855492187,0.3691175874943449
-0.05298657407407407,-1.805991515096631,0.3657701784322372
-0.05296157407407408,-1.797355567356429,0.3620880284639187
-0.05293657407407408,-1.789383923288553,0.3584058784956019
-0.05291157407407407,-1.780415823712185,0.3547237285272817
-0.05288657407407407,-1.771447724135821,0.3507068376527525
-0.05286157407407407,-1.763476080067942,0.347024687684434
-0.05283657407407408,-1.754175828655416,0.3430077968099047
-0.05281157407407408,-1.744875577242895,0.3389909059353773
-0.05278657407407407,-1.735907477666526,0.3346392741546355
-0.05276157407407407,-1.726275074417839,0.3306223832801062
-0.05273657407407407,-1.716974823005313,0.3266054924055769
-0.05271157407407408,-1.706345964248141,0.3219191197186261
-0.05268657407407408,-1.697045712835619,0.3179022288440987
-0.05266157407407407,-1.687081157750766,0.3135505970633568
-0.05263657407407407,-1.676120147157432,0.308864224376406
-0.05261157407407407,-1.666487743908744,0.3048473335018767
-0.05258657407407408,-1.65552673331541,0.3001609608149259
-0.05256157407407408,-1.645562178230566,0.2958093290341879
-0.05253657407407407,-1.634269015801066,0.2907882154410243
-0.05251157407407407,-1.622643701535408,0.2864365836602843
-0.05248657407407407,-1.612679146450559,0.2817502109733335
-0.05246157407407408,-1.60072168034874,0.2763943564739611
-0.05243657407407408,-1.590092821591573,0.2717079837870124
-0.05241157407407407,-1.578467507325911,0.2670216111000595
-0.05238657407407407,-1.56617788938793,0.2620004975068979
-0.05236157407407407,-1.554884726958435,0.2569793839137364
-0.05233657407407408,-1.542595109020454,0.2519582703205748
-0.05231157407407408,-1.530969794754802,0.2472718976336261
-0.05228657407407407,-1.518680176816816,0.2419160431342516
-0.05226157407407407,-1.506058407042674,0.2365601886348793
-0.05223657407407407,-1.494433092777017,0.2315390750417177
-0.05221157407407408,-1.48081486749439,0.2261832205423453
-0.05218657407407408,-1.468857401392576,0.221162106949186
-0.05216157407407407,-1.455571327946105,0.2158062524498114
-0.05213657407407407,-1.441953102663478,0.2101156570442283
-0.05211157407407407,-1.42999563656166,0.2054292843572775
-0.05208657407407408,-1.415713107606709,0.1994039480454836
-0.05206157407407408,-1.403091337832573,0.1947175753585349
-0.05203657407407407,-1.389140960713778,0.1890269799529496
-0.05201157407407407,-1.375522735431151,0.1833363845473665
-0.05198657407407407,-1.362568813820847,0.1779805300479942
-0.05196157407407408,-1.347621981193574,0.1719551937362003
-0.05193657407407408,-1.334668059583276,0.166934080143041
-0.05191157407407407,-1.320053378792158,0.1612434847374556
-0.05188657407407407,-1.305438698001046,0.1558876302380832
-0.05186157407407407,-1.29215262455458,0.1505317757387109
-0.05183657407407408,-1.276541488254984,0.1448411803331277
-0.05181157407407408,-1.262923262972363,0.1394853258337578
-0.05178657407407407,-1.247644278508921,0.134129471334383
-0.05176157407407407,-1.232365294045486,0.1284388759287999
-0.05173657407407407,-1.218747068762859,0.1234177623356383
-0.05171157407407408,-1.202139476954777,0.1177271669300552
-0.05168657407407408,-1.187856947999833,0.1123713124306853
-0.05166157407407407,-1.172577963536392,0.1070154579313105
-0.05163657407407407,-1.157298979072956,0.1016596034319382
-0.05161157407407407,-1.142684298281844,0.0966384898387766
-0.05158657407407408,-1.126076706473762,0.09128263533940426
-0.05156157407407408,-1.111129873846489,0.08626152174624266
-0.05153657407407407,-1.09518658571073,0.08124040815308109
-0.05151157407407407,-1.07891114573881,0.07621929455991949
-0.05148657407407407,-1.063964313111537,0.0715329218729687
-0.05146157407407408,-1.047024569467293,0.06651180827980713
-0.05143657407407408,-1.032077736840019,0.06182543559285631
-0.05141157407407407,-1.015470145031938,0.05747380381211627
-0.05138657407407407,-0.9985304013876942,0.05312217203137624
-0.05136157407407407,-0.983251416924259,0.04910528115684698
-0.05133657407407408,-0.9656473696076923,0.04475364937610694
-0.05131157407407408,-0.950368385144257,0.04107149940778845
-0.05128657407407407,-0.9327643378276828,0.03705460853325767
-0.05126157407407407,-0.9161567460196085,0.03370719947115147
-0.05123657407407407,-0.90021345788385,0.03035979040904375
-0.05121157407407408,-0.8822772587311216,0.02701238134693603
-0.05118657407407408,-0.8663339705953631,0.02433445409724986
-0.05116157407407407,-0.8483977714426268,0.02132178594135184
-0.05113657407407407,-0.8311258759622296,0.0189785995978775
-0.05111157407407407,-0.8148504359903095,0.0166354132544021
-0.05108657407407408,-0.7962499331652578,0.01462696781713747
-0.05106157407407408,-0.779642341357176,0.01261852237987284
-0.05103657407407407,-0.7623704458767628,0.01094481784881822
-0.05101157407407407,-0.7444342467240426,0.009271113317765119
-0.05098657407407407,-0.7278266549159608,0.008266890599132803
-0.05096157407407408,-0.7095583039270709,0.006927926974289715
-0.05093657407407408,-0.6929507121189891,0.006258445161868171
-0.05091157407407407,-0.6743502092939293,0.004919481537024779
-0.05088657407407407,-0.656414010141209,0.004249999724603539
-0.05086157407407407,-0.6394742664969656,0.003580517912181996
-0.05083657407407408,-0.6202094599995908,0.003245777005971224
-0.05081157407407408,-0.603601868191509,0.00257629519354968
-0.05078657407407407,-0.585001365366449,0.002241554287338756
-0.05076157407407407,-0.5667330143775673,0.001906813381128136
-0.05073657407407407,-0.5491289670610006,0.001572072474917364
-0.05071157407407408,-0.5301963123997874,0.001237331568706592
-0.05068657407407408,-0.5125922650832206,0.001237331568706592
-0.05066157407407407,-0.4939917622581607,0.00123733156870644
-0.05063657407407407,-0.4753912594331174,0.0009025906624958203
-0.05061157407407407,-0.4577872121165508,0.0009025906624958203
-0.05058657407407408,-0.4385224056191759,0.0005678497562850483
-0.05056157407407408,-0.4212505101387708,0.0005678497562850483
-0.05053657407407407,-0.4023178554775488,0.0005678497562850483
-0.05051157407407407,-0.3830530489801827,0.0005678497562850483
-0.05048657407407407,-0.3657811534997776,0.0002331088500742764
-0.05046157407407408,-0.346184195166241,0.0002331088500742764
-0.05043657407407408,-0.3282479960135127,0.0002331088500742764
-0.05041157407407407,-0.309315341352291,-0.0001016320561363433
-0.05038657407407407,-0.2907148385272478,0.0002331088500742764
-0.05036157407407407,-0.2721143357021962,0.0002331088500742764
-0.05033657407407408,-0.2525173773686596,0.0005678497562850483
-0.05031157407407408,-0.2349133300520929,0.0005678497562850483
-0.05028657407407407,-0.2156485235547095,0.0005678497562850483
-0.05026157407407407,-0.1967158688935048,0.0005678497562850483
-0.05023657407407407,-0.1787796697407765,0.0002331088500742764
-0.05021157407407408,-0.1588505595710783,0.0005678497562850483
-0.05018657407407408,-0.1412465122545116,0.0005678497562850483
-0.05016157407407407,-0.1219817057571276,0.0002331088500742764
-0.05013657407407407,-0.1020525955874385,0.0002331088500742764
-0.05011157407407407,-0.08444854827087181,0.0002331088500742764
-0.05008657407407408,-0.06451943810117364,0.0002331088500742764
-0.05006157407407408,-0.0465832389484453,0.0002331088500742764
-0.05003657407407407,-0.02731843245106165,0.0002331088500742764
-0.05001157407407407,-0.008053625953695515,0.0002331088500742764
-0.04998657407407407,0.009882573199032832,0.0005678497562850483
-0.04996157407407407,0.03014383520489263,0.0009025906624958203
-0.04993657407407408,0.04774788252145935,0.0005678497562850483
-0.04991157407407407,0.06701268901884314,0.0005678497562850483
-0.04988657407407407,0.08660964735237076,0.0005678497562850483
-0.04986157407407407,0.1045458465050991,0.0005678497562850483
-0.04983657407407407,0.1244749566747973,0.0005678497562850483
-0.04981157407407408,0.1414147003190407,0.0005678497562850483
-0.04978657407407408,0.1616759623248913,0.0005678497562850483
-0.04976157407407407,0.1806086169861138,0.0009025906624958203
-0.04973657407407407,0.1985448161388421,0.0009025906624958203
-0.04971157407407407,0.2188060781447019,0.0005678497562850483
-0.04968657407407408,0.2364101254612686,0.0005678497562850483
-0.04966157407407408,0.2556749319586347,0.0005678497562850483
-0.04963657407407407,0.2746075866198568,0.0005678497562850483
-0.04961157407407407,0.2925437857725851,0.0005678497562850483
-0.04958657407407407,0.3121407441061216,0.0005678497562850483
-0.04956157407407408,0.3297447914226884,0.0005678497562850483
-0.04953657407407408,0.348677446083893,0.0005678497562850483
-0.04951157407407407,0.3676101007451149,0.0009025906624958203
-0.04948657407407407,0.3852141480616816,0.0009025906624958203
-0.04946157407407407,0.4051432582313798,0.0009025906624958203
-0.04943657407407408,0.4220830018756232,0.0009025906624958203
-0.04941157407407408,0.4416799602091508,0.00123733156870644
-0.04938657407407407,0.4602804630342113,0.001237331568706592
-0.04936157407407407,0.4778845103507781,0.001237331568706592
-0.04933657407407407,0.4971493168481529,0.001572072474917364
-0.04931157407407408,0.5140890604923964,0.001572072474917364
-0.04928657407407408,0.533021715153601,0.001906813381127984
-0.04926157407407407,0.550957914306338,0.002241554287338908
-0.04923657407407407,0.5685619616229047,0.00257629519354968
-0.04921157407407407,0.587494616284118,0.002911036099760452
-0.04918657407407408,0.6044343599283615,0.003245777005971224
-0.04916157407407408,0.6230348627534046,0.003580517912181844
-0.04913657407407407,0.6409710619061414,0.004249999724603539
-0.04911157407407407,0.6582429573865465,0.004919481537025083
-0.04908657407407407,0.6771756120477598,0.005923704255657399
-0.04906157407407408,0.6934510520196799,0.006593186068078943
-0.04903657407407408,0.712051554844723,0.007597408786710802
-0.04901157407407407,0.7296556021612982,0.008936372411554346
-0.04898657407407407,0.7465953458055417,0.01027533603639743
-0.04896157407407407,0.7648636967944317,0.01194904056745129
