2020_assignments/Waveform_test.csv

#Digilent WaveForms Oscilloscope Acquisition
#Device Name: Discovery2
#Serial Number: SN:210321AE3681
#Date Time: 2020-09-09 11:00:11.240
#Sample rate: 400000Hz
#Samples: 8192
#Trigger: Source: Channel 1 Type: Edge Condition: Rising Level: 0 V Hyst.: Auto HoldOff: 0 s
#Channel 1: Range: 5 V/div Offset: 0 V Attenuation: 1 X
#Channel 2: Range: 500 mV/div Offset: 0 V Attenuation: 1 X
#Wavegen Channel 1: Enabled
#Mode: Simple
#Type: Sine
#Frequency: 1 kHz
#Period: 1 ms
#Amplitude: 5 V
#Offset: 0 V
#Symmetry: 50 %
#Phase: 0 °

Time (s),Channel 1 (V),Channel 2 (V)
-0.006929886363636365,2.116003898881798,0.06751603099843945
-0.006927386363636364,2.192661551955307,0.06751603099843945
-0.006924886363636363,2.262018476164702,0.0668465491860179
-0.006922386363636364,2.327725035941966,0.0668465491860179
-0.006919886363636363,2.397081960151331,0.06718129009222867
-0.006917386363636364,2.462788519928624,0.06617706737359635
-0.006914886363636364,2.535795808570062,0.06550758556117481
-0.006912386363636364,2.601502368347326,0.06550758556117481
-0.006909886363636364,2.663558563692576,0.06550758556117481
-0.006907386363636363,2.73656585233404,0.06517284465496373
-0.006904886363636364,2.794971683247163,0.06450336284254249
-0.006902386363636363,2.860678243024486,0.06450336284254234
-0.006899886363636364,2.92638480280175,0.06416862193633172
-0.006897386363636363,2.988440998146971,0.0631643992176994
-0.006894886363636364,3.050497193492193,0.0631643992176994
-0.006892386363636364,3.112553388837414,0.06282965831148862
-0.006889886363636365,3.174609584182607,0.06216017649906739
-0.006887386363636364,3.236665779527858,0.06216017649906708
-0.006884886363636363,3.291421246008962,0.06149069468664523
-0.006882386363636364,3.349827076922085,0.060821212874224
-0.006879886363636363,3.408232907835259,0.05981699015559153
-0.006877386363636364,3.462988374316312,0.05948224924938091
-0.006874886363636363,3.521394205229462,0.05914750834317014
-0.006872386363636364,3.576149671710515,0.05914750834317014
-0.006869886363636364,3.627254773759546,0.05814328562453782
-0.006867386363636365,3.685660604672669,0.05814328562453782
-0.006864886363636364,3.736765706721701,0.05680432199969473
-0.006862386363636363,3.784220444338659,0.05613484018727304
-0.006859886363636364,3.835325546387641,0.05580009928106242
-0.006857386363636363,3.882780284004576,0.05513061746864088
-0.006854886363636364,3.93023502162151,0.05446113565621933
-0.006852386363636363,3.984990488102587,0.05379165384379778
-0.006849886363636364,4.02514449685536,0.05312217203137655
-0.006847386363636364,4.076249598904384,0.05278743112516547
-0.006844886363636365,4.120053972089226,0.05211794931274423
-0.006842386363636364,4.163858345274108,0.05111372659411161
-0.006839886363636363,4.204012354026919,0.05077898568790038
-0.006837386363636364,4.24781672721176,0.04977476296926852
-0.006834886363636363,4.28432037153248,0.04910528115684698
-0.006832386363636364,4.320824015853198,0.04810105843821466
-0.006829886363636363,4.360978024605989,0.04743157662579312
-0.006827386363636364,4.40113203335876,0.04676209481337188
-0.006824886363636364,4.433985313247425,0.04575787209473926
-0.006822386363636363,4.47048895756816,0.04475364937610679
-0.006819886363636364,4.506992601888863,0.04441890846989617
-0.006817386363636363,4.536195517345452,0.04374942665747401
-0.006814886363636364,4.569048797234084,0.04241046303263154
-0.006812386363636363,4.605552441554803,0.04140624031399923
-0.006809886363636364,4.631104992579306,0.04073675850157768
-0.006807386363636364,4.66030790803588,0.04006727668915613
-0.006804886363636365,4.685860459060372,0.03906305397052428
-0.006802386363636364,4.707762645652815,0.0380588312518915
-0.006799886363636363,4.733315196677327,0.03705460853325888
-0.006797386363636364,4.755217383269748,0.03638512672083764
-0.006794886363636363,4.784420298726332,0.03538090400220503
-0.006792386363636364,4.802672120886682,0.03471142218978378
-0.006789886363636363,4.820923943047042,0.0333724585649407
-0.006787386363636364,4.842826129639463,0.03270297675251946
-0.006784886363636364,4.85742758736776,0.03203349494009761
-0.006782386363636365,4.875679409528112,0.03136401312767637
-0.006779886363636364,4.890280867256407,0.03002504950283298
-0.006777386363636363,4.901231960552629,0.02902082678420005
-0.006774886363636364,4.91583341828091,0.02768186315935757
-0.006772386363636363,4.926784511577125,0.02667764044072526
-0.006769886363636364,4.937735604873341,0.02600815862830371
-0.006767386363636363,4.948686698169556,0.0250039359096714
-0.006764886363636364,4.952337062601627,0.02399971319103954
-0.006762386363636364,4.959637791465772,0.022660749566196
-0.006759886363636365,4.966938520329912,0.02165652684756414
-0.006757386363636364,4.977889613626131,0.02098704503514214
-0.006754886363636363,4.97788961362613,0.01931334050408797
-0.006752386363636364,4.97423924919406,0.01864385869166673
-0.006749886363636363,4.977889613626131,0.01763963597303442
-0.006747386363636364,4.977889613626131,0.01697015416061287
-0.006744886363636363,4.97423924919406,0.01563119053576979
-0.006742386363636364,4.966938520329919,0.01429222691092731
-0.006739886363636364,4.966938520329916,0.01328800419229438
-0.006737386363636363,4.95963779146577,0.01261852237987208
-0.006734886363636364,4.9559874270337,0.01094481784881898
-0.006732386363636363,4.945036333737481,0.009940595130186356
-0.006729886363636364,4.937735604873341,0.009271113317765119
-0.006727386363636363,4.923134147145054,0.008266890599132803
-0.006724886363636364,4.91583341828091,0.007262667880500487
-0.006722386363636364,4.904882324984694,0.005588963349446628
-0.006719886363636365,4.890280867256413,0.004584740630814769
-0.006717386363636364,4.872029045096047,0.003580517912181996
-0.006714886363636363,4.85742758736775,0.002576295193549071
-0.006712386363636364,4.835525400775329,0.001237331568706592
-0.006709886363636363,4.820923943047032,-0.0001016320561368
-0.006707386363636364,4.799021756454611,-0.0007711138685580394
-0.006704886363636363,4.77711956986218,-0.002110077493401127
-0.006702386363636364,4.755217383269748,-0.002779559305822671
-0.006699886363636364,4.733315196677317,-0.004118522930665759
-0.006697386363636365,4.700461916788686,-0.005457486555508238
-0.006694886363636364,4.682210094628311,-0.006796450180351934
-0.006692386363636363,4.649356814739651,-0.007800672898984554
-0.006689886363636364,4.62015389928309,-0.008470154711405794
-0.006687386363636363,4.594601348258587,-0.009139636523827337
-0.006684886363636364,4.561748068369941,-0.0108133410548812
-0.006682386363636363,4.528894788481294,-0.01181756377351351
-0.006679886363636364,4.499691873024732,-0.01248704558593475
-0.006677386363636364,4.455887499839856,-0.01449549102319969
-0.006674886363636365,4.426684584383295,-0.01549971374183155
-0.006672386363636364,4.393831304494635,-0.01650393646046432
-0.006669886363636363,4.357327660173899,-0.01750815917909709
-0.006667386363636364,4.320824015853198,-0.01851238189772895
-0.006664886363636363,4.277019642668336,-0.01918186371015049
-0.006662386363636364,4.236865633915545,-0.02018608642878281
-0.006659886363636363,4.196711625162755,-0.02119030914741513
-0.006657386363636364,4.156557616409983,-0.02252927277225761
-0.006654886363636364,4.112753243225102,-0.02353349549089053
-0.006652386363636363,4.065298505608147,-0.02487245911573393
-0.006649886363636364,4.017843767991234,-0.02554194092815516
-0.006647386363636363,3.974039394806349,-0.02654616364678809
-0.006644886363636364,3.922934292757366,-0.02788512727163056
-0.006642386363636363,3.879129919572503,-0.02855460908405211
-0.006639886363636364,3.824374453091425,-0.02955883180268443
-0.006637386363636364,3.776919715474492,-0.03089779542752751
-0.006634886363636365,3.729464977857579,-0.03190201814615937
-0.006632386363636364,3.67470951137648,-0.03257149995858137
-0.006629886363636363,3.619954044895377,-0.033575722677214
-0.006627386363636364,3.565198578414324,-0.03424520448963523
-0.006624886363636363,3.51044311193322,-0.03558416811447878
-0.006622386363636364,3.452037281020097,-0.03658839083311063
-0.006619886363636363,3.393631450106947,-0.03725787264553218
-0.006617386363636364,3.338875983625869,-0.03826209536416449
-0.006614886363636364,3.28047015271272,-0.03926631808279681
-0.006612386363636365,3.222064321799596,-0.03993579989521805
-0.006609886363636364,3.16365849088642,-0.04094002261385067
-0.006607386363636363,3.0979519311091,-0.04227898623869406
-0.006604886363636364,3.039546100195977,-0.0429484680511153
-0.006602386363636363,2.977489904850755,-0.04395269076974762
-0.006599886363636364,2.911783345073462,-0.04462217258216916
-0.006597386363636363,2.849727149728241,-0.04562639530080148
-0.006594886363636364,2.780370225518908,-0.04663061801943334
-0.006592386363636364,2.721964394605726,-0.04696535892564457
-0.006589886363636365,2.652607470396392,-0.04796958164427642
-0.006587386363636364,2.59055127505114,-0.04863906345669843
-0.006584886363636363,2.521194350841744,-0.04930854526912073
-0.006582386363636364,2.455487791064481,-0.05098224980017383
-0.006579886363636363,2.389781231287188,-0.05098224980017383
-0.006577386363636364,2.31677394264575,-0.05198647251880614
-0.006574886363636363,2.247417018436385,-0.05265595433122769
-0.006572386363636364,2.170759365362911,-0.05332543614364893
-0.006569886363636364,2.105052805585583,-0.05466439976849232
-0.006567386363636365,2.028395152512108,-0.0543296588622817
-0.006564886363636364,1.959038228302709,-0.05533388158091387
-0.006562386363636363,1.889681304093312,-0.05633810429954633
-0.006559886363636364,1.820324379883979,-0.05667284520575695
-0.006557386363636363,1.747317091242542,-0.0573423270181785
-0.006554886363636364,1.670659438169033,-0.05801180883060004
-0.006552386363636364,1.594001785095524,-0.05868129064302158
-0.006549886363636364,1.52099449645412,-0.05968551336165344
-0.006547386363636364,1.447987207812649,-0.06035499517407544
-0.006544886363636363,1.371329554739106,-0.0603549951740759
-0.006542386363636364,1.294671901665632,-0.06135921789270776
-0.006539886363636363,1.221664613024158,-0.06135921789270822
-0.006537386363636364,1.141356595518614,-0.06236344061134007
-0.006534886363636363,1.064698942445105,-0.06269818151755086
-0.006532386363636364,0.9916916538036679,-0.06303292242376163
-0.006529886363636364,0.9150340007301589,-0.06403714514239395
-0.006527386363636365,0.8347259832246148,-0.06437188604860457
-0.006524886363636364,0.765369059015213,-0.06437188604860472
-0.006522386363636363,0.6850610415095957,-0.06537610876723716
-0.006519886363636364,0.6047530240040515,-0.06571084967344779
-0.006517386363636363,0.5244450064984358,-0.06604559057965871
-0.006514886363636364,0.4477873534249618,-0.06638033148586933
-0.006512386363636363,0.3747800647835248,-0.0667150723920801
-0.006509886363636364,0.2944720472779805,-0.0667150723920801
-0.006507386363636364,0.2105136653402914,-0.06771929511071242
-0.006504886363636365,0.1338560122668173,-0.06771929511071242
-0.006502386363636364,0.05354799476120171,-0.06838877692313397
-0.006499886363636363,-0.02676002274441059,-0.06872351782934474
-0.006497386363636364,-0.09611694695374425,-0.06872351782934474
-0.006494886363636363,-0.1800753288913969,-0.06872351782934474
-0.006492386363636364,-0.2567329819649058,-0.06939299964176629
-0.006489886363636363,-0.3370409994704865,-0.06972774054797706
-0.006487386363636364,-0.4136986525439606,-0.06972774054797706
-0.006484886363636364,-0.4903563056175044,-0.06972774054797706
-0.006482386363636365,-0.5670139586909784,-0.07006248145418768
-0.006479886363636364,-0.647321976196594,-0.07039722236039861
-0.006477386363636363,-0.7239796292701395,-0.07073196326660923
-0.006474886363636364,-0.8042876467756837,-0.07039722236039861
-0.006472386363636363,-0.8772949354171208,-0.07073196326660938
-0.006469886363636364,-0.9539525884906297,-0.07073196326660938
-0.006467386363636364,-1.034260605996211,-0.07106670417282016
-0.006464886363636364,-1.107267894637614,-0.07039722236039891
-0.006462386363636364,-1.187575912143228,-0.07073196326660938
-0.006459886363636363,-1.267883929648839,-0.07073196326660938
-0.006457386363636364,-1.333590489426102,-0.07073196326660938
-0.006454886363636363,-1.410248142499646,-0.07073196326660938
-0.006452386363636364,-1.48690579557312,-0.07073196326660938
-0.006449886363636363,-1.563563448646629,-0.07106670417282016
-0.006447386363636364,-1.640221101720138,-0.07073196326660938
-0.006444886363636364,-1.709578025929503,-0.07073196326660938
-0.006442386363636365,-1.786235679002977,-0.07073196326660938
-0.006439886363636364,-1.862893332076521,-0.07039722236039861
-0.006437386363636363,-1.928599891853849,-0.07006248145418784
-0.006434886363636364,-2.005257544927323,-0.07006248145418784
-0.006432386363636363,-2.07096410470465,-0.07039722236039846
-0.006429886363636364,-2.143971393346054,-0.07006248145418784
-0.006427386363636363,-2.216978681987491,-0.07006248145418784
-0.006424886363636364,-2.286335606196824,-0.0693929996417666
-0.006422386363636364,-2.359342894838293,-0.06939299964176629
-0.006419886363636365,-2.425049454615557,-0.06939299964176629
-0.006417386363636364,-2.49075601439288,-0.06838877692313397
-0.006414886363636363,-2.563763303034346,-0.06838877692313397
-0.006412386363636364,-2.62946986281161,-0.06838877692313397
-0.006409886363636363,-2.695176422588903,-0.0680540360169232
-0.006407386363636364,-2.760882982366197,-0.06738455420450165
-0.006404886363636363,-2.82658954214349,-0.06738455420450165
-0.006402386363636364,-2.888645737488683,-0.06704981329829103
-0.006399886363636364,-2.950701932833933,-0.06704981329829088
-0.006397386363636365,-3.016408492611197,-0.06604559057965902
-0.006394886363636364,-3.078464687956448,-0.06537610876723701
-0.006392386363636363,-3.140520883301698,-0.06537610876723686
-0.006389886363636364,-3.202577078646891,-0.06504136786102624
-0.006387386363636363,-3.264633273992112,-0.06437188604860472
-0.006384886363636364,-3.31938874047319,-0.06437188604860472
-0.006382386363636364,-3.381444935818412,-0.0633676633299724
-0.006379886363636364,-3.436200402299464,-0.06303292242376178
-0.006377386363636364,-3.490955868780567,-0.0620286997051293
-0.006374886363636363,-3.54936169969374,-0.06169395879891838
-0.006372386363636364,-3.600466801742723,-0.06135921789270776
-0.006369886363636363,-3.658872632655897,-0.06035499517407544
-0.006367386363636364,-3.71362809913695,-0.06035499517407544
-0.006364886363636363,-3.764733201185956,-0.06002025426786467
-0.006362386363636364,-3.81218793880289,-0.05935077245544313
-0.006359886363636364,-3.863293040851897,-0.05868129064302158
-0.006357386363636365,-3.914398142900879,-0.05801180883060034
-0.006354886363636364,-3.961852880517837,-0.05667284520575695
-0.006352386363636363,-4.012957982566862,-0.05633810429954587
-0.006349886363636364,-4.056762355751705,-0.05566862248712463
-0.006347386363636363,-4.100566728936586,-0.05533388158091341
-0.006344886363636364,-4.144371102121429,-0.05432965886228155
-0.006342386363636363,-4.184525110874219,-0.05399491795607077
-0.006339886363636364,-4.228329484059062,-0.05299069523743892
-0.006337386363636364,-4.275784221676015,-0.05232121342501692
-0.006334886363636365,-4.315938230428787,-0.05165173161259568
-0.006332386363636364,-4.348791510317453,-0.05064750889396306
-0.006329886363636363,-4.38894551907026,-0.04997802708154105
-0.006327386363636364,-4.425449163390962,-0.0489738043629092
-0.006324886363636363,-4.46195280771168,-0.04796958164427688
-0.006322386363636364,-4.498456452032398,-0.04730009983185534
-0.006319886363636363,-4.531309731921045,-0.04663061801943379
-0.006317386363636364,-4.564163011809677,-0.04596113620701255
-0.006314886363636364,-4.600666656130411,-0.04529165439459071
-0.006312386363636365,-4.629869571586972,-0.04428743167595885
-0.006309886363636364,-4.651771758179416,-0.0429484680511153
-0.006307386363636363,-4.680974673636007,-0.04227898623869345
-0.006304886363636364,-4.713827953524638,-0.04160950442627222
-0.006302386363636363,-4.735730140117069,-0.04094002261385067
-0.006299886363636364,-4.761282691141572,-0.03993579989521836
-0.006297386363636364,-4.783184877734003,-0.03926631808279681
-0.006294886363636364,-4.808737428758494,-0.03792735445795434
-0.006292386363636364,-4.826989250918865,-0.03692313173932141
-0.006289886363636363,-4.848891437511305,-0.03625364992689925
-0.006287386363636364,-4.867143259671655,-0.03491468630205678
-0.006284886363636363,-4.88539508183202,-0.03457994539584539
-0.006282386363636364,-4.89634617512823,-0.03324098177100292
-0.006279886363636363,-4.91459799728859,-0.0322367590523706
-0.006277386363636364,-4.932849819448949,-0.03123253633373829
-0.006274886363636364,-4.947451277177237,-0.0298935727088952
-0.006272386363636365,-4.958402370473447,-0.02955883180268458
-0.006269886363636364,-4.965703099337595,-0.02821986817784134
-0.006267386363636363,-4.973003828201745,-0.02755038636541934
-0.006264886363636364,-4.983954921497955,-0.02654616364678748
-0.006262386363636363,-4.98760528593003,-0.02487245911573331
-0.006259886363636364,-4.994906014794171,-0.02420297730331207
-0.006257386363636363,-4.998556379226242,-0.02319875458467976
-0.006254886363636364,-5.002206743658313,-0.02152505005362666
-0.006252386363636364,-5.002206743658315,-0.02119030914741513
-0.006249886363636365,-5.005857108090384,-0.02018608642878327
-0.006247386363636364,-5.002206743658315,-0.01851238189772895
-0.006244886363636363,-5.005857108090383,-0.01750815917909633
-0.006242386363636364,-4.998556379226242,-0.01683867736667509
-0.006239886363636363,-4.994906014794171,-0.015499713741832
-0.006237386363636364,-4.987605285930027,-0.01483023192941046
-0.006234886363636363,-4.980304557065883,-0.01349126830456737
-0.006232386363636364,-4.969353463769673,-0.01248704558593551
-0.006229886363636364,-4.962052734905524,-0.01114808196109197
-0.006227386363636365,-4.954752006041383,-0.01014385924246011
-0.006224886363636364,-4.943800912745164,-0.009139636523827337
-0.006222386363636363,-4.9255490905848,-0.008135413805194414
-0.006219886363636364,-4.91459799728859,-0.006796450180351934
-0.006217386363636363,-4.899996539560302,-0.005457486555508846
-0.006214886363636364,-4.881744717399943,-0.005122745649298074
-0.006212386363636364,-4.863492895239584,-0.003783782024454987
-0.006209886363636364,-4.845241073079232,-0.002779559305823128
-0.006207386363636364,-4.830639615350937,-0.001105854774768811
-0.006204886363636363,-4.801436699894355,-0.0001016320561361911
-0.006202386363636364,-4.783184877734003,0.0005678497562850483
-0.006199886363636363,-4.757632326709489,0.001906813381128593
-0.006197386363636364,-4.732079775684997,0.002911036099760452
-0.006194886363636363,-4.706527224660494,0.004249999724603539
-0.006192386363636364,-4.677324309203919,0.004919481537025083
-0.006189886363636364,-4.648121393747345,0.006258445161868171
-0.006187386363636365,-4.618918478290783,0.007262667880500031
-0.006184886363636364,-4.593365927266267,0.007932149692922032
-0.006182386363636363,-4.560512647377605,0.009271113317765575
-0.006179886363636364,-4.527659367488973,0.01027533603639743
-0.006177386363636363,-4.491155723168242,0.01127955875503021
-0.006174886363636364,-4.46195280771168,0.01228378147366207
-0.006172386363636363,-4.425449163390962,0.01328800419229438
-0.006169886363636364,-4.381644790206119,0.01462696781713686
-0.006167386363636364,-4.348791510317453,0.01529644962955901
-0.006164886363636365,-4.308637501564681,0.01630067234819087
-0.006162386363636364,-4.2648331283798,0.01730489506682364
-0.006159886363636363,-4.22467911962699,0.01830911778545657
-0.006157386363636364,-4.180874746442147,0.01964808141029905
-0.006154886363636363,-4.144371102121429,0.02065230412893137
-0.006152386363636364,-4.093266000072423,0.02199126775377445
-0.006149886363636363,-4.049461626887561,0.022660749566196
-0.006147386363636364,-4.002006889270648,0.02366497228482786
-0.006144886363636364,-3.954552151653693,0.0250039359096714
-0.006142386363636365,-3.90344704960471,0.02567341772209264
-0.006139886363636364,-3.852341947555681,0.02701238134693603
-0.006137386363636363,-3.804887209938725,0.02768186315935803
