2020_assignments/S Kelleys Lab 6 Analog Op Amps/6 l 5 10k and 1k amp inverse.csv

#Digilent WaveForms Oscilloscope Acquisition
#Device Name: Discovery2
#Serial Number: SN:210321AE3681
#Date Time: 2020-09-23 11:21:14.619
#Sample rate: 4e+06Hz
#Samples: 8192
#Trigger: Source: Channel 1 Type: Edge Condition: Rising Level: 0 V Hyst.: Auto HoldOff: 0 s
#Channel 1: Range: 300 mV/div Offset: 0 V Attenuation: 1 X
#Channel 2: Range: 300 mV/div Offset: 0 V Attenuation: 1 X
#Wavegen Channel 1: Running
#Mode: Simple
#Type: Sine
#Frequency: 1 kHz
#Period: 1 ms
#Amplitude: 100 mV
#Offset: 0 V
#Symmetry: 50 %
#Phase: 0 °
#Power Supplies: ON
#Positive Supply: ON
#Voltage: 5 V
#Negative Supply: ON
#Voltage: -5 V

Time (s),Channel 1 (V),Channel 2 (V)
2.875000000000056e-06,0.0009144736226686593,0.01529644962955901
3.12500000000009e-06,0.0009144736226685083,0.01261852237987192
3.374999999999906e-06,0.0005823217865071743,0.01061007694260912
3.624999999999939e-06,0.001246625458829993,0.01228378147366131
3.874999999999972e-06,0.001246625458830295,0.01061007694260821
4.125000000000005e-06,0.00257523280347684,0.007932149692922032
4.375000000000039e-06,0.001578777294991931,0.008266890599132803
4.625000000000072e-06,0.002243080967315657,0.00659318606807742
4.875000000000105e-06,0.00323953647579981,0.003245777005971528
5.124999999999921e-06,0.002575232803477142,0.003915258818392464
5.374999999999954e-06,0.002907384639638476,0.001572072474917364
5.624999999999988e-06,0.003571688311961748,-0.002444818399611899
5.875000000000021e-06,0.003239536475800112,-0.002444818399611899
6.125000000000054e-06,0.00423599198428502,-0.004788004743087303
6.375000000000087e-06,0.004235991984284718,-0.008135413805195632
6.624999999999904e-06,0.00357168831196205,-0.009474377430037501
6.874999999999937e-06,0.003903840148123233,-0.01081334105488059
7.12499999999997e-06,0.00423599198428502,-0.01349126830456737
7.375000000000003e-06,0.003239536475800112,-0.01449549102319969
7.625000000000036e-06,0.003571688311961748,-0.01516497283562123
7.875000000000069e-06,0.004568143820446505,-0.01650393646046508
8.125000000000103e-06,0.004235991984285321,-0.01817764099151879
8.374999999999919e-06,0.00490029565660799,-0.01951660461636066
8.624999999999952e-06,0.005232447492769778,-0.02119030914741437
8.874999999999985e-06,0.004568143820446656,-0.02353349549089053
9.125000000000019e-06,0.004568143820446656,-0.02487245911573362
9.375000000000052e-06,0.005232447492769928,-0.02554194092815516
9.625000000000085e-06,0.006228903001254535,-0.02755038636542055
9.875000000000118e-06,0.005564599328931564,-0.02922409089647457
1.012499999999993e-05,0.005564599328931564,-0.03123253633373737
1.037499999999997e-05,0.005564599328931564,-0.03324098177100292
1.0625e-05,0.006561054837416472,-0.034579945395846
1.087500000000003e-05,0.006561054837416472,-0.03692313173932141
1.112500000000007e-05,0.007225358509739594,-0.03826209536416526
1.13750000000001e-05,0.00689320667357826,-0.03993579989521927
1.162499999999992e-05,0.007225358509739594,-0.04194424533248207
1.187499999999995e-05,0.006561054837416774,-0.04328320895732547
1.212499999999998e-05,0.007225358509739745,-0.04395269076974762
1.237500000000002e-05,0.006561054837416472,-0.04529165439459071
1.262500000000005e-05,0.006893206673578109,-0.04696535892564457
1.287500000000008e-05,0.007557510345901531,-0.0479695816442778
1.312500000000012e-05,0.007889662182062714,-0.04997802708154243
1.337499999999993e-05,0.007225358509740046,-0.05198647251880523
1.362499999999997e-05,0.007889662182063016,-0.05198647251880614
1.3875e-05,0.007889662182063016,-0.05366017704986
1.412500000000003e-05,0.008221814018224652,-0.05667284520575695
1.437500000000006e-05,0.007889662182063016,-0.05667284520575695
1.46250000000001e-05,0.007889662182063167,-0.05868129064302281
1.487499999999991e-05,0.008221814018224501,-0.06135921789270654
1.512499999999995e-05,0.008553965854386138,-0.06068973608028652
1.537499999999998e-05,0.009550421362871197,-0.06269818151755086
1.562500000000001e-05,0.008553965854386289,-0.06571084967344779
1.587500000000005e-05,0.008886117690547925,-0.06504136786102624
1.612500000000008e-05,0.008886117690547774,-0.06604559057966024
1.637500000000011e-05,0.008553965854386289,-0.06972774054797645
1.662499999999993e-05,0.008553965854386289,-0.06838877692313458
1.687499999999996e-05,0.009218269526709561,-0.07006248145418784
1.7125e-05,0.008886117690547925,-0.07307514961008477
1.737500000000003e-05,0.01021472503519447,-0.0717361859852417
1.762500000000006e-05,0.01021472503519447,-0.07441411323492786
1.78750000000001e-05,0.01021472503519417,-0.07776152229703513
1.812499999999991e-05,0.009550421362871498,-0.07675729957840373
1.837499999999995e-05,0.009882573199032681,-0.07843100410945637
1.862499999999998e-05,0.01021472503519447,-0.08077419045293252
1.887500000000001e-05,0.01054687687135611,-0.07976996773430023
1.912500000000004e-05,0.01054687687135611,-0.08177841317156484
1.937500000000008e-05,0.01154333237984116,-0.08445634042125102
1.962500000000011e-05,0.01187548421600265,-0.08445634042125209
1.987499999999993e-05,0.01187548421600265,-0.08679952676472537
2.012499999999996e-05,0.01320409156064919,-0.09048167673304491
2.037499999999999e-05,0.01253978788832592,-0.09081641763925569
2.062500000000003e-05,0.01287193972448756,-0.09349434488894187
2.087500000000006e-05,0.01386839523297247,-0.09684175395104958
2.112500000000009e-05,0.01353624339681053,-0.09784597666968296
2.137499999999991e-05,0.01287193972448786,-0.1001891630131562
2.162499999999994e-05,0.0118754842160031,-0.1028670902628423
2.187499999999998e-05,0.01253978788832592,-0.1028670902628435
2.212500000000001e-05,0.01253978788832592,-0.1042060538876866
2.237500000000004e-05,0.01287193972448756,-0.106549240231162
2.262500000000008e-05,0.01287193972448741,-0.1068839811373735
2.287500000000011e-05,0.01253978788832637,-0.1085576856684278
2.312499999999993e-05,0.01353624339681038,-0.1112356129181115
2.337499999999996e-05,0.01353624339681083,-0.1125745765429559
2.362499999999999e-05,0.0142005470691341,-0.1135787992615882
2.387500000000002e-05,0.01453269890529574,-0.1159219856050636
2.412500000000006e-05,0.01386839523297247,-0.1175956901361175
2.437500000000009e-05,0.01453269890529604,-0.1189346537609613
2.462499999999991e-05,0.01519700257761871,-0.1206083582920136
2.487499999999994e-05,0.01486485074145752,-0.1222820628230675
2.512499999999997e-05,0.01552915441378065,-0.1232862855417006
2.537500000000001e-05,0.01552915441378065,-0.125629471885176
2.562500000000004e-05,0.01519700257761901,-0.1276379173224406
2.587500000000007e-05,0.01619345808610376,-0.1279726582286523
2.612500000000011e-05,0.01586130624994213,-0.1299811036659171
2.637499999999992e-05,0.0155291544137808,-0.1323242900093904
2.662499999999996e-05,0.01586130624994228,-0.1333285127280237
2.687499999999999e-05,0.01519700257761901,-0.1350022172590776
2.712500000000002e-05,0.01586130624994228,-0.137345403602553
2.737500000000006e-05,0.01718991359458883,-0.1380148854149745
2.762500000000009e-05,0.01652560992226571,-0.1400233308522402
2.787499999999991e-05,0.01685776175842704,-0.1423665171957135
2.812499999999994e-05,0.01718991359458867,-0.1433707399143465
2.837499999999997e-05,0.01752206543075046,-0.1453791853516115
2.8625e-05,0.0178542172669121,-0.1477223716950869
2.887500000000004e-05,0.0178542172669121,-0.1483918535075085
2.912500000000007e-05,0.01752206543075062,-0.1510697807571959
2.93750000000001e-05,0.0178542172669121,-0.1537477080068811
2.962499999999992e-05,0.0178542172669121,-0.1544171898193021
2.987499999999995e-05,0.0178542172669121,-0.1570951170689885
3.012499999999999e-05,0.01818636910307373,-0.159438303412464
3.037500000000002e-05,0.01851852093923537,-0.160777267037307
3.062500000000005e-05,0.01885067277539701,-0.1627857124745717
3.087500000000009e-05,0.01951497644772012,-0.1647941579118363
3.11249999999999e-05,0.01918282461155879,-0.1647941579118363
3.137499999999994e-05,0.0201792801200431,-0.1661331215366788
3.162499999999997e-05,0.01984712828388192,-0.1694805305987871
3.1875e-05,0.01984712828388192,-0.1694805305987871
3.212500000000004e-05,0.01984712828388192,-0.171154235129841
3.237500000000007e-05,0.02051143195620473,-0.1745016441919484
3.26250000000001e-05,0.01951497644772088,-0.1738321623795279
3.287499999999992e-05,0.02084358379236622,-0.1755058669105802
3.312499999999995e-05,0.02017928012004385,-0.1791880168788978
3.337499999999998e-05,0.01951497644772028,-0.1778490532540564
3.362500000000002e-05,0.02051143195620519,-0.179857498691321
3.387500000000005e-05,0.02117573562852846,-0.182870166847218
3.412500000000008e-05,0.02017928012004401,-0.1815312032223758
3.437500000000012e-05,0.02117573562852816,-0.1835396486596406
3.462499999999993e-05,0.02051143195620549,-0.1858828350031139
3.487499999999997e-05,0.01951497644772028,-0.1848786122844826
3.5125e-05,0.02117573562852846,-0.1855480940969041
3.537500000000003e-05,0.02217219113701337,-0.1885607622528011
3.562500000000007e-05,0.02117573562852846,-0.1892302440652227
3.58750000000001e-05,0.02150788746469055,-0.1902344667838566
3.612499999999992e-05,0.02250434297317455,-0.1939166167521718
3.637499999999995e-05,0.02184003930085203,-0.1935818758459628
3.662499999999998e-05,0.02217219113701337,-0.1952555803770165
3.687500000000002e-05,0.02316864664549827,-0.1979335076267027
3.712500000000005e-05,0.022504342973175,-0.1982682485329135
3.737500000000008e-05,0.02316864664549873,-0.1996072121577578
3.762500000000011e-05,0.02416510215398288,-0.2022851394074431
3.787499999999993e-05,0.02350079848166022,-0.202954621219864
3.812499999999996e-05,0.02316864664549827,-0.2049630666571289
3.8375e-05,0.02350079848165991,-0.2066367711881828
3.862500000000003e-05,0.02350079848165991,-0.2076409939068151
3.887500000000006e-05,0.02383295031782155,-0.2086452166254474
3.91250000000001e-05,0.02449725399014467,-0.2106536620627127
3.937499999999991e-05,0.02416510215398334,-0.2119926256875545
3.962499999999995e-05,0.02416510215398318,-0.2126621074999764
3.987499999999998e-05,0.02449725399014482,-0.2146705529372413
4.012500000000001e-05,0.02416510215398318,-0.2156747756558736
4.037500000000005e-05,0.02549370949862973,-0.2163442574682952
4.062500000000008e-05,0.02416510215398364,-0.2180179619993496
4.087500000000011e-05,0.02516155766246824,-0.2193569256241929
4.112499999999993e-05,0.02549370949862957,-0.2210306301552452
4.137499999999996e-05,0.02516155766246809,-0.2237085574049321
4.1625e-05,0.02549370949862973,-0.2257170028421968
4.187500000000003e-05,0.02649016500711463,-0.2267212255608291
4.212500000000006e-05,0.02516155766246809,-0.2293991528105153
4.237500000000009e-05,0.02516155766246839,-0.2310728573415696
4.262499999999991e-05,0.02582586133479106,-0.232077080060201
4.287499999999994e-05,0.02549370949862988,-0.2334160436850439
4.312499999999998e-05,0.02549370949862973,-0.2350897482160984
4.337500000000001e-05,0.02682231684327627,-0.2354244891223092
4.362500000000004e-05,0.02582586133479136,-0.237098193653363
4.387500000000008e-05,0.0261580131709533,-0.239106639090628
4.412500000000011e-05,0.02682231684327627,-0.2397761209030501
4.437499999999993e-05,0.02682231684327627,-0.2417845663403129
4.462499999999996e-05,0.02649016500711463,-0.2437930117775785
4.487499999999999e-05,0.02682231684327627,-0.2441277526837893
4.512500000000003e-05,0.02748662051559955,-0.2454667163086323
4.537500000000006e-05,0.02781877235176118,-0.2481446435583185
4.562500000000009e-05,0.02815092418792282,-0.24847938446453
4.587499999999991e-05,0.02815092418792282,-0.2501530889955824
4.612499999999994e-05,0.02815092418792282,-0.2524962753390575
4.637499999999998e-05,0.02781877235176118,-0.2528310162452693
4.662500000000001e-05,0.02881522786024609,-0.254839461682534
4.687500000000004e-05,0.02914737969640772,-0.2578521298384309
4.712500000000007e-05,0.02848307602408506,-0.2585216116508532
4.737500000000011e-05,0.029811683368731,-0.2601953161819078
4.762499999999992e-05,0.029811683368731,-0.2635427252440125
4.787499999999996e-05,0.02947953153256936,-0.2628732434315925
4.812499999999999e-05,0.02947953153256936,-0.2648816888688571
4.837500000000002e-05,0.03014383520489263,-0.2672248752123325
4.862500000000006e-05,0.02914737969640772,-0.2662206524937002
4.887500000000009e-05,0.02981168336873115,-0.2682290979309663
4.912499999999991e-05,0.03014383520489248,-0.2715765069930711
4.937499999999994e-05,0.02947953153256966,-0.2709070251806513
4.962499999999997e-05,0.029811683368731,-0.2732502115241264
4.987500000000001e-05,0.03014383520489263,-0.2769323614924449
5.012500000000004e-05,0.02947953153256936,-0.2762628796800233
5.037499999999996e-05,0.029811683368731,-0.2779365842110772
5.0625e-05,0.03080813887721591,-0.2806145114607634
5.087500000000003e-05,0.03014383520489263,-0.2796102887421311
5.112500000000006e-05,0.03080813887721591,-0.2812839932731849
5.137499999999999e-05,0.03180459438570081,-0.2839619205228711
5.162500000000002e-05,0.03080813887721591,-0.2846314023352927
5.187500000000005e-05,0.03147244254953918,-0.2863051068663465
5.212499999999998e-05,0.03246889805802409,-0.2893177750222434
5.237500000000001e-05,0.03180459438570081,-0.2893177750222434
5.262500000000005e-05,0.03213674622186245,-0.2903219977408757
5.287499999999997e-05,0.03280104989418572,-0.2926651840843512
5.3125e-05,0.03147244254953918,-0.2929999249905619
5.337500000000004e-05,0.03180459438570081,-0.2940041477091943
5.362499999999996e-05,0.03246889805802409,-0.2960125931464589
5.387499999999999e-05,0.03246889805802409,-0.2963473340526697
5.412500000000003e-05,0.03180459438570081,-0.2986905203961451
5.437500000000006e-05,0.03313320173034736,-0.3000294840209882
5.462499999999999e-05,0.03246889805802409,-0.3020379294582528
5.487500000000002e-05,0.03246889805802409,-0.3033768930830959
5.512500000000005e-05,0.03313320173034736,-0.3047158567079389
5.537499999999998e-05,0.03280104989418572,-0.3057200794265713
5.562500000000001e-05,0.03379750540267063,-0.3067243021452036
5.587500000000004e-05,0.033465353566509,-0.3083980066762574
5.612499999999997e-05,0.03280104989418572,-0.3097369703011005
5.6375e-05,0.03379750540267063,-0.3107411930197329
5.662500000000003e-05,0.03379750540267063,-0.3127496384569975
5.687499999999996e-05,0.0344618090749939,-0.313419120269419
5.712499999999999e-05,0.03479396091115554,-0.3150928248004729
5.737500000000003e-05,0.03512611274731717,-0.3181054929563699
5.762500000000006e-05,0.03579041641964045,-0.3197791974874237
5.787499999999998e-05,0.03545826458347881,-0.3221223838308991
5.812500000000002e-05,0.03579041641964045,-0.3241308292681637
5.837500000000005e-05,0.03579041641964045,-0.3261392747054284
5.862499999999997e-05,0.03612256825580208,-0.3271434974240607
5.887500000000001e-05,0.03678687192812535,-0.3291519428613253
5.912500000000004e-05,0.03612256825580208,-0.3314951292048007
5.937499999999997e-05,0.03645472009196372,-0.3324993519234331
5.9625e-05,0.03645472009196372,-0.3348425382669085
5.987500000000003e-05,0.03612256825580208,-0.336850983704173
6.012499999999996e-05,0.03645472009196372,-0.336850983704173
6.037499999999999e-05,0.03545826458347881,-0.3381899473290161
6.062500000000002e-05,0.03645472009196372,-0.3401983927662808
6.087500000000006e-05,0.03612256825580208,-0.3408678745787023
6.112499999999998e-05,0.03645472009196372,-0.3422068382035454
6.137500000000001e-05,0.03678687192812535,-0.3445500245470208
6.162500000000005e-05,0.03645472009196372,-0.3448847654532316
6.187499999999997e-05,0.03678687192812535,-0.3462237290780747
6.212500000000001e-05,0.03711902376428699,-0.3489016563277609
6.237500000000004e-05,0.03645472009196372,-0.3492363972339717
6.262499999999996e-05,0.03711902376428699,-0.350240619952604
6.2875e-05,0.03711902376428699,-0.3532532881085009
6.312500000000003e-05,0.03778332743661026,-0.3525838062960793
6.337500000000006e-05,0.03844763110893353,-0.3539227699209224
6.362499999999999e-05,0.03844763110893353,-0.3572701789830302
6.387500000000002e-05,0.03844763110893353,-0.3569354380768194
6.412500000000005e-05,0.03977623845358008,-0.3592786244202948
6.437499999999998e-05,0.03877978294509517,-0.3629607743886133
6.462500000000001e-05,0.0391119347812568,-0.361956551669981
6.487500000000005e-05,0.03944408661741845,-0.3642997380134564
6.512499999999997e-05,0.03977623845358008,-0.3669776652631425
6.5375e-05,0.03877978294509517,-0.3666429243569317
6.562500000000004e-05,0.03944408661741845,-0.3689861107004072
6.587499999999996e-05,0.03944408661741845,-0.3713292970438826
6.612499999999999e-05,0.0391119347812568,-0.3703250743252502
6.637500000000003e-05,0.0391119347812568,-0.3726682606687257
6.662500000000006e-05,0.03977623845358008,-0.3750114470122011
6.687499999999999e-05,0.03944408661741845,-0.3746767061059903
6.712500000000002e-05,0.03977623845358008,-0.3770198924494657
6.737500000000005e-05,0.04077269396206499,-0.3790283378867303
6.762499999999998e-05,0.03977623845358008,-0.378024115168098
6.787500000000001e-05,0.03977623845358008,-0.3796978196991519
6.812500000000004e-05,0.04143699763438826,-0.3820410060426273
6.837499999999997e-05,0.04110484579822662,-0.3820410060426273
6.8625e-05,0.04077269396206499,-0.3833799696674703
6.887500000000003e-05,0.04210130130671153,-0.3860578969171565
6.912499999999996e-05,0.04110484579822662,-0.3867273787295781
6.937499999999999e-05,0.04077269396206499,-0.3887358241668427
6.962500000000003e-05,0.04210130130671153,-0.3910790105103181
6.987500000000006e-05,0.0417691494705499,-0.3917484923227397
7.012499999999998e-05,0.0417691494705499,-0.3934221968537935
7.037500000000002e-05,0.04309775681519644,-0.3957653831972689
7.062500000000005e-05,0.0427656049790348,-0.397104346822112
7.087499999999997e-05,0.0427656049790348,-0.3991127922593766
7.112500000000001e-05,0.04376206048751971,-0.4011212376966413
7.137500000000004e-05,0.04309775681519644,-0.4037991649463274
7.162499999999997e-05,0.04376206048751971,-0.404468646758749
7.1875e-05,0.04243345314287317,-0.4064770921960136
7.212500000000003e-05,0.0427656049790348,-0.4081507967270675
7.237499999999996e-05,0.04342990865135807,-0.4081507967270675
7.262499999999999e-05,0.04309775681519644,-0.4091550194456998
7.287500000000002e-05,0.04376206048751971,-0.4111634648829645
7.312500000000006e-05,0.04409421232368135,-0.4121676876015968
7.337499999999998e-05,0.04376206048751971,-0.4135066512264398
7.362500000000001e-05,0.04442636415984298,-0.4151803557574937
7.387500000000005e-05,0.04342990865135807,-0.4168540602885475
7.412499999999997e-05,0.04309775681519644,-0.4175235421009691
7.437500000000001e-05,0.04442636415984298,-0.4188625057258122
7.462500000000004e-05,0.04376206048751971,-0.419197246632023
7.487499999999996e-05,0.04376206048751971,-0.4202014693506553
7.5125e-05,0.04442636415984298,-0.4212056920692876
7.537500000000003e-05,0.04442636415984298,-0.4222099147879199
7.562500000000006e-05,0.04475851599600462,-0.4238836193189738
7.587499999999999e-05,0.04509066783216625,-0.4255573238500276
7.612500000000002e-05,0.04575497150448952,-0.4262268056624492
7.637500000000005e-05,0.04575497150448952,-0.4285699920059245
7.662499999999998e-05,0.04575497150448952,-0.4305784374431892
7.687500000000001e-05,0.04608712334065116,-0.4302436965369784
7.712500000000005e-05,0.0464192751768128,-0.4325868828804538
7.737499999999997e-05,0.0464192751768128,-0.43526481013014
7.7625e-05,0.0464192751768128,-0.4342605874115077
7.787500000000004e-05,0.0464192751768128,-0.4369385146611939
7.812499999999996e-05,0.0464192751768128,-0.4396164419108801
7.837499999999999e-05,0.0464192751768128,-0.4392817010046693
7.862500000000003e-05,0.0464192751768128,-0.4416248873481447
7.887500000000006e-05,0.04708357884913607,-0.4446375555040416
7.912499999999999e-05,0.0464192751768128,-0.4436333327854093
7.937500000000002e-05,0.04741573068529771,-0.4456417782226739
7.962500000000005e-05,0.04708357884913607,-0.4496586690972032
7.987499999999998e-05,0.04708357884913607,-0.4479849645661493
8.012500000000001e-05,0.04741573068529771,-0.449993410003414
8.037500000000004e-05,0.04774788252145935,-0.4533408190655217
8.062499999999997e-05,0.0464192751768128,-0.4520018554406786
8.0875e-05,0.04708357884913607,-0.4536755599717325
8.112500000000003e-05,0.04808003435762098,-0.4570229690338402
