2020_assignments/S Kelleys Lab 6 Analog Op Amps/6 l 4 10k and 1k amp.csv

#Digilent WaveForms Oscilloscope Acquisition
#Device Name: Discovery2
#Serial Number: SN:210321AE3681
#Date Time: 2020-09-23 11:00:06.456
#Sample rate: 1.5873e+06Hz
#Samples: 8192
#Trigger: Source: Channel 1 Type: Edge Condition: Rising Level: 0 V Hyst.: Auto HoldOff: 0 s
#Channel 1: Range: 1 V/div Offset: 0 V Attenuation: 1 X
#Channel 2: Range: 1 V/div Offset: 0 V Attenuation: 1 X
#Wavegen Channel 1: Running
#Mode: Simple
#Type: Sine
#Frequency: 1 kHz
#Period: 1 ms
#Amplitude: 300 mV
#Offset: 0 V
#Symmetry: 50 %
#Phase: 0 °
#Power Supplies: ON
#Positive Supply: ON
#Voltage: 5 V
#Negative Supply: ON
#Voltage: -5 V

Time (s),Channel 1 (V),Channel 2 (V)
-0.000580545,0.1390896374659092,1.619418889646397
-0.0005799150000000003,0.1387574856297478,1.612054704986022
-0.0005792850000000001,0.1374288782851011,1.597326335665262
-0.000578655,0.1361002709404538,1.586280058674687
-0.0005780250000000002,0.1344395117596464,1.571551689353937
-0.0005773950000000001,0.1331109044149998,1.560505412363369
-0.0005767650000000004,0.1327787525788383,1.549459135372806
-0.0005761350000000002,0.1324466007426765,1.538412858382233
-0.000575505,0.1317822970703533,1.523684489061476
-0.0005748750000000003,0.1301215378895458,1.516320304401101
-0.0005742450000000001,0.1294572342172218,1.497909842750151
-0.000573615,0.1277964750364133,1.479499381099202
-0.0005729850000000002,0.1271321713640904,1.472135196438827
-0.0005723550000000001,0.1261357158556055,1.461088919448259
-0.0005717249999999999,0.1241428048386355,1.450042642457686
-0.0005710950000000002,0.123810653002474,1.438996365467123
-0.000570465,0.1228141974939891,1.424267996146366
-0.0005698350000000003,0.1218177419855046,1.416903811485991
-0.0005692050000000001,0.1204891346408576,1.402175442165231
-0.000568575,0.1194926791323723,1.394811257504847
-0.0005679450000000003,0.1184962236238878,1.383764980514284
-0.0005673150000000001,0.116503312606918,1.369036611193527
-0.0005666849999999999,0.1148425534261097,1.357990334202954
-0.0005660550000000002,0.1145104015899482,1.346944057212392
-0.000565425,0.1141782497537866,1.332215687891635
-0.0005647950000000003,0.1125174905729791,1.321169410901072
-0.0005641650000000002,0.1121853387368167,1.30644104158031
-0.000563535,0.1105245795560081,1.295394764589737
-0.0005629050000000003,0.1095281240475237,1.284348487599174
-0.0005622750000000001,0.1085316685390388,1.276984302938796
-0.0005616449999999999,0.1068709093582303,1.262255933618032
-0.0005610150000000002,0.1062066056859073,1.247527564297282
-0.000560385,0.1048779983412607,1.236481287306714
-0.0005597550000000003,0.1038815428327763,1.225435010316151
-0.0005591250000000002,0.1025529354881293,1.210706640995389
-0.000558495,0.101888631815806,1.203342456335011
-0.0005578650000000003,0.1012243281434828,1.195978271674632
-0.0005572350000000001,0.09923141712651293,1.177567810023686
-0.0005566049999999999,0.09823496161802772,1.162839440702925
-0.0005559750000000002,0.09757065794570474,1.15547525604255
-0.0005553450000000001,0.0962420506010582,1.137064794391604
-0.0005547150000000003,0.09557774692873525,1.129700609731229
-0.0005540850000000002,0.09458129142025004,1.114972240410468
-0.000553455,0.09358483591176511,1.10760805575009
-0.0005528250000000003,0.09225622856711857,1.092879686429333
-0.0005521950000000001,0.09059546938631038,1.081833409438765
-0.000551565,0.08959901387782503,1.067105040118003
-0.0005509350000000002,0.08860255836934058,1.05605876312744
-0.0005503050000000001,0.08660964735237076,1.033966209146304
-0.0005496750000000003,0.08528104000772482,1.022919932155742
-0.0005490450000000002,0.08362028082691603,1.011873655165169
-0.000548415,0.08295597715459277,1.000827378174601
-0.0005477850000000003,0.08229167348226979,0.9934631935142259
-0.0005471550000000001,0.08162736980994623,0.9787348241934655
-0.000546525,0.0796344587929755,0.9640064548727018
-0.0005458950000000002,0.0776415477760066,0.9492780855519514
-0.0005452650000000001,0.07631294043136005,0.9345497162311944
-0.0005446350000000003,0.07631294043136005,0.919821346910444
-0.0005440050000000002,0.07498433308671351,0.9124571622500588
-0.000543375,0.07365572574206697,0.901410885259491
-0.0005427450000000003,0.07332357390590548,0.8940467005991158
-0.0005421150000000001,0.07199496656125878,0.8793183312783555
-0.000541485,0.07033420738045029,0.8609078696274025
-0.0005408550000000002,0.06966990370812731,0.8461795003066521
-0.0005402250000000001,0.06834129636348077,0.8351332233160843
-0.0005395950000000004,0.06734484085499633,0.8277690386557091
-0.0005389650000000002,0.06634838534651097,0.816722761665138
-0.000538335,0.06435547432954114,0.801994392344381
-0.0005377050000000003,0.06369117065721819,0.783583930693443
-0.0005370750000000001,0.06269471514873297,0.7725376537028669
-0.000536445,0.06136610780408552,0.765173469042485
-0.0005358150000000002,0.0593731967871166,0.7578092843821098
-0.0005351850000000001,0.05904104495095497,0.7393988227311635
-0.0005345549999999999,0.05771243760630797,0.7283525457405857
-0.0005339250000000002,0.05671598209782352,0.7062599917594601
-0.000533295,0.05538737475317698,0.6915316224387031
-0.0005326650000000003,0.05372661557236955,0.6841674377783279
-0.0005320350000000001,0.05339446373620716,0.6694390684575675
-0.000531405,0.05273016006388343,0.6547106991368055
-0.0005307750000000003,0.05173370455539898,0.6436644221462426
-0.0005301450000000001,0.04974079353842916,0.6326181451556749
-0.0005295149999999999,0.04841218619378217,0.6178897758349146
-0.0005288850000000002,0.04741573068529771,0.6105255911745393
-0.000528255,0.04675142701297444,0.5957972218537823
-0.0005276250000000003,0.04509066783216701,0.5810688525330319
-0.0005269950000000002,0.04409421232368135,0.5663404832122682
-0.000526365,0.04243345314287317,0.5516121138915111
-0.0005257350000000003,0.04077269396206499,0.5405658369009434
-0.0005251050000000001,0.04010839028974172,0.5295195599103756
-0.0005244749999999999,0.03944408661741769,0.5147911905896119
-0.0005238450000000002,0.03778332743661026,0.5000628212688615
-0.0005232150000000001,0.03612256825580208,0.4890165442782937
-0.0005225850000000003,0.03545826458347912,0.477970267287731
-0.0005219550000000002,0.0344618090749939,0.4669239902971581
-0.000521325,0.03280104989418572,0.4485135286462118
-0.0005206950000000003,0.03180459438570081,0.4411493439858333
-0.0005200650000000001,0.03080813887721591,0.4337851593254547
-0.0005194349999999999,0.02981168336873054,0.419056790004691
-0.0005188050000000002,0.02881522786024609,0.4043284206839406
-0.0005181750000000001,0.02715446867943791,0.3896000513631836
-0.0005175450000000003,0.02615801317095345,0.3748716820424333
-0.0005169150000000002,0.02549370949862973,0.3638254050518588
-0.000516285,0.02516155766246809,0.3564612203914803
-0.0005156550000000003,0.0228364948093377,0.3417328510707299
-0.0005150250000000001,0.02117573562852846,0.3233223894197769
-0.000514395,0.01984712828388116,0.3085940200990165
-0.0005137650000000002,0.01818636910307373,0.3012298354386413
-0.0005131350000000001,0.01818636910307373,0.2865014661178843
-0.0005125050000000003,0.01718991359458928,0.2791372814575091
-0.0005118750000000002,0.01552915441378065,0.2644089121367487
-0.000511245,0.01386839523297247,0.2459984504858024
-0.0005106150000000003,0.01253978788832653,0.2349521734952396
-0.0005099850000000001,0.01121118054367938,0.2239058965046668
-0.000509355,0.01054687687135565,0.2054954348537138
-0.0005087250000000002,0.009550421362871197,0.1907670655329635
-0.0005080950000000001,0.007889662182063016,0.1797207885423957
-0.0005074650000000003,0.006561054837417077,0.1613103268914578
-0.0005068350000000002,0.0058967511650932,0.1502640499008816
-0.000506205,0.004900295656608292,0.1392177729103138
-0.0005055750000000003,0.003571688311962352,0.1244894035895635
-0.0005049450000000001,0.002243080967315203,0.113443126598989
-0.000504315,0.0009144736226682062,0.1023968496084145
-0.0005036850000000002,-8.198188581624887e-05,0.08766848028766414
-0.0005030550000000001,-0.001742741066624429,0.07662220329709636
-0.0005024249999999999,-0.002739196575109942,0.06189383397633094
-0.0005017950000000002,-0.004067803919755882,0.043483372325393
-0.000501165,-0.004399955755917517,0.03243709533482522
-0.0005005350000000003,-0.005396411264401973,0.02139081834426245
-0.0004999050000000001,-0.00672501860904897,0.01034454135368964
-0.000499275,-0.008053625953695817,-0.004383827967072427
-0.0004986450000000003,-0.008717929626018786,-0.01543010495763519
-0.0004980150000000001,-0.0107108406429886,-0.02647638194820297
-0.0004973849999999999,-0.01203944798763545,-0.04120475126896505
-0.0004967550000000002,-0.01270375165995842,-0.05225102825952781
-0.000496125,-0.01403235900460496,-0.07066148991047412
-0.0004954950000000003,-0.01502881451308942,-0.08170776690103689
-0.0004948650000000001,-0.01702172553005969,-0.08907195156142042
-0.000494235,-0.01868248471086832,-0.1074824132123734
-0.0004936050000000003,-0.01967894021935278,-0.1222107825331238
-0.0004929750000000001,-0.02001109205551441,-0.1369391518538808
-0.0004923449999999999,-0.02067539572783844,-0.1516675211746412
-0.0004917150000000002,-0.02233615490864586,-0.1590317058350164
-0.000491085,-0.02399691408945405,-0.1700779828255842
-0.0004904550000000003,-0.02466121776177702,-0.1884884444765221
-0.0004898250000000002,-0.0263219769425855,-0.1995347214670983
-0.000489195,-0.02765058428723204,-0.2179451831180446
-0.0004885650000000003,-0.02931134346804022,-0.2289914601086124
-0.0004879350000000001,-0.03063995081268677,-0.2474019217595587
-0.0004873049999999999,-0.03130425448501064,-0.262130291080319
-0.0004866750000000002,-0.03263286182965659,-0.2694944757406942
-0.0004860450000000001,-0.03329716550197986,-0.2879049373916406
-0.0004854150000000003,-0.03429362101046431,-0.3026333067123909
-0.0004847850000000002,-0.03562222835511131,-0.3063153990425869
-0.000484155,-0.03695083569975785,-0.3210437683633439
-0.0004835250000000003,-0.03827944304440439,-0.335772137684101
-0.0004828950000000001,-0.03960805038905094,-0.3468184146746688
-0.000482265,-0.04093665773369764,-0.3615467839954325
-0.0004816350000000002,-0.04126880956985912,-0.3762751533161828
-0.0004810050000000001,-0.04259741691450566,-0.3836393379765614
-0.0004803750000000003,-0.0439260242591516,-0.3983677072973117
-0.0004797450000000002,-0.04492247976763711,-0.4130960766180755
-0.000479115,-0.0465832389484453,-0.4241423536086433
-0.0004784850000000003,-0.04824399812925272,-0.4388707229293936
-0.0004778550000000001,-0.04890830180157675,-0.4535990922501574
-0.000477225,-0.04957260547390047,-0.4609632769105426
-0.0004765950000000002,-0.05056906098238493,-0.4756916462312929
-0.0004759650000000001,-0.05222982016319311,-0.4867379232218607
-0.0004753350000000003,-0.05322627567167757,-0.5014662925426111
-0.0004747050000000002,-0.0548870348524862,-0.5161946618633748
-0.000474075,-0.05588349036097111,-0.5309230311841319
-0.0004734450000000003,-0.05654779403329407,-0.5419693081746947
-0.0004728150000000001,-0.05787640137794092,-0.5530155851652674
-0.000472185,-0.05953716055874955,-0.5640618621558419
-0.0004715550000000002,-0.06053361606723402,-0.5787902314765923
-0.0004709250000000001,-0.06252652708420384,-0.5935186007973493
-0.0004702950000000003,-0.06319083075652679,-0.6045648777879121
-0.0004696650000000002,-0.06352298259268874,-0.6192932471086742
-0.000469035,-0.06451943810117364,-0.6303395240992419
-0.0004684050000000003,-0.06684450095430405,-0.6450678934199923
-0.0004677750000000001,-0.06784095646279001,-0.6561141704105667
-0.000467145,-0.06916956380743686,-0.6708425397313305
-0.0004665150000000002,-0.06983386747975981,-0.6855709090520808
-0.0004658850000000001,-0.07116247482440638,-0.7039813707030271
-0.0004652549999999999,-0.07215893033289189,-0.7150276476935983
-0.0004646250000000002,-0.07348753767753782,-0.7223918323539734
-0.000463995,-0.07381968951369947,-0.7371202016747305
-0.0004633650000000003,-0.0751482968583454,-0.7481664786652933
-0.0004627350000000001,-0.07647690420299255,-0.7592127556558661
-0.000462105,-0.07714120787531656,-0.7702590326464422
-0.0004614750000000003,-0.07880196705612399,-0.7886694942973802
-0.0004608450000000001,-0.08046272623693218,-0.7960336789577587
-0.0004602149999999999,-0.08212348541774067,-0.8033978636181439
-0.0004595850000000002,-0.08278778909006362,-0.8181262329388943
-0.000458955,-0.08311994092622527,-0.8254904175992728
-0.0004583250000000003,-0.0844485482708712,-0.8402187869200232
-0.0004576950000000002,-0.08577715561551835,-0.8549471562407869
-0.000457065,-0.08677361112400325,-0.8659934332313547
-0.0004564350000000003,-0.08777006663248818,-0.884403894882301
-0.0004558050000000001,-0.08976297764945798,-0.8954501718728688
-0.0004551749999999999,-0.09075943315794349,-0.9028143565332523
-0.0004545450000000002,-0.09208804050258945,-0.9138606335238151
-0.000453915,-0.093416647847236,-0.9285890028445721
-0.0004532850000000003,-0.09441310335572044,-0.9469994644955101
-0.0004526550000000002,-0.09507740702804415,-0.9654099261464647
-0.000452025,-0.09673816620885234,-0.9764562031370325
-0.0004513950000000003,-0.09740246988117562,-0.9911845724577896
-0.0004507650000000001,-0.09873107722582217,-1.002230849448357
-0.0004501349999999999,-0.1000596845704689,-1.005912941778555
-0.0004495050000000002,-0.1003918364066304,-1.024323403429493
-0.0004488750000000001,-0.1010561400789536,-1.03905177275025
-0.0004482450000000003,-0.1020525955874381,-1.053780142071
-0.0004476150000000002,-0.1040455066044083,-1.064826419061575
-0.000446985,-0.1053741139490549,-1.075872696052143
-0.0004463550000000003,-0.1063705694575393,-1.083236880712518
-0.0004457250000000001,-0.108031328638348,-1.101647342363467
-0.000445095,-0.1090277841468333,-1.112693619354042
-0.0004444650000000002,-0.1100242396553178,-1.127421988674792
-0.0004438350000000001,-0.1106885433276411,-1.13846826566536
-0.0004432050000000003,-0.1123493025084485,-1.149514542655923
-0.0004425750000000002,-0.1133457580169341,-1.164242911976685
-0.000441945,-0.1140100616892574,-1.175289188967253
-0.0004413150000000003,-0.1146743653615804,-1.186335465957815
-0.0004406850000000001,-0.1163351245423889,-1.201063835278577
-0.000440055,-0.117663731887036,-1.215792204599338
-0.0004394250000000002,-0.118992339231682,-1.223156389259713
-0.0004387950000000001,-0.1199887947401669,-1.234202666250281
-0.0004381650000000003,-0.1206530984124898,-1.248931035571031
-0.0004375350000000002,-0.121649553920975,-1.256295220231416
-0.000436905,-0.12264600942946,-1.271023589552174
-0.0004362750000000003,-0.1243067686102674,-1.285751958872924
-0.0004356450000000001,-0.1256353759549147,-1.296798235863498
-0.000435015,-0.1266318314633999,-1.31152660518426
-0.0004343850000000002,-0.1272961351357229,-1.322572882174823
-0.0004337550000000001,-0.1282925906442078,-1.33730125149558
-0.0004331249999999999,-0.1289568943165312,-1.344665436155962
-0.0004324950000000002,-0.1292890461526927,-1.352029620816337
-0.000431865,-0.1306176534973392,-1.370440082467284
-0.0004312350000000003,-0.1322784126781467,-1.377804267127659
-0.0004306050000000001,-0.1339391718589556,-1.392532636448419
-0.000429975,-0.1352677792036026,-1.399896821108804
-0.0004293450000000002,-0.136264234712087,-1.414625190429555
-0.0004287150000000001,-0.1369285383844103,-1.425671467420123
-0.0004280849999999999,-0.1379249938928957,-1.444081929071072
-0.0004274550000000002,-0.1389214494013801,-1.451446113731447
-0.000426825,-0.139917904909865,-1.462492390722015
-0.0004261950000000003,-0.140582208582188,-1.473538667712578
-0.0004255650000000001,-0.14091436041835,-1.484584944703151
-0.000424935,-0.1432394232714821,-1.491949129363536
-0.0004243050000000003,-0.1449001824522896,-1.506677498684286
-0.0004236750000000001,-0.1458966379607745,-1.514041683344665
-0.0004230449999999999,-0.1462287897969366,-1.525087960335239
-0.0004224150000000002,-0.147225245305421,-1.53981632965599
-0.000421785,-0.1485538526500676,-1.547180514316368
-0.0004211550000000003,-0.150214611830875,-1.561908883637118
-0.0004205250000000002,-0.1512110673393607,-1.576637252957882
-0.000419895,-0.1518753710116839,-1.591365622278639
-0.0004192650000000003,-0.1528718265201688,-1.602411899269207
-0.0004186350000000001,-0.1542004338648154,-1.609776083929586
-0.0004180049999999999,-0.154864737537139,-1.624504453250349
-0.0004173750000000002,-0.1555290412094619,-1.6392328225711
-0.000416745,-0.1571898003902701,-1.650279099561667
-0.0004161150000000003,-0.1578541040625931,-1.66132537655223
-0.0004154850000000002,-0.1591827114072399,-1.672371653542803
-0.000414855,-0.1605113187518865,-1.679735838203182
-0.0004142250000000003,-0.1615077742603714,-1.690782115193749
-0.0004135950000000001,-0.1621720779326946,-1.705510484514506
-0.0004129649999999999,-0.1628363816050181,-1.716556761505081
-0.0004123350000000002,-0.1631685334411796,-1.731285130825831
-0.0004117050000000001,-0.1641649889496645,-1.73864931548621
-0.0004110750000000003,-0.1658257481304719,-1.749695592476773
-0.0004104450000000002,-0.1668222036389576,-1.757059777137156
-0.000409815,-0.1671543554751192,-1.768106054127724
-0.0004091850000000003,-0.1684829628197651,-1.779152331118286
-0.0004085550000000001,-0.1698115701644123,-1.790198608108859
-0.000407925,-0.1708080256728975,-1.797562792769245
-0.0004072950000000002,-0.1714723293452205,-1.812291162089995
-0.0004066650000000001,-0.1734652403621903,-1.823337439080563
-0.0004060350000000003,-0.1737973921983518,-1.838065808401313
-0.0004054050000000002,-0.1741295440345136,-1.845429993061698
-0.000404775,-0.1757903032153217,-1.852794177722077
-0.0004041450000000003,-0.1764546068876447,-1.863840454712639
-0.0004035150000000001,-0.1774510623961299,-1.878568824033402
-0.000402885,-0.1787796697407772,-1.885933008693784
-0.0004022550000000002,-0.1804404289215846,-1.893297193354159
-0.0004016250000000001,-0.180108277085423,-1.908025562674916
-0.0004009950000000003,-0.1804404289215845,-1.922753931995666
-0.0004003650000000002,-0.1824333399385545,-1.933800208986241
-0.000399735,-0.1834297954470394,-1.948528578306998
-0.0003991050000000003,-0.1850905546278468,-1.95957485529756
-0.0003984750000000001,-0.1857548583001708,-1.966939039957944
-0.000397845,-0.1864191619724945,-1.981667409278706
-0.0003972150000000002,-0.187415617480979,-1.992713686269269
-0.0003965850000000001,-0.1884120729894639,-1.996395778599458
-0.0003959549999999999,-0.1894085284979488,-2.00375996325984
-0.0003953250000000002,-0.1894085284979488,-2.011124147920215
-0.000394695,-0.1917335913510803,-2.029534609571161
-0.0003940650000000003,-0.1923978950234032,-2.036898794231536
-0.0003934350000000001,-0.1933943505318884,-2.044262978891918
-0.000392805,-0.1940586542042122,-2.055309255882491
-0.0003921750000000002,-0.1950551097126966,-2.066355532873054
-0.0003915450000000001,-0.1957194133850199,-2.081083902193811
-0.0003909149999999999,-0.1967158688935053,-2.095812271514571
-0.0003902850000000002,-0.1977123244019897,-2.103176456174947
-0.000389655,-0.1987087799104746,-2.110540640835326
-0.0003890250000000003,-0.1987087799104746,-2.1179048254957
-0.0003883950000000001,-0.2003695390912828,-2.125269010156082
-0.000387765,-0.2016981464359296,-2.136315287146657
-0.0003871350000000003,-0.2023624501082526,-2.151043656467407
-0.0003865050000000001,-0.2033589056167375,-2.162089933457975
-0.0003858749999999999,-0.2043553611252226,-2.173136210448547
-0.0003852450000000002,-0.2046875129613841,-2.18418248743911
-0.000384615,-0.2053518166337074,-2.195228764429678
-0.0003839850000000003,-0.2070125758145148,-2.206275041420241
-0.0003833550000000002,-0.2070125758145155,-2.213639226080624
-0.000382725,-0.2090054868314853,-2.217321318410813
-0.0003820950000000003,-0.2096697905038086,-2.232049687731571
-0.0003814650000000001,-0.2106662460122935,-2.246778057052328
-0.0003808349999999999,-0.210998397848455,-2.254142241712711
-0.0003802050000000002,-0.2106662460122935,-2.265188518703274
-0.0003795750000000001,-0.2123270051931017,-2.272552703363653
-0.0003789450000000003,-0.2136556125377476,-2.279916888024028
-0.0003783150000000002,-0.2153163717185564,-2.298327349674977
-0.000377685,-0.2153163717185564,-2.302009442005167
