2020_assignments/S Kelleys Lab 6 Analog Op Amps/6 l 3 closed loop follower.csv

#Digilent WaveForms Oscilloscope Acquisition
#Device Name: Discovery2
#Serial Number: SN:210321AE3681
#Date Time: 2020-09-21 11:17:14.914
#Sample rate: 1.5873e+06Hz
#Samples: 8192
#Trigger: Source: Channel 1 Type: Edge Condition: Rising Level: 0 V Hyst.: Auto HoldOff: 0 s
#Channel 1: Range: 1 V/div Offset: 0 V Attenuation: 1 X
#Channel 2: Range: 1 V/div Offset: 0 V Attenuation: 1 X
#Wavegen Channel 1: Running
#Mode: Simple
#Type: Sine
#Frequency: 1 kHz
#Period: 1 ms
#Amplitude: 1 V
#Offset: 0 V
#Symmetry: 50 %
#Phase: 0 °
#Power Supplies: ON
#Positive Supply: ON
#Voltage: 5 V
#Negative Supply: ON
#Voltage: -5 V

Time (s),Channel 1 (V),Channel 2 (V)
-0.00182007,0.9004325430018716,0.8977287929293017
-0.00181944,0.9040829074339417,0.9014108852594893
-0.00181881,0.9040829074339434,0.9050929775896803
-0.00181818,0.9040829074339467,0.9087750699198696
-0.00181755,0.9113836362980872,0.9087750699198696
-0.00181692,0.9113836362980872,0.9087750699198696
-0.00181629,0.9077332718660169,0.9087750699198696
-0.00181566,0.9150340007301589,0.9087750699198696
-0.00181503,0.9186843651622308,0.9087750699198696
-0.0018144,0.9150340007301606,0.9161392545802447
-0.00181377,0.9150340007301589,0.9124571622500588
-0.00181314,0.9150340007301606,0.9198213469104374
-0.00181251,0.9186843651622308,0.9198213469104374
-0.00181188,0.9186843651622308,0.9235034392406266
-0.00181125,0.9186843651622342,0.9235034392406266
-0.00181062,0.9259850940263745,0.9235034392406266
-0.00180999,0.9296354584584464,0.9308676239010051
-0.00180936,0.9259850940263762,0.9271855315708175
-0.00180873,0.9332858228905182,0.9271855315708158
-0.0018081,0.9259850940263779,0.9271855315708175
-0.00180747,0.9332858228905182,0.9308676239010051
-0.00180684,0.940586551754662,0.9308676239010051
-0.00180621,0.9369361873225901,0.9345497162311944
-0.00180558,0.9369361873225901,0.9345497162311944
-0.00180495,0.9369361873225901,0.9382318085613837
-0.00180432,0.9369361873225901,0.9419139008915712
-0.00180369,0.9442369161867338,0.9455959932217621
-0.00180306,0.9442369161867371,0.9419139008915729
-0.00180243,0.9515376450508775,0.9419139008915729
-0.0018018,0.9478872806188057,0.9419139008915729
-0.00180117,0.947887280618804,0.9492780855519514
-0.00180054,0.9442369161867338,0.9492780855519514
-0.00179991,0.9551880094829494,0.9492780855519514
-0.00179928,0.9515376450508791,0.9455959932217638
-0.00179865,0.9515376450508775,0.9492780855519514
-0.00179802,0.9478872806188057,0.9492780855519514
-0.00179739,0.9478872806188057,0.9492780855519514
-0.00179676,0.9551880094829494,0.9529601778821407
-0.00179613,0.9515376450508791,0.9492780855519564
-0.0017955,0.9551880094829494,0.9603243625425192
-0.00179487,0.9515376450508775,0.9640064548727084
-0.00179424,0.962488738347088,0.9640064548727084
-0.00179361,0.962488738347093,0.9603243625425192
-0.00179298,0.9588383739150212,0.9603243625425192
-0.00179235,0.9588383739150212,0.9603243625425192
-0.00179172,0.962488738347093,0.9640064548727084
-0.00179109,0.9624887383470947,0.9676885472028961
-0.00179046,0.9661391027791649,0.9640064548727084
-0.00178983,0.9661391027791649,0.9640064548727084
-0.0017892,0.9697894672112352,0.9603243625425208
-0.00178857,0.9734398316433086,0.9603243625425192
-0.00178794,0.9734398316433086,0.9676885472028978
-0.00178731,0.9770901960753788,0.9676885472028978
-0.00178668,0.9734398316433086,0.9640064548727084
-0.00178605,0.9734398316433086,0.9676885472029011
-0.00178542,0.9734398316433086,0.9750527318632762
-0.00178479,0.9734398316433086,0.971370639533087
-0.00178416,0.9734398316433086,0.971370639533087
-0.00178353,0.9770901960753805,0.9750527318632762
-0.0017829,0.9843909249395242,0.971370639533087
-0.00178227,0.9770901960753838,0.9750527318632746
-0.00178164,0.9770901960753805,0.9750527318632762
-0.00178101,0.9770901960753788,0.9824169165236515
-0.00178038,0.9734398316433086,0.9750527318632762
-0.00177975,0.9770901960753805,0.9750527318632762
-0.00177912,0.9770901960753805,0.9750527318632762
-0.00177849,0.9770901960753805,0.9750527318632762
-0.00177786,0.9734398316433086,0.9787348241934655
-0.00177723,0.9843909249395192,0.9787348241934655
-0.0017766,0.9880412893715961,0.9787348241934655
-0.00177597,0.9880412893715944,0.9824169165236581
-0.00177534,0.9843909249395242,0.9897811011840333
-0.00177471,0.9843909249395242,0.9860990088538441
-0.00177408,0.9880412893715961,0.9860990088538441
-0.00177345,0.9880412893715961,0.9860990088538441
-0.00177282,0.9843909249395242,0.9860990088538441
-0.00177219,0.980740560507454,0.9897811011840316
-0.00177156,0.9807405605074523,0.9897811011840333
-0.00177093,0.9880412893715994,0.9860990088538441
-0.0017703,0.9953420182357398,0.9860990088538441
-0.00176967,0.9989923826678115,0.9897811011840333
-0.00176904,0.9916916538036679,0.9897811011840316
-0.00176841,0.9916916538036679,0.9860990088538441
-0.00176778,0.9916916538036679,0.9860990088538441
-0.00176715,0.9880412893715977,0.9897811011840316
-0.00176652,0.9880412893715961,0.9897811011840333
-0.00176589,0.9880412893715961,0.9860990088538441
-0.00176526,0.9880412893715961,0.9897811011840333
-0.00176463,0.9916916538036679,0.9897811011840333
-0.001764,0.9916916538036645,0.9934631935142209
-0.00176337,0.9843909249395242,0.9897811011840333
-0.00176274,0.9807405605074523,0.9897811011840333
-0.00176211,0.9880412893715927,0.9897811011840333
-0.00176148,0.9916916538036679,0.9934631935142225
-0.00176085,0.9916916538036679,0.9934631935142225
-0.00176022,0.9916916538036679,0.9934631935142225
-0.00175959,0.9916916538036679,0.9934631935142225
-0.00175896,0.9953420182357398,0.9934631935142225
-0.00175833,0.9953420182357398,0.9934631935142225
-0.0017577,0.9953420182357398,0.9971452858444119
-0.00175707,0.9953420182357398,0.9934631935142242
-0.00175644,0.9989923826678115,0.9897811011840333
-0.00175581,0.9989923826678115,0.9897811011840333
-0.00175518,1.002642747099882,0.9897811011840333
-0.00175455,1.002642747099884,0.9934631935142225
-0.00175392,0.9989923826678099,0.9934631935142225
-0.00175329,0.9953420182357398,0.9934631935142225
-0.00175266,0.9989923826678115,0.9971452858444119
-0.00175203,0.9989923826678115,0.9971452858444119
-0.0017514,0.9953420182357398,0.9971452858444119
-0.00175077,0.9916916538036679,0.9971452858444119
-0.00175014,0.9953420182357381,0.9934631935142242
-0.00174951,0.9953420182357398,0.9934631935142225
-0.00174888,0.9989923826678115,0.9971452858444085
-0.00174825,0.9989923826678115,0.9897811011840333
-0.00174762,1.002642747099884,0.9897811011840333
-0.00174699,0.9989923826678132,0.9860990088538457
-0.00174636,0.9953420182357398,0.9897811011840333
-0.00174573,0.9916916538036679,0.9934631935142225
-0.0017451,0.9916916538036679,0.9971452858444102
-0.00174447,0.9989923826678115,0.9971452858444119
-0.00174384,0.9953420182357381,0.9971452858444102
-0.00174321,0.9916916538036679,0.9934631935142225
-0.00174258,0.9953420182357398,0.9934631935142225
-0.00174195,0.9989923826678099,0.9897811011840333
-0.00174132,0.9953420182357398,0.9897811011840333
-0.00174069,0.9916916538036679,0.9934631935142225
-0.00174006,0.9916916538036679,0.9934631935142225
-0.00173943,0.9880412893715961,0.9934631935142225
-0.0017388,0.9916916538036679,0.9934631935142209
-0.00173817,0.9916916538036679,0.9897811011840333
-0.00173754,0.9916916538036679,0.9860990088538441
-0.00173691,0.9953420182357398,0.989781101184035
-0.00173628,0.9953420182357398,0.9934631935142225
-0.00173565,0.9880412893715961,0.9897811011840333
-0.00173502,0.9880412893715961,0.9934631935142209
-0.00173439,0.9880412893715961,0.9897811011840333
-0.00173376,0.9843909249395258,0.9824169165236565
-0.00173313,0.9880412893715961,0.9860990088538441
-0.0017325,0.9916916538036679,0.9860990088538441
-0.00173187,0.9916916538036645,0.9860990088538441
-0.00173124,0.9843909249395242,0.9860990088538441
-0.00173061,0.9843909249395242,0.9934631935142225
-0.00172998,0.9843909249395242,0.989781101184035
-0.00172935,0.9843909249395242,0.9860990088538441
-0.00172872,0.9807405605074523,0.9860990088538441
-0.00172809,0.9916916538036679,0.9860990088538441
-0.00172746,0.9880412893715961,0.9824169165236548
-0.00172683,0.9880412893715961,0.9824169165236565
-0.0017262,0.9880412893715961,0.9860990088538441
-0.00172557,0.9843909249395242,0.9824169165236548
-0.00172494,0.980740560507454,0.9824169165236548
-0.00172431,0.9807405605074523,0.9750527318632762
-0.00172368,0.9843909249395242,0.9787348241934655
-0.00172305,0.9770901960753805,0.9824169165236548
-0.00172242,0.9770901960753805,0.9750527318632762
-0.00172179,0.9770901960753788,0.9750527318632762
-0.00172116,0.9734398316433086,0.9750527318632762
-0.00172053,0.9734398316433086,0.9787348241934655
-0.0017199,0.9734398316433086,0.9750527318632779
-0.00171927,0.9734398316433086,0.971370639533087
-0.00171864,0.9770901960753805,0.971370639533087
-0.00171801,0.9770901960753805,0.9750527318632746
-0.00171738,0.9770901960753805,0.971370639533087
-0.00171675,0.9661391027791649,0.9676885472028961
-0.00171612,0.9661391027791649,0.9640064548727084
-0.00171549,0.9697894672112368,0.9676885472028978
-0.00171486,0.9697894672112368,0.9676885472028978
-0.00171423,0.9697894672112368,0.9676885472028978
-0.0017136,0.9661391027791649,0.9640064548727084
-0.00171297,0.9661391027791649,0.9676885472028961
-0.00171234,0.9661391027791649,0.9676885472028978
-0.00171171,0.962488738347093,0.9676885472028961
-0.00171108,0.962488738347093,0.9640064548727084
-0.00171045,0.9588383739150212,0.9640064548727084
-0.00170982,0.955188009482951,0.9566422702123333
-0.00170919,0.9588383739150212,0.9640064548727084
-0.00170856,0.9588383739150212,0.9603243625425192
-0.00170793,0.9588383739150212,0.9603243625425192
-0.0017073,0.9551880094829494,0.9603243625425192
-0.00170667,0.9551880094829494,0.9603243625425192
-0.00170604,0.9551880094829494,0.9603243625425192
-0.00170541,0.9551880094829494,0.9603243625425192
-0.00170478,0.9478872806188057,0.9529601778821407
-0.00170415,0.9478872806188057,0.9529601778821407
-0.00170352,0.9515376450508775,0.9529601778821407
-0.00170289,0.9478872806188073,0.949278085551953
-0.00170226,0.9478872806188057,0.9529601778821407
-0.00170163,0.9478872806188057,0.9492780855519497
-0.001701,0.9478872806188057,0.9455959932217621
-0.00170037,0.9478872806188057,0.9492780855519514
-0.00169974,0.9442369161867338,0.9455959932217621
-0.00169911,0.9442369161867338,0.9455959932217621
-0.00169848,0.9442369161867338,0.9382318085613837
-0.00169785,0.9405865517546637,0.9382318085613837
-0.00169722,0.9442369161867338,0.9345497162311944
-0.00169659,0.9442369161867338,0.9345497162311944
-0.00169596,0.9369361873225901,0.9345497162311944
-0.00169533,0.9296354584584464,0.9345497162311944
-0.0016947,0.9332858228905182,0.9345497162311928
-0.00169407,0.9332858228905182,0.9308676239010051
-0.00169344,0.9296354584584464,0.9308676239010051
-0.00169281,0.9296354584584464,0.9308676239010051
-0.00169218,0.9296354584584464,0.9271855315708158
-0.00169155,0.9296354584584464,0.9198213469104374
-0.00169092,0.9259850940263745,0.916139254580248
-0.00169029,0.9223347295943027,0.916139254580248
-0.00168966,0.9259850940263729,0.9161392545802514
-0.00168903,0.9223347295943027,0.9235034392406266
-0.0016884,0.9223347295943027,0.9235034392406266
-0.00168777,0.9186843651622325,0.919821346910439
-0.00168714,0.9113836362980872,0.916139254580248
-0.00168651,0.9113836362980872,0.916139254580248
-0.00168588,0.9150340007301573,0.916139254580248
-0.00168525,0.9077332718660153,0.9124571622500588
-0.00168462,0.9040829074339484,0.9087750699198696
-0.00168399,0.9150340007301589,0.9087750699198696
-0.00168336,0.9113836362980872,0.9087750699198696
-0.00168273,0.9077332718660169,0.9087750699198696
-0.0016821,0.9004325430018716,0.901410885259491
-0.00168147,0.9004325430018716,0.8977287929293017
-0.00168084,0.9004325430018716,0.9014108852594893
-0.00168021,0.9004325430018716,0.901410885259491
-0.00167958,0.8967821785697997,0.9014108852594876
-0.00167895,0.8967821785697997,0.8940467005991125
-0.00167832,0.8967821785697997,0.8940467005991125
-0.00167769,0.8967821785697997,0.8903646082689249
-0.00167706,0.8931318141377279,0.8903646082689233
-0.00167643,0.889481449705656,0.8903646082689233
-0.0016758,0.889481449705656,0.8903646082689233
-0.00167517,0.8858310852735841,0.8866825159387339
-0.00167454,0.8821807208415107,0.8903646082689183
-0.00167391,0.8785303564094404,0.8793183312783555
-0.00167328,0.8712296275452968,0.8793183312783555
-0.00167265,0.8748799919773703,0.8756362389481629
-0.00167202,0.8785303564094404,0.8682720542877876
-0.00167139,0.8785303564094404,0.8609078696274092
-0.00167076,0.8748799919773703,0.8645899619575967
-0.00167013,0.8748799919773687,0.8719541466179769
-0.0016695,0.8712296275452951,0.868272054287786
-0.00166887,0.8675792631132249,0.8645899619575984
-0.00166824,0.8639288986811531,0.8645899619575984
-0.00166761,0.8566281698170093,0.8572257772972215
-0.00166698,0.8566281698170093,0.8609078696274092
-0.00166635,0.8566281698170093,0.8609078696274092
-0.00166572,0.8566281698170093,0.8609078696274092
-0.00166509,0.8566281698170093,0.8535436849670306
-0.00166446,0.8566281698170076,0.8535436849670289
-0.00166383,0.8529778053849375,0.8498615926368414
-0.0016632,0.8529778053849375,0.8461795003066521
-0.00166257,0.8456770765207922,0.8461795003066538
-0.00166194,0.8420267120887219,0.8498615926368414
-0.00166131,0.83837634765665,0.8424974079764628
-0.00166068,0.8347259832245799,0.8388153156462752
-0.00166005,0.8347259832245782,0.8388153156462735
-0.00165942,0.8347259832245782,0.8388153156462735
-0.00165879,0.83837634765665,0.8388153156462735
-0.00165816,0.8347259832245782,0.8314511309858951
-0.00165753,0.8310756187925064,0.8240869463255148
-0.0016569,0.8310756187925064,0.8204048539953273
-0.00165627,0.8237748899283627,0.8204048539953273
-0.00165564,0.8237748899283627,0.8240869463255148
-0.00165501,0.8201245254962908,0.816722761665138
-0.00165438,0.816474161064219,0.816722761665138
-0.00165375,0.8201245254962908,0.8130406693349488
-0.00165312,0.8128237966321471,0.8093585770047594
-0.00165249,0.8164741610642173,0.8056764846745702
-0.00165186,0.8128237966321471,0.8056764846745702
-0.00165123,0.8091734322000752,0.8056764846745702
-0.0016506,0.8018727033359349,0.8019943923443826
-0.00164997,0.7982223389038597,0.801994392344381
-0.00164934,0.8055230677680034,0.7983123000141917
-0.00164871,0.7982223389038631,0.7983123000141917
-0.00164808,0.7872712456076442,0.7909481153538132
-0.00164745,0.7909216100397143,0.7909481153538132
-0.00164682,0.7872712456076442,0.7909481153538132
-0.00164619,0.7872712456076442,0.7909481153538132
-0.00164556,0.7836208811755739,0.783583930693438
-0.00164493,0.7836208811755723,0.7799018383632453
-0.0016443,0.7836208811755723,0.7725376537028669
-0.00164367,0.779970516743502,0.7725376537028669
-0.00164304,0.7726697878793567,0.7725376537028669
-0.00164241,0.772669787879355,0.7762197460330544
-0.00164178,0.7690194234472849,0.7725376537028669
-0.00164115,0.7617186945831411,0.7651734690424883
-0.00164052,0.7653690590152114,0.7578092843821131
-0.00163989,0.765369059015213,0.7578092843821098
-0.00163926,0.765369059015213,0.7578092843821098
-0.00163863,0.7580683301510727,0.7578092843821098
-0.001638,0.7544179657189974,0.7578092843821098
-0.00163737,0.7544179657189958,0.7541271920519206
-0.00163674,0.7507676012869257,0.7541271920519206
-0.00163611,0.7471172368548538,0.7541271920519206
-0.00163548,0.7434668724227819,0.7467630073915403
-0.00163485,0.7434668724227819,0.7430809150613528
-0.00163422,0.7398165079907101,0.7393988227311635
-0.00163359,0.7398165079907101,0.7393988227311635
-0.00163296,0.7361661435586382,0.7357167304009742
-0.00163233,0.7288654146944928,0.7320346380707833
-0.0016317,0.7252150502624226,0.7283525457405957
-0.00163107,0.7252150502624226,0.7209883610802171
-0.00163044,0.7179143213982806,0.7209883610802155
-0.00162981,0.7215646858303508,0.7173062687500279
-0.00162918,0.7179143213982789,0.7099420840896494
-0.00162855,0.7142639569662087,0.7099420840896494
-0.00162792,0.7069632281020634,0.7136241764198387
-0.00162729,0.7069632281020617,0.7136241764198337
-0.00162666,0.7033128636699915,0.7025778994292708
-0.00162603,0.6996624992379197,0.6952137147688924
-0.0016254,0.6960121348058494,0.695213714768894
-0.00162477,0.6996624992379197,0.6988958070990816
-0.00162414,0.6960121348058478,0.6988958070990816
-0.00162351,0.6923617703737777,0.695213714768894
-0.00162288,0.6887114059417041,0.6952137147688924
-0.00162225,0.6887114059417041,0.6878495301085138
-0.00162162,0.6850610415096322,0.6804853454481353
-0.00162099,0.6814106770775604,0.6768032531179461
-0.00162036,0.6777603126454869,0.6731211607877567
-0.00161973,0.6741099482134167,0.6731211607877567
-0.0016191,0.6704595837813448,0.6694390684575675
-0.00161847,0.6668092193492746,0.6657569761273799
-0.00161784,0.666809219349273,0.662074883797189
-0.00161721,0.6595084904851293,0.6583927914669997
-0.00161658,0.6595084904851293,0.6547106991368121
-0.00161595,0.6631588549172012,0.6547106991368105
-0.00161532,0.6558581260530557,0.6547106991368121
-0.00161469,0.6522077616209856,0.6583927914669997
-0.00161406,0.6449070327568419,0.6436644221462426
-0.00161343,0.6449070327568419,0.6436644221462426
-0.0016128,0.64125666832477,0.6399823298160534
-0.00161217,0.64125666832477,0.6399823298160534
-0.00161154,0.6339559394606297,0.6326181451556783
-0.00161091,0.6303055750285544,0.6326181451556749
-0.00161028,0.6230048461644141,0.6252539604952964
-0.00160965,0.6303055750285544,0.6252539604952964
-0.00160902,0.6230048461644108,0.6215718681651071
-0.00160839,0.6157041173002704,0.6215718681651071
-0.00160776,0.6120537528681952,0.6252539604952964
-0.00160713,0.6120537528681952,0.6178897758349179
-0.0016065,0.608403388436125,0.6142076835047302
-0.00160587,0.6084033884361233,0.6105255911745393
-0.00160524,0.6011026595719779,0.6068434988443484
-0.00160461,0.5974522951399078,0.6031614065141608
-0.00160398,0.5938019307078359,0.6031614065141608
-0.00160335,0.5974522951399062,0.5957972218537789
-0.00160272,0.5938019307078359,0.5884330371934038
-0.00160209,0.590151566275764,0.5810688525330252
-0.00160146,0.5865012018436939,0.5773867602028376
-0.00160083,0.5865012018436923,0.5810688525330252
-0.0016002,0.5865012018436889,0.5810688525330252
-0.00159957,0.5792004729795486,0.5810688525330252
-0.00159894,0.5718997441154048,0.577386760202836
-0.00159831,0.5645990152512611,0.5700225755424542
-0.00159768,0.5645990152512611,0.5626583908820789
-0.00159705,0.5645990152512611,0.5663404832122682
-0.00159642,0.5572982863871208,0.5626583908820806
-0.00159579,0.5499975575229737,0.5589762985518897
-0.00159516,0.5499975575229737,0.5516121138915094
-0.00159453,0.5499975575229737,0.5479300215613219
-0.0015939,0.5499975575229737,0.5479300215613219
-0.00159327,0.5426968286588283,0.5405658369009434
-0.00159264,0.5390464642267582,0.5405658369009434
-0.00159201,0.5353960997946863,0.5405658369009434
-0.00159138,0.531745735362616,0.5368837445707557
-0.00159075,0.5280953709305426,0.5295195599103756
-0.00159012,0.5244450064984707,0.522155375249997
-0.00158949,0.5280953709305426,0.5184732829198078
-0.00158886,0.5280953709305426,0.5147911905896185
-0.00158823,0.5207946420663956,0.5184732829198044
-0.0015876,0.5134939132022551,0.5111090982594293
-0.00158697,0.5134939132022551,0.5074270059292399
-0.00158634,0.509843548770185,0.5074270059292399
-0.00158571,0.5025428199060397,0.5037449135990507
-0.00158508,0.4952420910418959,0.4963807289386722
-0.00158445,0.4952420910418959,0.4963807289386722
-0.00158382,0.491591726609824,0.4963807289386722
-0.00158319,0.4879413621777505,0.4890165442782903
-0.00158256,0.4842909977456804,0.4816523596179151
-0.00158193,0.4806406333136085,0.4779702672877259
-0.0015813,0.4769902688815383,0.4742881749575383
-0.00158067,0.4733399044494648,0.4779702672877259
-0.00158004,0.4733399044494648,0.4779702672877259
-0.00157941,0.476990268881535,0.4742881749575383
-0.00157878,0.4660391755853211,0.4706060826273474
-0.00157815,0.4623888111532459,0.4632418979669655
-0.00157752,0.4550880822891055,0.4558777133065903
-0.00157689,0.4514377178570337,0.4595598056367796
-0.00157626,0.4514377178570337,0.4521956209764044
