2020_assignments/S Kelleys Lab 6 Analog Op Amps/6 l 3 1 voltage divider.csv

#Digilent WaveForms Oscilloscope Acquisition
#Device Name: Discovery2
#Serial Number: SN:210321AE3681
#Date Time: 2020-09-21 11:20:35.431
#Sample rate: 1.5873e+06Hz
#Samples: 8192
#Trigger: Source: Channel 1 Type: Edge Condition: Rising Level: 0 V Hyst.: Auto HoldOff: 0 s
#Channel 1: Range: 500 mV/div Offset: 0 V Attenuation: 1 X
#Channel 2: Range: 500 mV/div Offset: 0 V Attenuation: 1 X
#Wavegen Channel 1: Running
#Mode: Simple
#Type: Sine
#Frequency: 1 kHz
#Period: 1 ms
#Amplitude: 1 V
#Offset: 0 V
#Symmetry: 50 %
#Phase: 0 °
#Power Supplies: ON
#Positive Supply: ON
#Voltage: 5 V
#Negative Supply: ON
#Voltage: -5 V

Time (s),Channel 1 (V),Channel 2 (V)
-0.001819755,0.9040829074339434,0.3748716820424265
-0.001819125,0.9077332718660136,0.3785537743726142
-0.001818495,0.9113836362980872,0.3785537743726158
-0.001817865,0.904082907433945,0.3785537743726175
-0.001817235,0.9077332718660153,0.3822358667028051
-0.001816605,0.9077332718660153,0.3859179590329944
-0.001815975,0.9113836362980855,0.3859179590329944
-0.001815345,0.9113836362980872,0.3896000513631836
-0.001814715,0.9186843651622308,0.3896000513631836
-0.001814085,0.9223347295943011,0.385917959032996
-0.001813455,0.9186843651622308,0.3896000513631836
-0.001812825,0.9259850940263745,0.3932821436933729
-0.001812195,0.9259850940263745,0.3932821436933729
-0.001811565,0.9259850940263745,0.3932821436933729
-0.001810935,0.9296354584584464,0.3969642360235605
-0.001810305,0.9296354584584464,0.3932821436933729
-0.001809675,0.9296354584584464,0.4006463283537514
-0.001809045,0.9332858228905165,0.3969642360235638
-0.001808415,0.9296354584584464,0.4043284206839406
-0.001807785,0.9369361873225884,0.4080105130141283
-0.001807155,0.9332858228905182,0.4043284206839406
-0.001806525,0.9332858228905182,0.4006463283537514
-0.001805895,0.9332858228905199,0.404328420683944
-0.001805265,0.9369361873225901,0.4116926053443192
-0.001804635,0.940586551754662,0.4080105130141299
-0.001804005,0.940586551754662,0.4080105130141299
-0.001803375,0.940586551754662,0.4043284206839406
-0.001802745,0.9405865517546637,0.4116926053443192
-0.001802115,0.9442369161867338,0.4116926053443192
-0.001801485,0.9478872806188057,0.4190567900046977
-0.001800855,0.9442369161867354,0.4190567900046944
-0.001800225,0.9478872806188057,0.4116926053443192
-0.001799595,0.9478872806188057,0.4153746976745085
-0.001798965,0.9515376450508758,0.4153746976745085
-0.001798335,0.9588383739150212,0.4190567900046977
-0.001797705,0.9588383739150212,0.4190567900046977
-0.001797075,0.962488738347093,0.4190567900046977
-0.001796445,0.9661391027791649,0.422738882334887
-0.001795815,0.962488738347093,0.4264209746650746
-0.001795185,0.962488738347093,0.422738882334887
-0.001794555,0.9588383739150212,0.422738882334887
-0.001793925,0.9588383739150212,0.4264209746650746
-0.001793295,0.9588383739150212,0.4264209746650762
-0.001792665,0.962488738347093,0.4337851593254547
-0.001792035,0.962488738347093,0.4301030669952655
-0.001791405,0.9661391027791649,0.4337851593254547
-0.001790775,0.9624887383470964,0.4301030669952638
-0.001790145,0.9697894672112368,0.4264209746650762
-0.001789515,0.9661391027791649,0.4301030669952655
-0.001788885,0.9734398316433053,0.4337851593254531
-0.001788255,0.9734398316433086,0.437467251655644
-0.001787625,0.9770901960753805,0.437467251655644
-0.001786995,0.9734398316433103,0.4337851593254564
-0.001786365,0.9697894672112368,0.437467251655644
-0.001785735,0.9770901960753822,0.4411493439858349
-0.001785105,0.9807405605074523,0.4448314363160226
-0.001784475,0.9843909249395242,0.4411493439858333
-0.001783845,0.980740560507454,0.4337851593254581
-0.001783215,0.9734398316433086,0.4301030669952655
-0.001782585,0.9770901960753805,0.4337851593254547
-0.001781955,0.9770901960753805,0.4337851593254547
-0.001781325,0.9770901960753805,0.4411493439858333
-0.001780695,0.9807405605074506,0.4448314363160226
-0.001780065,0.9770901960753805,0.4448314363160226
-0.001779435,0.9807405605074523,0.4448314363160226
-0.001778805,0.9807405605074523,0.4448314363160226
-0.001778175,0.9843909249395242,0.4485135286462118
-0.001777545,0.9807405605074523,0.4448314363160226
-0.001776915,0.9770901960753822,0.4411493439858349
-0.001776285,0.9843909249395242,0.4448314363160226
-0.001775655,0.9880412893715944,0.4448314363160242
-0.001775025,0.9843909249395242,0.4485135286462118
-0.001774395,0.9880412893715961,0.4448314363160226
-0.001773765,0.9843909249395225,0.4411493439858349
-0.001773135,0.9807405605074523,0.4448314363160226
-0.001772505,0.9807405605074523,0.4448314363160226
-0.001771875,0.9880412893715927,0.4448314363160226
-0.001771245,0.9916916538036679,0.4521956209764011
-0.001770615,0.9843909249395275,0.459559805636778
-0.001769985,0.9916916538036679,0.4558777133065903
-0.001769355,0.9953420182357398,0.4521956209764011
-0.001768725,0.9916916538036662,0.4485135286462151
-0.001768095,0.9880412893715961,0.4558777133065903
-0.001767465,0.9916916538036679,0.4595598056367796
-0.001766835,0.9916916538036679,0.4595598056367796
-0.001766205,0.9953420182357398,0.4632418979669689
-0.001765575,0.9953420182357398,0.4632418979669689
-0.001764945,0.9916916538036679,0.4558777133065903
-0.001764315,0.9916916538036679,0.4558777133065903
-0.001763685,0.9916916538036695,0.4558777133065887
-0.001763055,0.9953420182357398,0.4521956209764011
-0.001762425,0.9953420182357398,0.4632418979669689
-0.001761795,0.9989923826678099,0.4669239902971565
-0.001761165,0.9989923826678115,0.4632418979669689
-0.001760535,0.9989923826678115,0.4632418979669689
-0.001759905,0.9989923826678115,0.4632418979669689
-0.001759275,0.9916916538036679,0.4632418979669689
-0.001758645,0.9916916538036695,0.4595598056367813
-0.001758015,0.9953420182357398,0.4632418979669689
-0.001757385,0.9953420182357398,0.4669239902971581
-0.001756755,0.9989923826678099,0.4706060826273457
-0.001756125,0.9989923826678115,0.4706060826273474
-0.001755495,0.9989923826678115,0.4669239902971581
-0.001754865,0.9989923826678115,0.4669239902971581
-0.001754235,1.002642747099884,0.4669239902971581
-0.001753605,0.9989923826678115,0.4669239902971615
-0.001752975,0.9989923826678115,0.4742881749575366
-0.001752345,0.9953420182357398,0.4669239902971581
-0.001751715,0.9953420182357398,0.4706060826273457
-0.001751085,0.9953420182357398,0.4742881749575366
-0.001750455,0.9953420182357398,0.4742881749575366
-0.001749825,0.9953420182357398,0.4742881749575366
-0.001749195,0.9953420182357398,0.4669239902971581
-0.001748565,0.9953420182357414,0.4669239902971615
-0.001747935,0.9989923826678115,0.4742881749575366
-0.001747305,0.9989923826678115,0.4706060826273474
-0.001746675,0.9953420182357414,0.4742881749575349
-0.001746045,0.9916916538036679,0.4706060826273474
-0.001745415,0.9953420182357398,0.4669239902971581
-0.001744785,0.9989923826678099,0.4742881749575333
-0.001744155,0.9989923826678115,0.4742881749575366
-0.001743525,0.9989923826678099,0.4742881749575383
-0.001742895,0.9953420182357398,0.4779702672877259
-0.001742265,0.9953420182357398,0.4779702672877259
-0.001741635,0.9953420182357398,0.4779702672877242
-0.001741005,0.9953420182357398,0.4742881749575366
-0.001740375,0.9953420182357398,0.4779702672877259
-0.001739745,0.9989923826678099,0.4779702672877259
-0.001739115,0.9989923826678115,0.4742881749575366
-0.001738485,0.9953420182357381,0.4742881749575366
-0.001737855,0.9916916538036679,0.4742881749575366
-0.001737225,0.9880412893715961,0.4779702672877259
-0.001736595,0.9916916538036679,0.4779702672877242
-0.001735965,0.9916916538036679,0.4742881749575366
-0.001735335,0.9880412893715961,0.4816523596179151
-0.001734705,0.9880412893715961,0.4779702672877276
-0.001734075,0.9953420182357398,0.4779702672877259
-0.001733445,0.9916916538036662,0.4779702672877259
-0.001732815,0.9880412893715961,0.4779702672877259
-0.001732185,0.9880412893715961,0.4742881749575366
-0.001731555,0.9880412893715961,0.4742881749575366
-0.001730925,0.9880412893715961,0.4742881749575366
-0.001730295,0.9916916538036679,0.4816523596179151
-0.001729665,0.9880412893715977,0.4816523596179151
-0.001729035,0.9880412893715961,0.4779702672877259
-0.001728405,0.9880412893715961,0.4779702672877259
-0.001727775,0.9880412893715961,0.4779702672877259
-0.001727145,0.9843909249395242,0.4816523596179151
-0.001726515,0.9807405605074523,0.4816523596179151
-0.001725885,0.9807405605074523,0.4816523596179151
-0.001725255,0.9880412893715961,0.4779702672877259
-0.001724625,0.9880412893715961,0.4779702672877259
-0.001723995,0.9843909249395242,0.4853344519481044
-0.001723365,0.9843909249395242,0.4779702672877259
-0.001722735,0.9843909249395242,0.4779702672877259
-0.001722105,0.9770901960753805,0.4779702672877259
-0.001721475,0.9770901960753805,0.4816523596179151
-0.001720845,0.9770901960753805,0.4816523596179151
-0.001720215,0.9807405605074523,0.4853344519481044
-0.001719585,0.9770901960753822,0.4853344519481044
-0.001718955,0.9770901960753805,0.4853344519481044
-0.001718325,0.9770901960753805,0.4816523596179151
-0.001717695,0.9770901960753805,0.4779702672877276
-0.001717065,0.9734398316433086,0.4779702672877259
-0.001716435,0.9734398316433069,0.4816523596179135
-0.001715805,0.9697894672112368,0.4779702672877259
-0.001715175,0.9697894672112368,0.4816523596179151
-0.001714545,0.9697894672112368,0.4779702672877276
-0.001713915,0.9697894672112368,0.4816523596179151
-0.001713285,0.9661391027791649,0.4816523596179151
-0.001712655,0.9661391027791649,0.4816523596179151
-0.001712025,0.9588383739150212,0.4816523596179151
-0.001711395,0.9624887383470947,0.4816523596179135
-0.001710765,0.9661391027791649,0.4779702672877259
-0.001710135,0.9661391027791649,0.4742881749575366
-0.001709505,0.9661391027791649,0.4742881749575366
-0.001708875,0.9697894672112368,0.4779702672877259
-0.001708245,0.9661391027791649,0.4742881749575366
-0.001707615,0.9588383739150246,0.4779702672877242
-0.001706985,0.962488738347093,0.4742881749575366
-0.001706355,0.9661391027791616,0.4779702672877259
-0.001705725,0.9588383739150212,0.4779702672877259
-0.001705095,0.9515376450508775,0.4816523596179151
-0.001704465,0.9515376450508775,0.4853344519481011
-0.001703835,0.9515376450508775,0.4779702672877259
-0.001703205,0.9515376450508775,0.4779702672877259
-0.001702575,0.9515376450508775,0.4779702672877259
-0.001701945,0.9551880094829494,0.4779702672877259
-0.001701315,0.9515376450508741,0.4779702672877259
-0.001700685,0.9442369161867338,0.4779702672877259
-0.001700055,0.9478872806188057,0.4779702672877259
-0.001699425,0.9478872806188023,0.4779702672877276
-0.001698795,0.940586551754662,0.4816523596179151
-0.001698165,0.940586551754662,0.4779702672877259
-0.001697535,0.940586551754662,0.4779702672877259
-0.001696905,0.9332858228905182,0.4742881749575366
-0.001696275,0.9296354584584464,0.4779702672877259
-0.001695645,0.9296354584584464,0.4706060826273474
-0.001695015,0.9332858228905182,0.4779702672877259
-0.001694385,0.9332858228905165,0.4816523596179135
-0.001693755,0.9296354584584464,0.4779702672877259
-0.001693125,0.9332858228905182,0.4706060826273474
-0.001692495,0.9296354584584481,0.4669239902971598
-0.001691865,0.9296354584584464,0.4706060826273474
-0.001691235,0.9296354584584464,0.4706060826273474
-0.001690605,0.9259850940263745,0.4706060826273474
-0.001689975,0.9259850940263745,0.4706060826273474
-0.001689345,0.9223347295943027,0.4742881749575349
-0.001688715,0.9223347295943027,0.4706060826273474
-0.001688085,0.9259850940263745,0.4706060826273474
-0.001687455,0.9223347295943044,0.4742881749575349
-0.001686825,0.9223347295943027,0.4706060826273474
-0.001686195,0.9186843651622308,0.4669239902971581
-0.001685565,0.9186843651622308,0.4706060826273457
-0.001684935,0.9150340007301589,0.4706060826273474
-0.001684305,0.9113836362980855,0.4742881749575366
-0.001683675,0.9077332718660153,0.4742881749575366
-0.001683045,0.9040829074339434,0.4742881749575366
-0.001682415,0.9077332718660136,0.470606082627349
-0.001681785,0.9077332718660153,0.4706060826273474
-0.001681155,0.9004325430018716,0.4706060826273474
-0.001680525,0.9004325430018716,0.4742881749575349
-0.001679895,0.8967821785697997,0.4706060826273474
-0.001679265,0.9004325430018699,0.4742881749575349
-0.001678635,0.8967821785697997,0.4706060826273474
-0.001678005,0.8967821785697997,0.4632418979669689
-0.001677375,0.8967821785697997,0.4632418979669689
-0.001676745,0.889481449705656,0.4669239902971581
-0.001676115,0.8931318141377279,0.4669239902971581
-0.001675485,0.8931318141377279,0.4595598056367829
-0.001674855,0.8858310852735841,0.4632418979669689
-0.001674225,0.8858310852735825,0.4669239902971565
-0.001673595,0.8821807208415123,0.4632418979669689
-0.001672965,0.8748799919773687,0.4595598056367796
-0.001672335,0.8712296275452968,0.4595598056367813
-0.001671705,0.8712296275452968,0.4632418979669689
-0.001671075,0.8748799919773687,0.4632418979669689
-0.001670445,0.8748799919773687,0.4595598056367813
-0.001669815,0.8748799919773687,0.4595598056367796
-0.001669185,0.8748799919773653,0.4632418979669655
-0.001668555,0.8675792631132249,0.4558777133065903
-0.001667925,0.8639288986811531,0.4558777133065903
-0.001667295,0.8639288986811531,0.4595598056367796
-0.001666665,0.8639288986811531,0.4595598056367796
-0.001666035,0.8602785342490812,0.4595598056367796
-0.001665405,0.8602785342490812,0.455877713306592
-0.001664775,0.8602785342490812,0.4595598056367796
-0.001664145,0.8529778053849375,0.4595598056367813
-0.001663515,0.8529778053849375,0.4632418979669689
-0.001662885,0.8493274409528656,0.4558777133065903
-0.001662255,0.8493274409528656,0.4521956209764011
-0.001661625,0.8493274409528656,0.4521956209764011
-0.001660995,0.8456770765207938,0.4521956209764011
-0.001660365,0.8383763476566534,0.4558777133065887
-0.001659735,0.83837634765665,0.4485135286462118
-0.001659105,0.83837634765665,0.4521956209764011
-0.001658475,0.83837634765665,0.4521956209764011
-0.001657845,0.8347259832245782,0.4448314363160226
-0.001657215,0.8310756187925047,0.4485135286462135
-0.001656585,0.8274252543604345,0.4521956209764011
-0.001655955,0.8237748899283627,0.4521956209764011
-0.001655325,0.8237748899283627,0.4411493439858383
-0.001654695,0.8201245254962908,0.4411493439858333
-0.001654065,0.8201245254962908,0.4411493439858333
-0.001653435,0.816474161064219,0.4448314363160226
-0.001652805,0.816474161064219,0.4448314363160226
-0.001652175,0.8201245254962891,0.4411493439858316
-0.001651545,0.816474161064219,0.437467251655644
-0.001650915,0.8128237966321471,0.437467251655644
-0.001650285,0.8055230677680068,0.437467251655644
-0.001649655,0.7982223389038597,0.4411493439858333
-0.001649025,0.7982223389038597,0.4337851593254547
-0.001648395,0.7982223389038597,0.4374672516556424
-0.001647765,0.7945719744717878,0.437467251655644
-0.001647135,0.7945719744717845,0.4411493439858316
-0.001646505,0.7872712456076442,0.437467251655644
-0.001645875,0.7836208811755723,0.4337851593254547
-0.001645245,0.7836208811755723,0.4337851593254547
-0.001644615,0.7836208811755723,0.4301030669952655
-0.001643985,0.7799705167435004,0.4264209746650762
-0.001643355,0.7763201523114303,0.4227388823348887
-0.001642725,0.7799705167435004,0.4301030669952655
-0.001642095,0.7799705167434937,0.4264209746650762
-0.001641465,0.765369059015213,0.4264209746650762
-0.001640835,0.7580683301510693,0.4190567900046977
-0.001640205,0.7544179657189991,0.4227388823348853
-0.001639575,0.7580683301510693,0.4264209746650762
-0.001638945,0.7580683301510693,0.422738882334887
-0.001638315,0.7580683301510693,0.4190567900046994
-0.001637685,0.7580683301510693,0.4153746976745085
-0.001637055,0.7544179657189958,0.4153746976745085
-0.001636425,0.7507676012869257,0.4153746976745085
-0.001635795,0.7471172368548538,0.4153746976745085
-0.001635165,0.7434668724227819,0.4153746976745068
-0.001634535,0.7434668724227819,0.4116926053443192
-0.001633905,0.7434668724227819,0.4116926053443192
-0.001633275,0.7434668724227819,0.4116926053443192
-0.001632645,0.7361661435586382,0.4116926053443192
-0.001632015,0.7288654146944928,0.4116926053443225
-0.001631385,0.7252150502624226,0.4190567900046977
-0.001630755,0.7288654146944945,0.4153746976745085
-0.001630125,0.7252150502624209,0.4116926053443192
-0.001629495,0.7215646858303508,0.4116926053443192
-0.001628865,0.714263956966207,0.4116926053443192
-0.001628235,0.7179143213982773,0.4116926053443192
-0.001627605,0.714263956966207,0.4116926053443192
-0.001626975,0.706963228102065,0.4080105130141283
-0.001626345,0.7106135925341353,0.4043284206839406
-0.001625715,0.7069632281020634,0.4043284206839406
-0.001625085,0.6996624992379197,0.4006463283537514
-0.001624455,0.6996624992379197,0.4006463283537514
-0.001623825,0.6960121348058478,0.3969642360235621
-0.001623195,0.6923617703737777,0.3969642360235621
-0.001622565,0.6960121348058478,0.3969642360235621
-0.001621935,0.692361770373776,0.3969642360235621
-0.001621305,0.6850610415096322,0.3969642360235621
-0.001620675,0.6850610415096322,0.3896000513631836
-0.001620045,0.6777603126454902,0.3896000513631836
-0.001619415,0.6814106770775604,0.3896000513631836
-0.001618785,0.6777603126454885,0.3932821436933729
-0.001618155,0.6741099482134184,0.3896000513631853
-0.001617525,0.6704595837813448,0.3859179590329944
-0.001616895,0.6631588549172012,0.3859179590329944
-0.001616265,0.6595084904851309,0.3859179590329944
-0.001615635,0.6558581260530574,0.3822358667028051
-0.001615005,0.655858126053054,0.3822358667028034
-0.001614375,0.6485573971889137,0.3785537743726158
-0.001613745,0.6485573971889137,0.3785537743726158
-0.001613115,0.6485573971889137,0.3822358667028034
-0.001612485,0.6449070327568419,0.3785537743726158
-0.001611855,0.6449070327568419,0.3785537743726158
-0.001611225,0.6412566683247717,0.3785537743726158
-0.001610595,0.6339559394606263,0.3785537743726158
-0.001609965,0.6339559394606263,0.3711895897122373
-0.001609335,0.6339559394606263,0.3711895897122373
-0.001608705,0.6266552105964827,0.3748716820424265
-0.001608075,0.6230048461644124,0.3675074973820514
-0.001607445,0.6157041173002671,0.367507497382048
-0.001606815,0.6157041173002671,0.367507497382048
-0.001606185,0.6120537528681969,0.3711895897122356
-0.001605555,0.6120537528681952,0.3638254050518588
-0.001604925,0.6047530240040482,0.3638254050518555
-0.001604295,0.5974522951399078,0.3564612203914803
-0.001603665,0.5974522951399078,0.3564612203914803
-0.001603035,0.5938019307078326,0.3601433127216678
-0.001602405,0.5865012018436923,0.3564612203914803
-0.001601775,0.5828508374116204,0.352779128061291
-0.001601145,0.5792004729795502,0.3454149434009158
-0.001600515,0.5865012018436923,0.3490970357311017
-0.001599885,0.5792004729795486,0.3490970357311001
-0.001599255,0.5792004729795486,0.3454149434009125
-0.001598625,0.5755501085474767,0.352779128061291
-0.001597995,0.5682493796833313,0.3490970357311017
-0.001597365,0.5645990152512611,0.3490970357311017
-0.001596735,0.5645990152512611,0.3490970357311017
-0.001596105,0.5572982863871208,0.3417328510707265
-0.001595475,0.5572982863871174,0.3490970357311017
-0.001594845,0.5536479219550472,0.3454149434009108
-0.001594215,0.5572982863871174,0.3417328510707232
-0.001593585,0.5499975575229737,0.3417328510707232
-0.001592955,0.5499975575229721,0.338050758740534
-0.001592325,0.5463471930909019,0.338050758740534
-0.001591695,0.5390464642267582,0.338050758740534
-0.001591065,0.5390464642267582,0.3306865740801588
-0.001590435,0.5353960997946863,0.3270044817499662
-0.001589805,0.5317457353626144,0.3270044817499662
-0.001589175,0.5244450064984707,0.3343686664103447
-0.001588545,0.5244450064984707,0.3270044817499662
-0.001587915,0.5207946420663956,0.3306865740801554
-0.001587285,0.5134939132022551,0.3306865740801554
-0.001586655,0.5098435487701833,0.3270044817499662
-0.001586025,0.5098435487701833,0.3233223894197786
-0.001585395,0.5061931843381114,0.3270044817499662
-0.001584765,0.4988924554739678,0.3270044817499662
-0.001584135,0.4952420910418959,0.3233223894197769
-0.001583505,0.4952420910418959,0.3270044817499662
-0.001582875,0.4879413621777522,0.3159582047593951
-0.001582245,0.4879413621777522,0.3085940200990199
-0.001581615,0.4842909977456804,0.3085940200990199
-0.001580985,0.4842909977456804,0.3049119277688322
