2020_assignments/S Kelleys Lab 6 Analog Op Amps/6 l 3 1 voltage divider 3db math.csv

#Digilent WaveForms Oscilloscope Acquisition
#Device Name: Discovery2
#Serial Number: SN:210321AE3681
#Date Time: 2020-09-21 11:20:35.431
#Sample rate: 1.5873e+06Hz
#Samples: 8192
#Trigger: Source: Channel 1 Type: Edge Condition: Rising Level: 0 V Hyst.: Auto HoldOff: 0 s
#Channel 1: Range: 1 V/div Offset: 0 V Attenuation: 1 X
#Channel 2: Range: 1 V/div Offset: 0 V Attenuation: 1 X
#Math 1: Function: C1 / C2
#Wavegen Channel 1: Enabled
#Mode: Simple
#Type: Sine
#Frequency: 1 kHz
#Period: 1 ms
#Amplitude: 1 V
#Offset: 0 V
#Symmetry: 50 %
#Phase: 0 °
#Power Supplies: ON
#Positive Supply: ON
#Voltage: 5 V
#Negative Supply: ON
#Voltage: -5 V

Time (s),Channel 1 (V),Channel 2 (V),Math 1 (V)
-0.001819755,0.9040829074339434,0.3748716820424265,2.411712996052934
-0.001819125,0.9077332718660136,0.3785537743726142,2.397897824081719
-0.001818495,0.9113836362980872,0.3785537743726158,2.407540745851868
-0.001817865,0.904082907433945,0.3785537743726175,2.388254902311552
-0.001817235,0.9077332718660153,0.3822358667028051,2.374798785096202
-0.001816605,0.9077332718660153,0.3859179590329944,2.352140527848324
-0.001815975,0.9113836362980855,0.3859179590329944,2.361599440932382
-0.001815345,0.9113836362980872,0.3896000513631836,2.339280072241313
-0.001814715,0.9186843651622308,0.3896000513631836,2.358019106896464
-0.001814085,0.9223347295943011,0.385917959032996,2.389976180184559
-0.001813455,0.9186843651622308,0.3896000513631836,2.358019106896464
-0.001812825,0.9259850940263745,0.3932821436933729,2.354505814401606
-0.001812195,0.9259850940263745,0.3932821436933729,2.354505814401606
-0.001811565,0.9259850940263745,0.3932821436933729,2.354505814401606
-0.001810935,0.9296354584584464,0.3969642360235605,2.341861996865811
-0.001810305,0.9296354584584464,0.3932821436933729,2.363787609902899
-0.001809675,0.9296354584584464,0.4006463283537514,2.320339393295583
-0.001809045,0.9332858228905165,0.3969642360235638,2.351057697890741
-0.001808415,0.9296354584584464,0.4043284206839406,2.299208788949152
-0.001807785,0.9369361873225884,0.4080105130141283,2.296353053261019
-0.001807155,0.9332858228905182,0.4043284206839406,2.308237005234065
-0.001806525,0.9332858228905182,0.4006463283537514,2.329450582326245
-0.001805895,0.9332858228905199,0.404328420683944,2.30823700523405
-0.001805265,0.9369361873225901,0.4116926053443192,2.275814953098279
-0.001804635,0.940586551754662,0.4080105130141299,2.305299794375858
-0.001804005,0.940586551754662,0.4080105130141299,2.305299794375858
-0.001803375,0.940586551754662,0.4043284206839406,2.326293437803891
-0.001802745,0.9405865517546637,0.4116926053443192,2.284681676436729
-0.001802115,0.9442369161867338,0.4116926053443192,2.29354839977517
-0.001801485,0.9478872806188057,0.4190567900046977,2.261954234432473
-0.001800855,0.9442369161867354,0.4190567900046944,2.253243328132585
-0.001800225,0.9478872806188057,0.4116926053443192,2.302415123113615
-0.001799595,0.9478872806188057,0.4153746976745085,2.28200534583736
-0.001798965,0.9515376450508758,0.4153746976745085,2.290793470035841
-0.001798335,0.9588383739150212,0.4190567900046977,2.288086953332202
-0.001797705,0.9588383739150212,0.4190567900046977,2.288086953332202
-0.001797075,0.962488738347093,0.4190567900046977,2.296797859632112
-0.001796445,0.9661391027791649,0.422738882334887,2.28542758461902
-0.001795815,0.962488738347093,0.4264209746650746,2.25713272923093
-0.001795185,0.962488738347093,0.422738882334887,2.276792551068498
-0.001794555,0.9588383739150212,0.422738882334887,2.268157517517976
-0.001793925,0.9588383739150212,0.4264209746650746,2.248572258126199
-0.001793295,0.9588383739150212,0.4264209746650762,2.24857225812619
-0.001792665,0.962488738347093,0.4337851593254547,2.218814354653773
-0.001792035,0.962488738347093,0.4301030669952655,2.237809521032055
-0.001791405,0.9661391027791649,0.4337851593254547,2.227229498310943
-0.001790775,0.9624887383470964,0.4301030669952638,2.237809521032072
-0.001790145,0.9697894672112368,0.4264209746650762,2.274253671440384
-0.001789515,0.9661391027791649,0.4301030669952655,2.24629670634225
-0.001788885,0.9734398316433053,0.4337851593254531,2.244059785625283
-0.001788255,0.9734398316433086,0.437467251655644,2.225171891059767
-0.001787625,0.9770901960753805,0.437467251655644,2.2335162057902
-0.001786995,0.9734398316433103,0.4337851593254564,2.244059785625277
-0.001786365,0.9697894672112368,0.437467251655644,2.216827576329335
-0.001785735,0.9770901960753822,0.4411493439858349,2.214873963649725
-0.001785105,0.9807405605074523,0.4448314363160226,2.204746518433339
-0.001784475,0.9843909249395242,0.4411493439858333,2.231423299976926
-0.001783845,0.980740560507454,0.4337851593254581,2.260890072939607
-0.001783215,0.9734398316433086,0.4301030669952655,2.263271076962639
-0.001782585,0.9770901960753805,0.4337851593254547,2.252474929282451
-0.001781955,0.9770901960753805,0.4337851593254547,2.252474929282451
-0.001781325,0.9770901960753805,0.4411493439858333,2.21487396364973
-0.001780695,0.9807405605074506,0.4448314363160226,2.204746518433335
-0.001780065,0.9770901960753805,0.4448314363160226,2.196540343837624
-0.001779435,0.9807405605074523,0.4448314363160226,2.204746518433339
-0.001778805,0.9807405605074523,0.4448314363160226,2.204746518433339
-0.001778175,0.9843909249395242,0.4485135286462118,2.194785356666495
-0.001777545,0.9807405605074523,0.4448314363160226,2.204746518433339
-0.001776915,0.9770901960753822,0.4411493439858349,2.214873963649725
-0.001776285,0.9843909249395242,0.4448314363160226,2.212952693029054
-0.001775655,0.9880412893715944,0.4448314363160242,2.221158867624756
-0.001775025,0.9843909249395242,0.4485135286462118,2.194785356666495
-0.001774395,0.9880412893715961,0.4448314363160226,2.221158867624768
-0.001773765,0.9843909249395225,0.4411493439858349,2.231423299976914
-0.001773135,0.9807405605074523,0.4448314363160226,2.204746518433339
-0.001772505,0.9807405605074523,0.4448314363160226,2.204746518433339
-0.001771875,0.9880412893715927,0.4448314363160226,2.221158867624761
-0.001771245,0.9916916538036679,0.4521956209764011,2.193058950156047
-0.001770615,0.9843909249395275,0.459559805636778,2.142030075009563
-0.001769985,0.9916916538036679,0.4558777133065903,2.175345766764272
-0.001769355,0.9953420182357398,0.4521956209764011,2.20113148395058
-0.001768725,0.9916916538036662,0.4485135286462151,2.211062967926452
-0.001768095,0.9880412893715961,0.4558777133065903,2.167338434259257
-0.001767465,0.9916916538036679,0.4595598056367796,2.157916427067747
-0.001766835,0.9916916538036679,0.4595598056367796,2.157916427067747
-0.001766205,0.9953420182357398,0.4632418979669689,2.1486442020983
-0.001765575,0.9953420182357398,0.4632418979669689,2.1486442020983
-0.001764945,0.9916916538036679,0.4558777133065903,2.175345766764272
-0.001764315,0.9916916538036679,0.4558777133065903,2.175345766764272
-0.001763685,0.9916916538036695,0.4558777133065887,2.175345766764284
-0.001763055,0.9953420182357398,0.4521956209764011,2.20113148395058
-0.001762425,0.9953420182357398,0.4632418979669689,2.1486442020983
-0.001761795,0.9989923826678099,0.4669239902971565,2.139518215870721
-0.001761165,0.9989923826678115,0.4632418979669689,2.156524241550888
-0.001760535,0.9989923826678115,0.4632418979669689,2.156524241550888
-0.001759905,0.9989923826678115,0.4632418979669689,2.156524241550888
-0.001759275,0.9916916538036679,0.4632418979669689,2.140764162645711
-0.001758645,0.9916916538036695,0.4595598056367813,2.157916427067743
-0.001758015,0.9953420182357398,0.4632418979669689,2.1486442020983
-0.001757385,0.9953420182357398,0.4669239902971581,2.131700317223554
-0.001756755,0.9989923826678099,0.4706060826273457,2.122778305564045
-0.001756125,0.9989923826678115,0.4706060826273474,2.122778305564041
-0.001755495,0.9989923826678115,0.4669239902971581,2.139518215870717
-0.001754865,0.9989923826678115,0.4669239902971581,2.139518215870717
-0.001754235,1.002642747099884,0.4669239902971581,2.147336114517879
-0.001753605,0.9989923826678115,0.4669239902971615,2.139518215870702
-0.001752975,0.9989923826678115,0.4742881749575366,2.106298312744677
-0.001752345,0.9953420182357398,0.4669239902971581,2.131700317223554
-0.001751715,0.9953420182357398,0.4706060826273457,2.115021575324413
-0.001751085,0.9953420182357398,0.4742881749575366,2.098601801162033
-0.001750455,0.9953420182357398,0.4742881749575366,2.098601801162033
-0.001749825,0.9953420182357398,0.4742881749575366,2.098601801162033
-0.001749195,0.9953420182357398,0.4669239902971581,2.131700317223554
-0.001748565,0.9953420182357414,0.4669239902971615,2.131700317223542
-0.001747935,0.9989923826678115,0.4742881749575366,2.106298312744677
-0.001747305,0.9989923826678115,0.4706060826273474,2.122778305564041
-0.001746675,0.9953420182357414,0.4742881749575349,2.098601801162044
-0.001746045,0.9916916538036679,0.4706060826273474,2.10726484508477
-0.001745415,0.9953420182357398,0.4669239902971581,2.131700317223554
-0.001744785,0.9989923826678099,0.4742881749575333,2.106298312744689
-0.001744155,0.9989923826678115,0.4742881749575366,2.106298312744677
-0.001743525,0.9989923826678099,0.4742881749575383,2.106298312744666
-0.001742895,0.9953420182357398,0.4779702672877259,2.082435009783923
-0.001742265,0.9953420182357398,0.4779702672877259,2.082435009783923
-0.001741635,0.9953420182357398,0.4779702672877242,2.08243500978393
-0.001741005,0.9953420182357398,0.4742881749575366,2.098601801162033
-0.001740375,0.9953420182357398,0.4779702672877259,2.082435009783923
-0.001739745,0.9989923826678099,0.4779702672877259,2.09007223051061
-0.001739115,0.9989923826678115,0.4742881749575366,2.106298312744677
-0.001738485,0.9953420182357381,0.4742881749575366,2.09860180116203
-0.001737855,0.9916916538036679,0.4742881749575366,2.090905289579389
-0.001737225,0.9880412893715961,0.4779702672877259,2.067160568330541
-0.001736595,0.9916916538036679,0.4779702672877242,2.074797789057239
-0.001735965,0.9916916538036679,0.4742881749575366,2.090905289579389
-0.001735335,0.9880412893715961,0.4816523596179151,2.05135772646352
-0.001734705,0.9880412893715961,0.4779702672877276,2.067160568330534
-0.001734075,0.9953420182357398,0.4779702672877259,2.082435009783923
-0.001733445,0.9916916538036662,0.4779702672877259,2.074797789057228
-0.001732815,0.9880412893715961,0.4779702672877259,2.067160568330541
-0.001732185,0.9880412893715961,0.4742881749575366,2.083208777996745
-0.001731555,0.9880412893715961,0.4742881749575366,2.083208777996745
-0.001730925,0.9880412893715961,0.4742881749575366,2.083208777996745
-0.001730295,0.9916916538036679,0.4816523596179151,2.058936562856987
-0.001729665,0.9880412893715977,0.4816523596179151,2.051357726463523
-0.001729035,0.9880412893715961,0.4779702672877259,2.067160568330541
-0.001728405,0.9880412893715961,0.4779702672877259,2.067160568330541
-0.001727775,0.9880412893715961,0.4779702672877259,2.067160568330541
-0.001727145,0.9843909249395242,0.4816523596179151,2.043778890070052
-0.001726515,0.9807405605074523,0.4816523596179151,2.036200053676584
-0.001725885,0.9807405605074523,0.4816523596179151,2.036200053676584
-0.001725255,0.9880412893715961,0.4779702672877259,2.067160568330541
-0.001724625,0.9880412893715961,0.4779702672877259,2.067160568330541
-0.001723995,0.9843909249395242,0.4853344519481044,2.028273329841383
-0.001723365,0.9843909249395242,0.4779702672877259,2.05952334760385
-0.001722735,0.9843909249395242,0.4779702672877259,2.05952334760385
-0.001722105,0.9770901960753805,0.4779702672877259,2.044248906150468
-0.001721475,0.9770901960753805,0.4816523596179151,2.028621217283117
-0.001720845,0.9770901960753805,0.4816523596179151,2.028621217283117
-0.001720215,0.9807405605074523,0.4853344519481044,2.020751991890986
-0.001719585,0.9770901960753822,0.4853344519481044,2.013230653940594
-0.001718955,0.9770901960753805,0.4853344519481044,2.013230653940591
-0.001718325,0.9770901960753805,0.4816523596179151,2.028621217283117
-0.001717695,0.9770901960753805,0.4779702672877276,2.044248906150461
-0.001717065,0.9734398316433086,0.4779702672877259,2.036611685423777
-0.001716435,0.9734398316433069,0.4816523596179135,2.021042380889652
-0.001715805,0.9697894672112368,0.4779702672877259,2.028974464697086
-0.001715175,0.9697894672112368,0.4816523596179151,2.013463544496181
-0.001714545,0.9697894672112368,0.4779702672877276,2.028974464697079
-0.001713915,0.9697894672112368,0.4816523596179151,2.013463544496181
-0.001713285,0.9661391027791649,0.4816523596179151,2.005884708102713
-0.001712655,0.9661391027791649,0.4816523596179151,2.005884708102713
-0.001712025,0.9588383739150212,0.4816523596179151,1.990727035315778
-0.001711395,0.9624887383470947,0.4816523596179135,1.998305871709256
-0.001710765,0.9661391027791649,0.4779702672877259,2.021337243970395
-0.001710135,0.9661391027791649,0.4742881749575366,2.037029708500879
-0.001709505,0.9661391027791649,0.4742881749575366,2.037029708500879
-0.001708875,0.9697894672112368,0.4779702672877259,2.028974464697086
-0.001708245,0.9661391027791649,0.4742881749575366,2.037029708500879
-0.001707615,0.9588383739150246,0.4779702672877242,2.006062802517028
-0.001706985,0.962488738347093,0.4742881749575366,2.029333196918235
-0.001706355,0.9661391027791616,0.4779702672877259,2.021337243970388
-0.001705725,0.9588383739150212,0.4779702672877259,2.006062802517013
-0.001705095,0.9515376450508775,0.4816523596179151,1.975569362528843
-0.001704465,0.9515376450508775,0.4853344519481011,1.960581288287833
-0.001703835,0.9515376450508775,0.4779702672877259,1.990788361063631
-0.001703205,0.9515376450508775,0.4779702672877259,1.990788361063631
-0.001702575,0.9515376450508775,0.4779702672877259,1.990788361063631
-0.001701945,0.9551880094829494,0.4779702672877259,1.998425581790322
-0.001701315,0.9515376450508741,0.4779702672877259,1.990788361063624
-0.001700685,0.9442369161867338,0.4779702672877259,1.975513919610249
-0.001700055,0.9478872806188057,0.4779702672877259,1.98315114033694
-0.001699425,0.9478872806188023,0.4779702672877276,1.983151140336926
-0.001698795,0.940586551754662,0.4816523596179151,1.95283285334844
-0.001698165,0.940586551754662,0.4779702672877259,1.967876698883558
-0.001697535,0.940586551754662,0.4779702672877259,1.967876698883558
-0.001696905,0.9332858228905182,0.4742881749575366,1.967761104257082
-0.001696275,0.9296354584584464,0.4779702672877259,1.944965036703485
-0.001695645,0.9296354584584464,0.4706060826273474,1.975400431010971
-0.001695015,0.9332858228905182,0.4779702672877259,1.952602257430176
-0.001694385,0.9332858228905165,0.4816523596179135,1.937675180561507
-0.001693755,0.9296354584584464,0.4779702672877259,1.944965036703485
-0.001693125,0.9332858228905182,0.4706060826273474,1.983157161250606
-0.001692495,0.9296354584584481,0.4669239902971598,1.990978141574626
-0.001691865,0.9296354584584464,0.4706060826273474,1.975400431010971
-0.001691235,0.9296354584584464,0.4706060826273474,1.975400431010971
-0.001690605,0.9259850940263745,0.4706060826273474,1.967643700771335
-0.001689975,0.9259850940263745,0.4706060826273474,1.967643700771335
-0.001689345,0.9223347295943027,0.4742881749575349,1.944671569509156
-0.001688715,0.9223347295943027,0.4706060826273474,1.9598869705317
-0.001688085,0.9259850940263745,0.4706060826273474,1.967643700771335
-0.001687455,0.9223347295943044,0.4742881749575349,1.94467156950916
-0.001686825,0.9223347295943027,0.4706060826273474,1.9598869705317
-0.001686195,0.9186843651622308,0.4669239902971581,1.967524445633142
-0.001685565,0.9186843651622308,0.4706060826273457,1.952130240292072
-0.001684935,0.9150340007301589,0.4706060826273474,1.944373510052429
-0.001684305,0.9113836362980855,0.4742881749575366,1.921582034761213
-0.001683675,0.9077332718660153,0.4742881749575366,1.913885523178573
-0.001683045,0.9040829074339434,0.4742881749575366,1.906189011595928
-0.001682415,0.9077332718660136,0.470606082627349,1.928860049573148
-0.001681785,0.9077332718660153,0.4706060826273474,1.928860049573159
-0.001681155,0.9004325430018716,0.4706060826273474,1.913346589093888
-0.001680525,0.9004325430018716,0.4742881749575349,1.898492500013291
-0.001679895,0.8967821785697997,0.4706060826273474,1.905589858854253
-0.001679265,0.9004325430018699,0.4742881749575349,1.898492500013288
-0.001678635,0.8967821785697997,0.4706060826273474,1.905589858854253
-0.001678005,0.8967821785697997,0.4632418979669689,1.935883136878401
-0.001677375,0.8967821785697997,0.4632418979669689,1.935883136878401
-0.001676745,0.889481449705656,0.4669239902971581,1.904981256455843
-0.001676115,0.8931318141377279,0.4669239902971581,1.912799155103005
-0.001675485,0.8931318141377279,0.4595598056367829,1.943450674282038
-0.001674855,0.8858310852735841,0.4632418979669689,1.912243018520634
-0.001674225,0.8858310852735825,0.4669239902971565,1.897163357808684
-0.001673595,0.8821807208415123,0.4632418979669689,1.904362979068045
-0.001672965,0.8748799919773687,0.4595598056367796,1.903734794136552
-0.001672335,0.8712296275452968,0.4595598056367813,1.895791618107445
-0.001671705,0.8712296275452968,0.4632418979669689,1.880722860710279
-0.001671075,0.8748799919773687,0.4632418979669689,1.888602900162868
-0.001670445,0.8748799919773687,0.4595598056367813,1.903734794136545
-0.001669815,0.8748799919773687,0.4595598056367796,1.903734794136552
-0.001669185,0.8748799919773653,0.4632418979669655,1.888602900162874
-0.001668555,0.8675792631132249,0.4558777133065903,1.903096461593756
-0.001667925,0.8639288986811531,0.4558777133065903,1.895089129088741
-0.001667295,0.8639288986811531,0.4595598056367796,1.879905266049253
-0.001666665,0.8639288986811531,0.4595598056367796,1.879905266049253
-0.001666035,0.8602785342490812,0.4595598056367796,1.871962090020153
-0.001665405,0.8602785342490812,0.455877713306592,1.887081796583719
-0.001664775,0.8602785342490812,0.4595598056367796,1.871962090020153
-0.001664145,0.8529778053849375,0.4595598056367813,1.856075737961947
-0.001663515,0.8529778053849375,0.4632418979669689,1.841322663447335
-0.001662885,0.8493274409528656,0.4558777133065903,1.86305979906868
-0.001662255,0.8493274409528656,0.4521956209764011,1.878230132169258
-0.001661625,0.8493274409528656,0.4521956209764011,1.878230132169258
-0.001660995,0.8456770765207938,0.4521956209764011,1.870157598374725
-0.001660365,0.8383763476566534,0.4558777133065887,1.839037801553649
-0.001659735,0.83837634765665,0.4485135286462118,1.86923313146695
-0.001659105,0.83837634765665,0.4521956209764011,1.854012530785659
-0.001658475,0.83837634765665,0.4521956209764011,1.854012530785659
-0.001657845,0.8347259832245782,0.4448314363160226,1.876499534604749
-0.001657215,0.8310756187925047,0.4485135286462135,1.852955520206962
-0.001656585,0.8274252543604345,0.4521956209764011,1.82979492940206
-0.001655955,0.8237748899283627,0.4521956209764011,1.821722395607527
-0.001655325,0.8237748899283627,0.4411493439858383,1.86733790077858
-0.001654695,0.8201245254962908,0.4411493439858333,1.859063232615002
-0.001654065,0.8201245254962908,0.4411493439858333,1.859063232615002
-0.001653435,0.816474161064219,0.4448314363160226,1.835468661626175
-0.001652805,0.816474161064219,0.4448314363160226,1.835468661626175
-0.001652175,0.8201245254962891,0.4411493439858316,1.859063232615006
-0.001651545,0.816474161064219,0.437467251655644,1.866366357651186
-0.001650915,0.8128237966321471,0.437467251655644,1.858022042920753
-0.001650285,0.8055230677680068,0.437467251655644,1.841333413459897
-0.001649655,0.7982223389038597,0.4411493439858333,1.809415223633412
-0.001649025,0.7982223389038597,0.4337851593254547,1.840132890081147
-0.001648395,0.7982223389038597,0.4374672516556424,1.824644783999032
-0.001647765,0.7945719744717878,0.437467251655644,1.816300469268593
-0.001647135,0.7945719744717845,0.4411493439858316,1.801140555469813
-0.001646505,0.7872712456076442,0.437467251655644,1.799611839807729
-0.001645875,0.7836208811755723,0.4337851593254547,1.806472315452469
-0.001645245,0.7836208811755723,0.4337851593254547,1.806472315452469
-0.001644615,0.7836208811755723,0.4301030669952655,1.821937440832521
-0.001643985,0.7799705167435004,0.4264209746650762,1.829109173994343
