2020_assignments/jhuffer1_ADC/lab5_1.csv

#Digilent WaveForms Oscilloscope Acquisition
#Device Name: Discovery2
#Serial Number: SN:210321AE36B6
#Date Time: 2020-10-19 11:23:10.753
#Sample rate: 160000Hz
#Samples: 8192
#Trigger: Source: Channel 2 Type: Edge Condition: Rising Level: 2 V Hyst.: Auto HoldOff: 0 s
#Channel 1: Range: 1 V/div Offset: 0 V Attenuation: 1 X
#Channel 2: Range: 1 V/div Offset: 0 V Attenuation: 1 X
#Wavegen Channel 1: Running
#Mode: Simple
#Type: Sine
#Frequency: 100 Hz
#Period: 10 ms
#Amplitude: 3 V
#Offset: 0 V
#Symmetry: 50 %
#Phase: 0 °
#Wavegen Channel 2: Running
#Mode: Simple
#Type: DC
#Offset: 3 V
#Power Supplies: ON
#Positive Supply: ON
#Voltage: 4 V
#Negative Supply: ON
#Voltage: -4 V

Time (s),Channel 1 (V),Channel 2 (V)
-0.02559980432780847,1.113075578227352,2.994249739582775
-0.02559355432780847,1.102154459802197,2.994249739582775
-0.02558730432780847,1.091233341377051,2.994249739582775
-0.02558105432780847,1.080312222951901,2.990565146611651
-0.02557480432780847,1.069391104526751,2.994249739582775
-0.02556855432780847,1.054829613293217,2.994249739582775
-0.02556230432780847,1.043908494868064,2.994249739582773
-0.02555605432780847,1.0366277492513,2.990565146611651
-0.02554980432780847,1.022066258017767,2.994249739582775
-0.02554355432780847,1.014785512401,2.994249739582775
-0.02553730432780847,1.00386439397585,2.994249739582775
-0.02553105432780847,0.9893029027423128,2.994249739582775
-0.02552480432780847,0.9820221571255493,2.994249739582775
-0.02551855432780847,0.9674606658920157,2.990565146611651
-0.02551230432780847,0.9565395474668654,2.994249739582775
-0.02550605432780847,0.9456184290417152,2.994249739582775
-0.02549980432780847,0.9310569378081767,2.990565146611651
-0.02549355432780847,0.9201358193830315,2.990565146611651
-0.02548730432780847,0.9092147009578813,2.990565146611651
-0.02548105432780847,0.8982935825327311,2.990565146611651
-0.02547480432780847,0.8873724641075809,2.994249739582775
-0.02546855432780847,0.8764513456824257,2.994249739582773
-0.02546230432780847,0.8655302272572805,2.990565146611651
-0.02545605432780847,0.8546091088321303,2.994249739582775
-0.02544980432780847,0.8436879904069801,2.994249739582775
-0.02544355432780847,0.8327668719818299,2.994249739582775
-0.02543730432780847,0.8218457535566729,2.994249739582775
-0.02543105432780847,0.807284262323146,2.994249739582775
-0.02542480432780847,0.7963631438979958,2.994249739582775
-0.02541855432780847,0.7854420254728456,2.990565146611651
-0.02541230432780847,0.7745209070476954,2.990565146611651
-0.02540605432780847,0.7635997886225385,2.994249739582776
-0.02539980432780847,0.7490382973890115,2.997934332553898
-0.02539355432780847,0.7417575517722448,2.990565146611651
-0.02538730432780847,0.7308364333470946,2.994249739582775
-0.02538105432780847,0.7162749421135609,2.994249739582775
-0.02537480432780847,0.7053538236884157,2.990565146611653
-0.02536855432780847,0.6944327052632605,2.994249739582775
-0.02536230432780847,0.6835115868381103,2.994249739582775
-0.02535605432780847,0.6725904684129601,2.990565146611651
-0.02534980432780847,0.6616693499878099,2.994249739582775
-0.02534355432780847,0.647107858754283,2.994249739582775
-0.02533730432780847,0.6398271131375095,2.994249739582775
-0.02533105432780847,0.6252656219039758,2.994249739582775
-0.02532480432780847,0.6107041306704423,2.997934332553898
-0.02531855432780847,0.6034233850536754,2.997934332553898
-0.02531230432780847,0.5925022666285302,2.990565146611655
-0.02530605432780847,0.5779407753949917,2.994249739582775
-0.02529980432780847,0.5706600297782248,2.997934332553898
-0.02529355432780847,0.5560985385446913,2.994249739582775
-0.02528730432780847,0.5451774201195411,2.997934332553898
-0.02528105432780847,0.5342563016943959,2.994249739582776
-0.02527480432780847,0.5196948104608572,2.990565146611651
-0.02526855432780847,0.508773692035707,2.994249739582775
-0.02526230432780847,0.5014929464189403,2.994249739582775
-0.02525605432780847,0.4869314551854066,2.994249739582775
-0.02524980432780847,0.4760103367602613,2.994249739582775
-0.02524355432780847,0.4650892183351062,2.994249739582775
-0.02523730432780847,0.4505277271015726,2.990565146611651
-0.02523105432780847,0.4432469814848058,2.994249739582775
-0.02522480432780847,0.4286854902512722,2.994249739582775
-0.02521855432780847,0.4141239990177452,2.994249739582775
-0.02521230432780847,0.4104836262093551,2.994249739582775
-0.02520605432780847,0.3922817621674382,2.994249739582775
-0.02519980432780847,0.381360643742288,2.994249739582775
-0.02519355432780847,0.3704395253171378,2.997934332553898
-0.02518730432780847,0.3595184068919925,2.994249739582776
-0.02518105432780847,0.3485972884668374,2.994249739582775
-0.02517480432780847,0.3376761700416871,2.997934332553898
-0.02516855432780847,0.3231146788081535,2.997934332553898
-0.02516230432780847,0.3158339331913867,2.997934332553898
-0.02515605432780847,0.3012724419578597,2.994249739582776
-0.02514980432780847,0.2867109507243195,2.994249739582775
-0.02514355432780847,0.2794302051075527,2.994249739582775
-0.02513730432780847,0.2648687138740191,2.994249739582775
-0.02513105432780847,0.2575879682572523,2.994249739582775
-0.02512480432780847,0.2430264770237253,2.994249739582775
-0.02511855432780847,0.2248246129818016,2.994249739582775
-0.02511230432780847,0.2175438673650348,2.994249739582775
-0.02510605432780847,0.2029823761315012,2.994249739582775
-0.02509980432780847,0.192061257706351,2.994249739582775
-0.02509355432780847,0.1811401392812058,2.997934332553896
-0.02508730432780847,0.1665786480476672,2.997934332553898
-0.02508105432780847,0.155657529622517,2.994249739582775
-0.02507480432780847,0.1483767840057502,2.994249739582775
-0.02506855432780847,0.1338152927722166,2.994249739582775
-0.02506230432780847,0.1228941743470714,2.994249739582775
-0.02505605432780847,0.1119730559219162,2.994249739582775
-0.02504980432780847,0.101051937496766,2.994249739582775
-0.02504355432780847,0.09013081907161577,2.994249739582775
-0.02503730432780847,0.07556932783808216,2.994249739582775
-0.02503105432780847,0.06464820941293196,2.994249739582775
-0.02502480432780847,0.05008671817939835,2.994249739582775
-0.02501855432780847,0.04280597256263155,2.994249739582775
-0.02501230432780847,0.02824448132909794,2.994249739582775
-0.02500605432780847,0.01732336290394773,2.655267186239459
-0.02499980432780847,0.002761871670414123,-0.005008938911345732
-0.02499355432780847,-0.01179961956311949,-0.01606271782471472
-0.02498730432780847,-0.01908036517988629,-0.005008938911345732
-0.02498105432780847,-0.0300014836050365,-0.005008938911345732
-0.02497480432780847,-0.04456297483857011,0.002360247030900264
-0.02496855432780847,-0.05548409326372031,0.01341402594426926
-0.02496230432780847,-0.06640521168887052,0.02078321188651525
-0.02495605432780847,-0.07732633011402072,0.02078321188651525
-0.02494980432780847,-0.08824744853917094,0.02815239782876125
-0.02494355432780847,-0.1028089397727045,0.03183699079988425
-0.02493730432780847,-0.1100896853894713,0.03552158377100725
-0.02493105432780847,-0.1210108038146282,0.03920617674213191
-0.02492480432780847,-0.1355722950481552,0.04289076971325324
-0.02491855432780847,-0.1464934134733054,0.04289076971325324
-0.02491230432780847,-0.161054904706839,0.04289076971325324
-0.02490605432780847,-0.1683356503236058,0.04657536268437624
-0.02489980432780847,-0.182897141557146,0.04289076971325492
-0.02489355432780847,-0.197458632790673,0.04657536268437624
-0.02488730432780847,-0.2047393784074398,0.05025995565549924
-0.02488105432780847,-0.21566049683259,0.05025995565549924
-0.02487480432780847,-0.233862360874507,0.05025995565549924
-0.02486855432780847,-0.2411431064912788,0.04657536268437791
-0.02486230432780847,-0.2520642249164241,0.05025995565549924
-0.02485605432780847,-0.2666257161499576,0.05025995565549924
-0.02484980432780847,-0.2739064617667245,0.05025995565549924
-0.02484355432780847,-0.2921083258086414,0.05394454862662224
-0.02483730432780847,-0.303029444233795,0.05025995565549924
-0.02483105432780847,-0.3103101898505585,0.05025995565549924
-0.02482480432780847,-0.3212313082757087,0.05394454862662224
-0.02481855432780847,-0.3357927995092423,0.05394454862662224
-0.02481230432780847,-0.3467139179343925,0.05394454862662224
-0.02480605432780847,-0.3576350363595476,0.05394454862662224
-0.02479980432780847,-0.3685561547846929,0.05394454862662224
-0.02479355432780847,-0.3831176460182265,0.05025995565549924
-0.02478730432780847,-0.3976791372517601,0.05394454862662224
-0.02478105432780847,-0.4049598828685269,0.05394454862662224
-0.02477480432780847,-0.4158810012936837,0.05025995565549924
-0.02476855432780847,-0.4304424925272107,0.05025995565549924
-0.02476230432780847,-0.4377232381439775,0.05025995565549924
-0.02475605432780847,-0.4522847293775111,0.05025995565549924
-0.02474980432780847,-0.4632058478026613,0.05025995565549924
-0.02474355432780847,-0.4777673390362016,0.05394454862662224
-0.02473730432780847,-0.4923288302697286,0.05394454862662224
-0.02473105432780847,-0.4996095758864953,0.05025995565549924
-0.02472480432780847,-0.5105306943116455,0.05025995565549924
-0.02471855432780847,-0.5250921855451792,0.05025995565549924
-0.02471230432780847,-0.5360133039703328,0.05025995565549924
-0.02470605432780847,-0.5432940495870962,0.05025995565549924
-0.02469980432780847,-0.5578555408206298,0.05394454862662224
-0.02469355432780847,-0.56877665924578,0.05025995565549924
-0.02468730432780847,-0.5796977776709302,0.05025995565549924
-0.02468105432780847,-0.5906188960960854,0.05025995565550091
-0.02467480432780847,-0.6015400145212306,0.05394454862662224
-0.02466855432780847,-0.6161015057547642,0.05025995565549924
-0.02466230432780847,-0.6270226241799144,0.05025995565549924
-0.02465605432780847,-0.6379437426050647,0.05394454862662224
-0.02464980432780847,-0.6488648610302199,0.05394454862662056
-0.02464355432780847,-0.6597859794553651,0.05025995565549924
-0.02463730432780847,-0.6743474706888987,0.05025995565549924
-0.02463105432780847,-0.6852685891140489,0.05394454862662224
-0.02462480432780847,-0.6925493347308157,0.05394454862662224
-0.02461855432780847,-0.7071108259643559,0.05025995565550091
-0.02461230432780847,-0.7216723171978829,0.05394454862662224
-0.02460605432780847,-0.7289530628146497,0.05394454862662224
-0.02459980432780847,-0.7398741812397999,0.04657536268437624
-0.02459355432780847,-0.7544356724733335,0.05025995565549924
-0.02458730432780847,-0.7653567908984787,0.05394454862662056
-0.02458105432780847,-0.7762779093236339,0.05025995565549924
-0.02457480432780847,-0.7871990277487841,0.05394454862662224
-0.02456855432780847,-0.7981201461739343,0.05394454862662224
-0.02456230432780847,-0.8163220102158514,0.05394454862662224
-0.02455605432780847,-0.8199623830242331,0.05394454862662224
-0.02454980432780847,-0.8308835014493849,0.05394454862662224
-0.02454355432780847,-0.8454449926829186,0.05394454862662224
-0.02453730432780847,-0.8527257382996853,0.05025995565549924
-0.02453105432780847,-0.867287229533219,0.05025995565549924
-0.02452480432780847,-0.8782083479583642,0.05025995565549924
-0.02451855432780847,-0.8927698391919028,0.05025995565549924
-0.02451230432780847,-0.9000505848086696,0.05025995565549924
-0.02450605432780847,-0.9073313304254365,0.05394454862662224
-0.02449980432780847,-0.92189282165897,0.05025995565549924
-0.02449355432780847,-0.9328139400841152,0.05394454862662056
-0.02448730432780847,-0.9437350585092704,0.05394454862662224
-0.02448105432780847,-0.958296549742804,0.05394454862662224
-0.02447480432780847,-0.9692176681679543,0.05025995565549924
-0.02446855432780847,-0.976498413784721,0.05394454862662224
-0.02446230432780847,-0.991059905018248,0.05394454862662224
-0.02445605432780847,-1.001981023443405,0.05025995565549924
-0.02444980432780847,-1.009261769060172,0.05394454862662224
-0.02444355432780847,-1.023823260293705,0.05394454862662224
-0.02443730432780847,-1.034744378718855,0.05394454862662224
-0.02443105432780847,-1.042025124335619,0.05394454862662224
-0.02442480432780847,-1.056586615569156,0.05394454862662224
-0.02441855432780847,-1.063867361185923,0.05394454862662224
-0.02441230432780847,-1.078428852419456,0.05394454862662224
-0.02440605432780847,-1.089349970844607,0.05394454862662224
-0.02439980432780847,-1.100271089269752,0.05762914159774356
-0.02439355432780847,-1.111192207694907,0.05025995565549924
-0.02438730432780847,-1.118472953311674,0.05394454862662224
-0.02438105432780847,-1.129394071736824,0.05394454862662224
-0.02437480432780847,-1.140315190161974,0.05394454862662224
-0.02436855432780847,-1.15123630858712,0.05394454862662224
-0.02436230432780847,-1.162157427012275,0.05762914159774524
-0.02435605432780847,-1.176718918245808,0.05394454862662224
-0.02434980432780847,-1.187640036670958,0.05394454862662224
-0.02434355432780847,-1.194920782287725,0.05394454862662224
-0.02433730432780847,-1.209482273521252,0.05394454862662224
-0.02433105432780847,-1.216763019138026,0.05394454862662224
-0.02432480432780847,-1.227684137563176,0.05394454862662224
-0.02431855432780847,-1.238605255988326,0.05394454862662224
-0.02431230432780847,-1.249526374413476,0.05394454862662224
-0.02430605432780847,-1.260447492838622,0.05394454862662224
-0.02429980432780847,-1.271368611263777,0.05762914159774524
-0.02429355432780847,-1.28593010249731,0.05394454862662224
-0.02428730432780847,-1.296851220922461,0.05394454862662224
-0.02428105432780847,-1.307772339347611,0.05394454862662224
-0.02427480432780847,-1.315053084964374,0.05394454862662224
-0.02426855432780847,-1.325974203389528,0.05025995565549924
-0.02426230432780847,-1.336895321814678,0.05394454862662224
-0.02425605432780847,-1.347816440239828,0.05394454862662224
-0.02424980432780847,-1.358737558664978,0.05025995565549924
-0.02424355432780847,-1.366018304281745,0.05394454862662224
-0.02423730432780847,-1.380579795515279,0.05394454862662224
-0.02423105432780847,-1.391500913940429,0.05025995565549924
-0.02422480432780847,-1.402422032365579,0.05025995565549924
-0.02421855432780847,-1.413343150790729,0.05394454862662224
-0.02421230432780847,-1.42426426921588,0.05025995565549924
-0.02420605432780847,-1.431545014832646,0.05394454862662224
-0.02419980432780847,-1.44610650606618,0.05394454862662224
-0.02419355432780847,-1.449746878874563,0.05394454862662224
-0.02418730432780847,-1.46794874291648,0.04657536268437624
-0.02418105432780847,-1.47886986134163,0.05394454862662224
-0.02417480432780847,-1.482510234150021,0.05394454862662056
-0.02416855432780847,-1.497071725383547,0.05025995565549924
-0.02416230432780847,-1.504352471000314,0.05025995565549924
-0.02415605432780847,-1.515273589425465,0.05394454862662224
-0.02414980432780847,-1.522554335042231,0.05394454862662224
-0.02414355432780847,-1.533475453467386,0.05025995565550091
-0.02413730432780847,-1.544396571892532,0.05394454862662224
-0.02413105432780847,-1.551677317509299,0.05394454862662224
-0.02412480432780847,-1.558958063126065,0.05025995565549924
-0.02411855432780847,-1.573519554359599,0.05394454862662224
-0.02411230432780847,-1.584440672784752,0.05394454862662056
-0.02410605432780847,-1.591721418401516,0.05025995565549924
-0.02409980432780847,-1.602642536826666,0.05025995565549924
-0.02409355432780847,-1.6172040280602,0.05025995565549924
-0.02408730432780847,-1.624484773676967,0.05025995565549924
-0.02408105432780847,-1.63540589210212,0.05025995565549924
-0.02407480432780847,-1.642686637718884,0.05025995565549924
-0.02406855432780847,-1.657248128952417,0.05025995565549924
-0.02406230432780847,-1.668169247377568,0.05025995565549924
-0.02405605432780847,-1.675449992994334,0.05025995565549924
-0.02404980432780847,-1.682730738611108,0.05394454862662056
-0.02404355432780847,-1.697292229844635,0.05025995565549924
-0.02403730432780847,-1.697292229844635,0.05025995565549924
-0.02403105432780847,-1.711853721078168,0.05394454862662224
-0.02402480432780847,-1.722774839503318,0.05394454862662224
-0.02401855432780847,-1.733695957928475,0.05025995565550091
-0.02401230432780847,-1.748257449162002,0.05394454862662224
-0.02400605432780847,-1.755538194778769,0.05025995565549924
-0.02399980432780847,-1.759178567587153,0.05025995565549924
-0.02399355432780847,-1.770099686012303,0.05394454862662224
-0.02398730432780847,-1.781020804437458,0.05025995565549924
-0.02398105432780847,-1.791941922862603,0.05025995565549924
-0.02397480432780847,-1.802863041287753,0.05394454862662224
-0.02396855432780847,-1.806503414096137,0.05025995565549924
-0.02396230432780847,-1.817424532521287,0.05025995565549924
-0.02395605432780847,-1.82834565094644,0.05025995565549757
-0.02394980432780847,-1.835626396563204,0.04657536268437624
-0.02394355432780847,-1.846547514988354,0.05394454862662224
-0.02393730432780847,-1.857468633413504,0.05025995565549924
-0.02393105432780847,-1.864749379030271,0.05394454862662224
-0.02392480432780847,-1.875670497455425,0.05762914159774189
-0.02391855432780847,-1.882951243072188,0.05025995565549924
-0.02391230432780847,-1.890231988688955,0.05025995565549924
-0.02390605432780847,-1.901153107114105,0.05394454862662224
-0.02389980432780847,-1.908433852730872,0.05394454862662224
-0.02389355432780847,-1.919354971156027,0.05394454862662056
-0.02388730432780847,-1.930276089581172,0.05025995565549924
-0.02388105432780847,-1.937556835197939,0.05025995565549924
-0.02387480432780847,-1.944837580814706,0.05025995565549924
-0.02386855432780847,-1.955758699239856,0.05025995565549924
-0.02386230432780847,-1.959399072048246,0.05394454862662056
-0.02385605432780847,-1.973960563281773,0.05025995565549924
-0.02384980432780847,-1.98124130889854,0.05025995565549924
-0.02384355432780847,-1.988522054515307,0.05025995565549924
-0.02383730432780847,-1.999443172940457,0.05025995565549924
-0.02383105432780847,-2.006723918557229,0.05025995565549924
-0.02382480432780847,-2.017645036982374,0.05025995565549924
-0.02381855432780847,-2.024925782599141,0.05394454862662224
-0.02381230432780847,-2.028566155407524,0.05025995565549924
-0.02380605432780847,-2.043127646641058,0.05025995565549924
-0.02379980432780847,-2.050408392257821,0.05025995565549924
-0.02379355432780847,-2.057689137874592,0.05025995565549924
-0.02378730432780847,-2.068610256299742,0.05025995565549924
-0.02378105432780847,-2.079531374724892,0.05025995565549924
-0.02377480432780847,-2.083171747533275,0.05394454862662224
-0.02376855432780847,-2.094092865958421,0.05394454862662224
-0.02376230432780847,-2.101373611575192,0.05394454862662224
-0.02375605432780847,-2.108654357191959,0.05394454862662224
-0.02374980432780847,-2.115935102808726,0.05025995565549924
-0.02374355432780847,-2.123215848425493,0.05394454862662224
-0.02373730432780847,-2.134136966850638,0.05394454862662224
-0.02373105432780847,-2.145058085275793,0.05394454862662224
-0.02372480432780847,-2.15233883089256,0.05394454862662224
-0.02371855432780847,-2.159619576509327,0.05394454862662224
-0.02371230432780847,-2.166900322126094,0.05394454862662224
-0.02370605432780847,-2.174181067742857,0.05394454862662224
-0.02369980432780847,-2.18510218616801,0.05025995565549924
-0.02369355432780847,-2.192382931784778,0.05394454862662224
-0.02368730432780847,-2.199663677401544,0.05025995565549924
-0.02368105432780847,-2.210584795826694,0.05394454862662224
-0.02367480432780847,-2.217865541443458,0.05025995565550091
-0.02366855432780847,-2.221505914251845,0.05394454862662224
-0.02366230432780847,-2.228786659868612,0.05025995565549924
-0.02365605432780847,-2.239707778293762,0.05394454862662224
-0.02364980432780847,-2.246988523910528,0.05394454862662224
-0.02364355432780847,-2.254269269527292,0.05394454862662224
-0.02363730432780847,-2.257909642335679,0.05394454862662224
-0.02363105432780847,-2.272471133569212,0.05394454862662224
-0.02362480432780847,-2.279751879185979,0.05025995565549924
-0.02361855432780847,-2.283392251994362,0.05025995565549924
-0.02361230432780847,-2.290672997611126,0.05394454862662056
-0.02360605432780847,-2.297953743227896,0.05394454862662224
-0.02359980432780847,-2.308874861653046,0.05394454862662224
-0.02359355432780847,-2.316155607269813,0.05394454862662224
-0.02358730432780847,-2.319795980078196,0.05762914159774524
