2020_assignments/jhuffer1_diode/3L_1_1_square_200Hz_.csv

#Digilent WaveForms Oscilloscope Acquisition
#Device Name: Discovery2
#Serial Number: SN:210321AE36B6
#Date Time: 2020-09-20 21:02:31.234
#Sample rate: 1.53846e+06Hz
#Samples: 8192
#Trigger: Source: Channel 1 Type: Edge Condition: Rising Level: 0 V Hyst.: Auto HoldOff: 0 s
#Channel 1: Range: 500 mV/div Offset: 0 V Attenuation: 1 X
#Channel 2: Range: 20 mV/div Offset: 0 V Attenuation: 1 X
#Wavegen Channel 1: Running
#Mode: Simple
#Type: Square
#Frequency: 200 Hz
#Period: 5 ms
#Amplitude: 1 V
#Offset: 0 V
#Symmetry: 50 %
#Phase: 0 °

Time (s),Channel 1 (V),Channel 2 (V)
-0.002662234134615385,1.005012369815701,0.0008316878716858448
-0.002661584134615385,1.004349626530831,0.001166959489315001
-0.002660934134615385,1.003686883245961,0.001166959489315001
-0.002660284134615385,1.003686883245961,0.0004964162540566886
-0.002659634134615385,1.003686883245961,0.0004964162540566886
-0.002658984134615384,1.003355511603526,0.0004964162540566886
-0.002658334134615384,1.003024139961091,0.0004964162540566886
-0.002657684134615384,1.003355511603526,0.0004964162540566886
-0.002657034134615384,1.004018254888396,0.0004964162540566886
-0.002656384134615385,1.004018254888396,0.0004964162540566886
-0.002655734134615385,1.004349626530831,0.0004964162540566886
-0.002655084134615385,1.003686883245961,0.0008316878716858448
-0.002654434134615385,1.004018254888396,0.0008316878716858448
-0.002653784134615385,1.003686883245961,0.0008316878716858448
-0.002653134134615385,1.003686883245961,0.0004964162540566886
-0.002652484134615384,1.002692768318656,0.0004964162540566886
-0.002651834134615384,1.002692768318656,0.0001611446364275325
-0.002651184134615384,1.003355511603526,0.0004964162540566886
-0.002650534134615384,1.003686883245961,0.0008316878716858448
-0.002649884134615385,1.003686883245961,0.0008316878716858448
-0.002649234134615385,1.004018254888396,0.0008316878716858448
-0.002648584134615385,1.003686883245961,0.001166959489315001
-0.002647934134615385,1.003686883245961,0.0004964162540566886
-0.002647284134615385,1.003686883245961,0.0004964162540566886
-0.002646634134615385,1.004349626530831,0.0001611446364275325
-0.002645984134615384,1.004018254888396,0.0004964162540566886
-0.002645334134615384,1.004680998173266,0.0004964162540566886
-0.002644684134615384,1.004349626530831,0.0001611446364275325
-0.002644034134615384,1.004018254888396,0.000161144636427685
-0.002643384134615385,1.003686883245961,0.0004964162540565362
-0.002642734134615385,1.004349626530831,0.0004964162540566886
-0.002642084134615385,1.004018254888396,0.0004964162540566886
-0.002641434134615385,1.003686883245961,0.0008316878716858448
-0.002640784134615385,1.003686883245961,0.0004964162540566886
-0.002640134134615385,1.004018254888396,0.0001611446364275325
-0.002639484134615384,1.004349626530831,-0.0005093985988307797
-0.002638834134615384,1.004680998173266,-0.0001741269812016236
-0.002638184134615384,1.004018254888396,0.0001611446364275325
-0.002637534134615384,1.004018254888396,0.000161144636427685
-0.002636884134615384,1.004680998173266,0.0004964162540565362
-0.002636234134615385,1.004680998173266,0.000161144636427685
-0.002635584134615385,1.003355511603526,0.0001611446364275325
-0.002634934134615385,1.004018254888396,0.0001611446364275325
-0.002634284134615385,1.003686883245961,0.0008316878716858448
-0.002633634134615385,1.004018254888396,0.0008316878716858448
-0.002632984134615384,1.005012369815701,0.0004964162540566886
-0.002632334134615384,1.006006484743005,0.0001611446364275325
-0.002631684134615384,1.004680998173266,-0.0001741269812016236
-0.002631034134615384,1.004349626530831,0.000161144636427685
-0.002630384134615384,1.004018254888396,0.0004964162540566886
-0.002629734134615385,1.003686883245961,0.0004964162540566886
-0.002629084134615385,1.003686883245961,0.0001611446364275325
-0.002628434134615385,1.003686883245961,0.0001611446364275325
-0.002627784134615385,1.002692768318656,0.0004964162540566886
-0.002627134134615385,1.003024139961091,0.001166959489315001
-0.002626484134615384,1.003355511603526,0.0004964162540566886
-0.002625834134615384,1.004680998173266,0.0004964162540566886
-0.002625184134615384,1.005012369815701,0.0008316878716858448
-0.002624534134615384,1.005012369815701,0.0008316878716856924
-0.002623884134615384,1.004680998173265,0.0004964162540565362
-0.002623234134615385,1.003686883245961,0.000161144636427685
-0.002622584134615385,1.003686883245961,0.0004964162540566886
-0.002621934134615385,1.003355511603526,0.0001611446364275325
-0.002621284134615385,1.004018254888396,0.0001611446364275325
-0.002620634134615385,1.004349626530831,0.0001611446364275325
-0.002619984134615384,1.004349626530831,0.0001611446364275325
-0.002619334134615384,1.004349626530831,0.0008316878716858448
-0.002618684134615384,1.004018254888396,0.0008316878716858448
-0.002618034134615384,1.004018254888396,0.0004964162540565362
-0.002617384134615384,1.004349626530831,0.000161144636427685
-0.002616734134615385,1.004349626530831,0.0004964162540565362
-0.002616084134615385,1.004349626530831,0.0004964162540566886
-0.002615434134615385,1.004018254888396,0.0004964162540566886
-0.002614784134615385,1.003024139961091,0.0008316878716858448
-0.002614134134615385,1.002692768318656,0.0004964162540566886
-0.002613484134615384,1.003024139961091,0.0004964162540566886
-0.002612834134615384,1.003355511603526,0.0004964162540566886
-0.002612184134615384,1.003355511603526,0.0004964162540566886
-0.002611534134615384,1.003686883245961,0.0004964162540566886
-0.002610884134615384,1.004349626530831,0.0004964162540566886
-0.002610234134615385,1.004349626530831,0.0004964162540566886
-0.002609584134615385,1.004018254888396,0.001166959489314696
-0.002608934134615385,1.003355511603526,0.0004964162540566886
-0.002608284134615385,1.002361396676221,0.0001611446364275325
-0.002607634134615385,1.003024139961091,0.0004964162540566886
-0.002606984134615385,1.003686883245961,0.0004964162540566886
-0.002606334134615384,1.004018254888396,0.0004964162540566886
-0.002605684134615384,1.003355511603526,0.001166959489315001
-0.002605034134615384,1.003355511603526,0.0008316878716855399
-0.002604384134615384,1.003355511603526,0.0001611446364275325
-0.002603734134615385,1.003686883245961,0.0001611446364275325
-0.002603084134615385,1.003686883245961,0.0008316878716855399
-0.002602434134615385,1.002692768318656,0.0004964162540566886
-0.002601784134615385,1.003686883245961,0.0004964162540566886
-0.002601134134615385,1.004018254888396,0.0004964162540566886
-0.002600484134615385,1.004018254888396,0.0008316878716858448
-0.002599834134615384,1.003686883245961,0.0004964162540566886
-0.002599184134615384,1.004018254888396,-0.0001741269812016236
-0.002598534134615384,1.004018254888396,0.0001611446364275325
-0.002597884134615384,1.004018254888396,0.0001611446364273801
-0.002597234134615385,1.003355511603526,-0.0001741269812014711
-0.002596584134615385,1.004018254888396,0.0001611446364273801
-0.002595934134615385,1.004018254888396,0.0004964162540566886
-0.002595284134615385,1.003686883245961,0.0001611446364275325
-0.002594634134615385,1.003686883245961,0.0001611446364275325
-0.002593984134615385,1.004680998173266,0.0004964162540566886
-0.002593334134615384,1.005012369815701,0.0008316878716858448
-0.002592684134615384,1.004680998173266,0.0008316878716858448
-0.002592034134615384,1.005012369815701,0.0001611446364275325
-0.002591384134615384,1.005012369815701,0.000161144636427685
-0.002590734134615385,1.004680998173266,0.0004964162540565362
-0.002590084134615385,1.003355511603527,0.000161144636427685
-0.002589434134615385,1.003024139961091,0.0004964162540566886
-0.002588784134615385,1.003355511603526,0.0001611446364275325
-0.002588134134615385,1.004018254888396,0.0001611446364275325
-0.002587484134615385,1.003355511603526,0.0001611446364275325
-0.002586834134615384,1.003686883245961,0.0004964162540566886
-0.002586184134615384,1.003355511603526,0.0004964162540566886
-0.002585534134615384,1.003686883245961,0.0004964162540566886
-0.002584884134615384,1.003024139961091,0.0004964162540565362
-0.002584234134615385,1.003024139961091,0.000161144636427685
-0.002583584134615385,1.003686883245961,0.0004964162540565362
-0.002582934134615385,1.003355511603526,0.0008316878716858448
-0.002582284134615385,1.003355511603526,0.001166959489315001
-0.002581634134615385,1.003686883245961,0.0001611446364275325
-0.002580984134615385,1.003686883245961,0.0008316878716858448
-0.002580334134615384,1.003355511603526,0.0004964162540566886
-0.002579684134615384,1.004680998173266,0.0001611446364275325
-0.002579034134615384,1.003686883245961,-0.0001741269812016236
-0.002578384134615384,1.003686883245961,0.0004964162540566886
-0.002577734134615385,1.004018254888396,0.0004964162540566886
-0.002577084134615385,1.004018254888396,0.0004964162540566886
-0.002576434134615385,1.004018254888396,0.0001611446364275325
-0.002575784134615385,1.004349626530831,0.0004964162540566886
-0.002575134134615385,1.003355511603526,0.0001611446364275325
-0.002574484134615385,1.003355511603526,-0.0001741269812016236
-0.002573834134615384,1.003355511603526,-0.0001741269812016236
-0.002573184134615384,1.003355511603526,-0.0005093985988307797
-0.002572534134615384,1.003686883245961,-0.0005093985988307797
-0.002571884134615384,1.004349626530831,-0.0001741269812014711
-0.002571234134615384,1.004680998173266,0.000161144636427685
-0.002570584134615385,1.004349626530831,0.0004964162540565362
-0.002569934134615385,1.003686883245961,0.0004964162540566886
-0.002569284134615385,1.003686883245961,0.0004964162540566886
-0.002568634134615385,1.004018254888396,0.0001611446364275325
-0.002567984134615385,1.004680998173266,0.0004964162540566886
-0.002567334134615384,1.004349626530831,0.0004964162540566886
-0.002566684134615384,1.004349626530831,0.0004964162540566886
-0.002566034134615384,1.004018254888396,0.0008316878716858448
-0.002565384134615384,1.004018254888396,0.0001611446364273801
-0.002564734134615384,1.004018254888396,-0.0001741269812013186
-0.002564084134615385,1.003686883245961,0.0004964162540563837
-0.002563434134615385,1.003024139961091,0.0008316878716858448
-0.002562784134615385,1.004349626530831,0.0004964162540566886
-0.002562134134615385,1.003686883245961,0.0001611446364275325
-0.002561484134615385,1.003686883245961,0.0001611446364275325
-0.002560834134615384,1.003686883245961,0.0001611446364275325
-0.002560184134615384,1.003686883245961,0.0001611446364275325
-0.002559534134615384,1.003686883245961,0.0004964162540566886
-0.002558884134615384,1.003686883245961,0.0004964162540565362
-0.002558234134615384,1.004349626530831,0.0001611446364273801
-0.002557584134615385,1.004680998173266,-0.0001741269812014711
-0.002556934134615385,1.005012369815701,0.0001611446364275325
-0.002556284134615385,1.004349626530831,0.0001611446364275325
-0.002555634134615385,1.004680998173266,0.0004964162540566886
-0.002554984134615385,1.004680998173266,0.0004964162540566886
-0.002554334134615384,1.004680998173266,0.0004964162540566886
-0.002553684134615384,1.004349626530831,0.0008316878716858448
-0.002553034134615384,1.004349626530831,0.0004964162540566886
-0.002552384134615384,1.004018254888396,0.0004964162540565362
-0.002551734134615384,1.003355511603526,0.0001611446364278375
-0.002551084134615385,1.003355511603526,0.0008316878716855399
-0.002550434134615385,1.003686883245961,0.0008316878716858448
-0.002549784134615385,1.003355511603526,0.0004964162540566886
-0.002549134134615385,1.003024139961091,0.0004964162540566886
-0.002548484134615385,1.003686883245961,0.001166959489315001
-0.002547834134615385,1.004349626530831,0.001166959489315001
-0.002547184134615384,1.004349626530831,0.0008316878716858448
-0.002546534134615384,1.004018254888396,0.0008316878716858448
-0.002545884134615384,1.003355511603526,0.0004964162540568411
-0.002545234134615384,1.003024139961091,0.0008316878716858448
-0.002544584134615385,1.003686883245961,0.0008316878716858448
-0.002543934134615385,1.003686883245961,0.0008316878716858448
-0.002543284134615385,1.003024139961091,0.001166959489315001
-0.002542634134615385,1.003024139961091,0.0008316878716858448
-0.002541984134615385,1.003686883245961,0.001166959489315001
-0.002541334134615385,1.003355511603526,0.001166959489315001
-0.002540684134615384,1.003024139961091,0.001166959489315001
-0.002540034134615384,1.003024139961091,0.001166959489315001
-0.002539384134615384,1.003024139961091,0.001166959489315001
-0.002538734134615384,1.002692768318656,0.0008316878716856924
-0.002538084134615385,1.003024139961091,0.0004964162540568411
-0.002537434134615385,1.003686883245961,0.0004964162540566886
-0.002536784134615385,1.004018254888396,0.0008316878716858448
-0.002536134134615385,1.003355511603526,0.0004964162540566886
-0.002535484134615385,1.004349626530831,0.0001611446364275325
-0.002534834134615385,1.004349626530831,0.0004964162540566886
-0.002534184134615384,1.003686883245961,0.0004964162540566886
-0.002533534134615384,1.004018254888396,0.0004964162540566886
-0.002532884134615384,1.003686883245961,0.0004964162540566886
-0.002532234134615384,1.004018254888396,0.0004964162540569935
-0.002531584134615385,1.004349626530831,0.001166959489314696
-0.002530934134615385,1.003355511603526,0.001502231106944004
-0.002530284134615385,1.003355511603526,0.001166959489315001
-0.002529634134615385,1.004349626530831,0.0004964162540566886
-0.002528984134615385,1.004349626530831,0.0001611446364275325
-0.002528334134615385,1.003686883245961,0.0001611446364275325
-0.002527684134615384,1.003686883245961,0.0004964162540566886
-0.002527034134615384,1.004018254888396,0.0001611446364275325
-0.002526384134615384,1.003355511603526,0.0001611446364275325
-0.002525734134615384,1.003355511603526,0.000161144636427685
-0.002525084134615385,1.004018254888396,0.0004964162540565362
-0.002524434134615385,1.003686883245961,0.0004964162540566886
-0.002523784134615385,1.003024139961091,0.0004964162540566886
-0.002523134134615385,1.003355511603526,0.0004964162540566886
-0.002522484134615385,1.002692768318656,0.0004964162540566886
-0.002521834134615385,1.003024139961091,0.0008316878716858448
-0.002521184134615384,1.003355511603526,0.0008316878716858448
-0.002520534134615384,1.002692768318656,0.0008316878716858448
-0.002519884134615384,1.003686883245961,0.0004964162540566886
-0.002519234134615384,1.005012369815701,0.000161144636427685
-0.002518584134615385,1.004349626530831,0.0004964162540565362
-0.002517934134615385,1.004018254888396,0.0004964162540566886
-0.002517284134615385,1.004349626530831,-0.0001741269812016236
-0.002516634134615385,1.004018254888396,-0.0001741269812016236
-0.002515984134615385,1.003355511603526,0.0001611446364275325
-0.002515334134615385,1.003686883245961,0.0004964162540566886
-0.002514684134615384,1.005012369815701,0.0004964162540566886
-0.002514034134615384,1.005012369815701,0.0008316878716858448
-0.002513384134615384,1.004680998173266,-0.0001741269812016236
-0.002512734134615384,1.002692768318656,-0.0001741269812016236
-0.002512084134615384,1.003355511603526,-0.0001741269812014711
-0.002511434134615385,1.002692768318656,0.0001611446364273801
-0.002510784134615385,1.002692768318656,0.0004964162540566886
-0.002510134134615385,1.003355511603526,0.0001611446364275325
-0.002509484134615385,1.003355511603526,0.0001611446364275325
-0.002508834134615385,1.003686883245961,0.0008316878716858448
-0.002508184134615384,1.003686883245961,0.0008316878716858448
-0.002507534134615384,1.004018254888396,0.0001611446364275325
-0.002506884134615384,1.004349626530831,0.0001611446364275325
-0.002506234134615384,1.004349626530831,0.0004964162540566886
-0.002505584134615384,1.004018254888396,0.0004964162540565362
-0.002504934134615385,1.004349626530831,0.000161144636427685
-0.002504284134615385,1.004680998173266,0.0001611446364275325
-0.002503634134615385,1.003686883245961,0.0004964162540566886
-0.002502984134615385,1.004018254888396,0.0004964162540566886
-0.002502334134615385,1.003686883245961,0.0001611446364275325
-0.002501684134615384,1.004018254888396,0.0001611446364275325
-0.002501034134615384,1.003686883245961,-0.0001741269812016236
-0.002500384134615384,-0.4636267494559846,-0.0005093985988307797
-0.002499734134615384,-1.009395844546344,-0.002185756686976865
-0.002499084134615384,-1.012046817685821,-0.002856299922235787
-0.002498434134615385,-1.009395844546344,-0.004867929628008895
-0.002497784134615385,-1.007076243049298,-0.005873744480897277
-0.002497134134615385,-1.005088013194688,-0.007550102569043058
-0.002496484134615385,-1.003099783340078,-0.008220645804301371
-0.002495834134615385,-1.002768411697643,-0.009226460657188839
-0.002495184134615384,-1.001442925127904,-0.01023227551007631
-0.002494534134615384,-1.000448810200599,-0.01157336198059293
-0.002493884134615384,-1.000448810200599,-0.01291444845110955
-0.002493234134615384,-0.9997860669157287,-0.01392026330399733
-0.002492584134615384,-0.9994546952732939,-0.01459080653925564
-0.002491934134615385,-0.9991233236308591,-0.01526134977451334
-0.002491284134615385,-0.999123323630859,-0.01626716462740112
-0.002490634134615385,-0.999454695273294,-0.01727297948028858
-0.002489984134615385,-0.999123323630859,-0.01760825109791774
-0.002489334134615385,-0.9987919519884241,-0.01827879433317605
-0.002488684134615384,-0.9987919519884241,-0.01861406595080521
-0.002488034134615384,-0.999123323630859,-0.01861406595080521
-0.002487384134615384,-0.999123323630859,-0.01928460918606352
-0.002486734134615384,-0.9991233236308587,-0.01961988080369283
-0.002486084134615384,-0.9984605803459895,-0.01995515242132168
-0.002485434134615385,-0.9994546952732936,-0.01961988080369283
-0.002484784134615385,-0.999454695273294,-0.01928460918606367
-0.002484134134615385,-0.9987919519884241,-0.01894933756843437
-0.002483484134615385,-0.9977978370611192,-0.01894933756843437
-0.002482834134615385,-0.9981292087035541,-0.01827879433317605
-0.002482184134615385,-0.9984605803459891,-0.01827879433317605
-0.002481534134615384,-0.9987919519884241,-0.01727297948028858
-0.002480884134615384,-0.999123323630859,-0.01693770786265943
-0.002480234134615384,-0.9991233236308591,-0.01660243624503012
-0.002479584134615384,-0.9994546952732936,-0.01626716462740066
-0.002478934134615385,-0.9984605803459895,-0.01526134977451411
-0.002478284134615385,-0.9977978370611196,-0.01459080653925564
-0.002477634134615385,-0.9987919519884241,-0.01324972006873871
-0.002476984134615385,-0.9984605803459891,-0.01224390521585124
-0.002476334134615385,-0.9981292087035541,-0.01123809036296377
-0.002475684134615385,-0.999123323630859,-0.01056754712770546
-0.002475034134615384,-0.999454695273294,-0.008891189039559683
-0.002474384134615384,-0.9987919519884241,-0.007550102569043058
-0.002473734134615384,-0.9984605803459891,-0.006209016098526433
-0.002473084134615384,-0.9981292087035541,-0.005203201245638508
-0.002472434134615385,-0.9981292087035541,-0.004197386392751954
-0.002471784134615385,-0.9991233236308585,-0.003191571539864485
-0.002471134134615385,-0.9984605803459891,-0.002521028304605716
-0.002470484134615385,-0.999123323630859,-0.0001741269812016236
-0.002469834134615385,-0.9987919519884241,0.001502231106944157
-0.002469184134615385,-0.9987919519884241,0.002508045959831625
-0.002468534134615384,-0.999454695273294,0.003513860812719094
-0.002467884134615384,-0.9997860669157288,0.004854947283235718
-0.002467234134615384,-0.999454695273294,0.006196033753752342
-0.002466584134615384,-0.9991233236308589,0.007201848606640116
-0.002465934134615385,-0.9987919519884242,0.007872391841897818
-0.002465284134615385,-0.9997860669157284,0.009213478312414137
-0.002464634134615385,-0.9997860669157288,0.009884021547673059
-0.002463984134615385,-0.999123323630859,0.01122510801818968
-0.002463334134615385,-0.9984605803459891,0.01223092287107715
-0.002462684134615385,-0.9977978370611192,0.01357200934159378
-0.002462034134615384,-0.9987919519884241,0.01357200934159378
-0.002461384134615384,-0.9984605803459891,0.01457782419448124
-0.002460734134615384,-0.999123323630859,0.01558363904736871
-0.002460084134615384,-0.9991233236308587,0.01625418228262748
