2020_assignments/jhuffer1_diode/3L_1_1_sin_10kHz_.csv

#Digilent WaveForms Oscilloscope Acquisition
#Device Name: Discovery2
#Serial Number: SN:210321AE36B6
#Date Time: 2020-09-20 21:03:41.738
#Sample rate: 1.42857e+07Hz
#Samples: 8192
#Trigger: Source: Channel 1 Type: Edge Condition: Rising Level: 0 V Hyst.: Auto HoldOff: 0 s
#Channel 1: Range: 500 mV/div Offset: 0 V Attenuation: 1 X
#Channel 2: Range: 20 mV/div Offset: 0 V Attenuation: 1 X
#Wavegen Channel 1: Running
#Mode: Simple
#Type: Sine
#Frequency: 10 kHz
#Period: 100 us
#Amplitude: 1 V
#Offset: 0 V
#Symmetry: 50 %
#Phase: 0 °

Time (s),Channel 1 (V),Channel 2 (V)
-0.00028668,0.7432287722920926,0.00820766345952728
-0.00028661,0.7468738603588769,0.007537120224268967
-0.00028654,0.7495248334983579,0.007201848606639811
-0.00028647,0.752507178280271,0.007201848606639811
-0.0002864,0.7541640364924458,0.006531305371381498
-0.00028633,0.7591346111289708,0.006866576989010655
-0.00028626,0.7607914693411447,0.006866576989010655
-0.00028619,0.765430672335234,0.006196033753752342
-0.00028612,0.7677502738322791,0.006866576989010502
-0.00028605,0.7687443887595835,0.006531305371381498
-0.00028598,0.771726733541498,0.006866576989010655
-0.00028591,0.7753718216082836,0.006866576989010349
-0.00028584,0.777691423105327,0.006196033753752342
-0.00028577,0.7806737678872416,0.006866576989010655
-0.0002857,0.7836561126691578,0.007537120224268814
-0.00028563,0.7873012007359406,0.007201848606639811
-0.00028556,0.7902835455178551,0.006531305371381498
-0.00028549,0.7919404037300316,0.006866576989010502
-0.00028542,0.7959168634392474,0.006531305371381651
-0.00028535,0.7975737216514239,0.007201848606639811
-0.00028528,0.7998933231484702,0.005860762136123491
-0.00028521,0.8035384112152513,0.006531305371381193
-0.00028514,0.8042011545001229,0.006531305371381498
-0.00028507,0.807846242566909,0.006866576989010502
-0.000285,0.8114913306336899,0.006531305371381651
-0.00028493,0.8131481888458664,0.005860762136123186
-0.00028486,0.8167932769126517,0.006196033753752189
-0.00028479,0.8187815067672596,0.005860762136123339
-0.00028472,0.8207697366218701,0.006196033753752342
-0.00028465,0.8240834530462208,0.005860762136123033
-0.00028458,0.8264030545432632,0.005525490518494183
-0.00028451,0.8290540276827438,0.005860762136123186
-0.00028444,0.8317050008222243,0.005860762136123033
-0.00028437,0.8336932306768322,0.005525490518494183
-0.0002843,0.8370069471011826,0.00552549051849403
-0.00028423,0.8383324336709237,0.005860762136123033
-0.00028416,0.8413147784528355,0.005525490518494183
-0.00028409,0.8436343799498816,0.006531305371381498
-0.00028402,0.8456226098044929,0.005525490518493877
-0.00028395,0.849267697871274,0.005190218900865027
-0.00028388,0.8522500426531902,0.005860762136123186
-0.00028381,0.8512559277258867,0.004519675665607172
-0.00028374,0.8542382725077985,0.005860762136122576
-0.00028367,0.8575519889321493,0.005190218900864874
-0.0002836,0.8602029620716299,0.005190218900864874
-0.00028353,0.8625225635686724,0.005190218900864874
-0.00028346,0.8648421650657181,0.006196033753752342
-0.00028339,0.8664990232778942,0.005525490518493877
-0.00028332,0.869481368059806,0.005190218900865027
-0.00028325,0.8711382262719821,0.00552549051849403
-0.00028318,0.8727950844841573,0.006196033753752037
-0.00028311,0.8737891994114613,0.005525490518494335
-0.00028304,0.8757774292660714,0.00384913243034825
-0.00028297,0.8794225173328563,0.004184404047978016
-0.0002829,0.8804166322601602,0.00552549051849342
-0.00028283,0.8824048621147703,0.004854947283235718
-0.00028276,0.8847244636118158,0.004854947283235718
-0.00028269,0.8863813218239889,0.004854947283235718
-0.00028262,0.8890322949634692,0.004519675665606562
-0.00028255,0.890689153175644,0.005190218900864874
-0.00028248,0.8930087546726875,0.004519675665606867
-0.00028241,0.8940028695999934,0.004519675665606562
-0.00028234,0.8976479576667779,0.004519675665606562
-0.00028227,0.8993048158789518,0.005190218900864569
-0.0002822,0.9006303024486925,0.004519675665606562
-0.00028213,0.9046067621579118,0.004519675665606562
-0.00028206,0.905932248727651,0.003849132430348555
-0.00028199,0.9082518502246962,0.004854947283235718
-0.00028192,0.9105714517217408,0.005190218900864874
-0.00028185,0.9115655666490452,0.004854947283235871
-0.00028178,0.9128910532187855,0.004184404047977406
-0.00028171,0.9158733980007,0.004184404047977406
-0.00028164,0.9162047696431348,0.003849132430348403
-0.00028157,0.9181929994977446,0.004184404047977406
-0.0002815,0.9195184860674844,0.003513860812719094
-0.00028143,0.921838087564528,0.002843317577461086
-0.00028136,0.9244890607040086,0.00384913243034825
-0.00028129,0.9251518039888785,0.003178589195089937
-0.00028122,0.9281341487707917,0.004519675665605952
-0.00028115,0.928796892055663,0.003513860812719094
-0.00028108,0.9301223786254027,0.004184404047977406
-0.00028101,0.9317792368375767,0.003513860812719398
-0.00028094,0.9350929532619269,0.00384913243034825
-0.00028087,0.934761581619492,0.00384913243034825
-0.0002808,0.9364184398316659,0.00384913243034825
-0.00028073,0.9377439264014065,0.00384913243034825
-0.00028066,0.9397321562560161,0.00384913243034825
-0.00028059,0.9423831293954945,0.004184404047977253
-0.00028052,0.9440399876076705,0.003513860812719094
-0.00028045,0.9460282174622802,0.00384913243034825
-0.00028038,0.946359589104715,0.003513860812719246
-0.00028031,0.9473537040320199,0.003513860812719094
-0.00028024,0.9493419338866296,0.003178589195089937
-0.0002801700000000001,0.9516615353836733,0.003513860812718941
-0.0002801,0.9523242786685442,0.002843317577460781
-0.00028003,0.9526556503109791,0.003513860812719094
-0.0002799600000000001,0.9539811368807183,0.002843317577461086
-0.00027989,0.9566321100201984,0.002508045959831625
-0.00027982,0.9569634816626335,0.001837502724573313
-0.0002797500000000001,0.9569634816626335,0.003513860812718331
-0.00027968,0.959283083159678,0.003178589195089937
-0.00027961,0.9612713130142877,0.002843317577460781
-0.0002795400000000001,0.9609399413718529,0.002843317577460781
-0.00027947,0.9619340562991576,0.003178589195089937
-0.0002794,0.9649164010810721,0.002843317577460781
-0.0002793300000000001,0.9655791443659417,0.002843317577460781
-0.00027926,0.965910516008377,0.002843317577460781
-0.00027919,0.9678987458629866,0.003513860812719094
-0.0002791200000000001,0.968892860790291,0.003513860812719094
-0.00027905,0.9698869757175963,0.002508045959831625
-0.00027898,0.9715438339297711,0.003178589195089937
-0.0002789100000000001,0.971875205572206,0.002843317577460934
-0.00027884,0.9725379488570759,0.002843317577460781
-0.00027877,0.9748575503541206,0.003178589195089937
-0.0002787000000000001,0.9751889219965554,0.003513860812718941
-0.00027863,0.9771771518511652,0.003513860812719094
-0.00027856,0.9778398951360351,0.002508045959831625
-0.0002784900000000001,0.9785026384209047,0.003178589195089632
-0.00027842,0.9798281249906448,0.002508045959831625
-0.00027835,0.9818163548452544,0.002172774342202469
-0.0002782800000000001,0.9818163548452544,0.002172774342202469
-0.00027821,0.9831418414149943,0.002172774342202469
-0.00027814,0.9828104697725593,0.002843317577460781
-0.00027807,0.9854614429120387,0.00317858919508948
-0.000278,0.9851300712696039,0.002172774342202469
-0.00027793,0.9861241861969088,0.002508045959831625
-0.00027786,0.9874496727666489,0.001837502724573466
-0.00027779,0.9881124160515184,0.002172774342202469
-0.00027772,0.9891065309788233,0.001837502724573313
-0.00027765,0.9897692742636937,0.001837502724573466
-0.00027758,0.990763389190998,0.002172774342202469
-0.00027751,0.991094760833433,0.002508045959831625
-0.00027744,0.9924202474031728,0.001502231106944614
-0.00027737,0.9927516190456077,0.002508045959831625
-0.0002773,0.9934143623304775,0.002172774342202469
-0.00027723,0.9944084772577819,0.001837502724573313
-0.00027716,0.9930829906880426,0.001837502724573313
-0.00027709,0.9937457339729125,0.002172774342202469
-0.00027702,0.9950712205426523,0.001837502724573466
-0.00027695,0.9950712205426523,0.002172774342202469
-0.00027688,0.9957339638275222,0.002172774342202469
-0.00027681,0.9977221936821311,0.00250804595983132
-0.00027674,0.9960653354699571,0.001837502724573313
-0.00027667,0.997059450397262,0.001502231106944157
-0.0002766,0.9983849369670015,0.001837502724573161
-0.00027653,0.9977221936821319,0.001502231106944157
-0.00027646,1.000041795179176,0.001837502724573313
-0.00027639,0.9993790518943058,0.001502231106944309
-0.00027632,0.997390822039697,0.001837502724573313
-0.00027625,0.9987163086094367,0.001502231106944157
-0.00027618,1.000373166821611,0.001837502724573161
-0.00027611,1.000041795179176,0.001502231106944157
-0.00027604,1.000041795179176,0.001502231106944157
-0.00027597,1.000704538464047,0.001837502724573008
-0.0002759,1.001035910106481,0.001166959489315001
-0.00027583,1.001035910106481,0.0004964162540566886
-0.00027576,1.003355511603526,0.001837502724573161
-0.00027569,1.003355511603526,0.001502231106944157
-0.00027562,1.003686883245961,0.001502231106944157
-0.00027555,1.002692768318657,0.001502231106944157
-0.00027548,1.004018254888396,0.001502231106944157
-0.00027541,1.003024139961091,0.001837502724573313
-0.00027534,1.003686883245961,0.001166959489315306
-0.00027527,1.003355511603526,0.001837502724573313
-0.0002752,1.002361396676221,0.001502231106944157
-0.00027513,1.002361396676221,0.0004964162540566886
-0.00027506,1.002030025033786,0.0004964162540566886
-0.00027499,1.003024139961091,0.001166959489315001
-0.00027492,1.004680998173264,0.0008316878716859973
-0.00027485,1.001367281748916,0.001166959489315001
-0.00027478,1.001035910106481,0.0008316878716858448
-0.00027471,1.002030025033786,0.001166959489314848
-0.00027464,1.002030025033786,0.0008316878716858448
-0.00027457,1.001367281748916,0.0001611446364275325
-0.0002745,1.002361396676221,0.0004964162540566886
-0.00027443,1.001367281748916,0.0004964162540566886
-0.00027436,1.001367281748916,0.0008316878716858448
-0.00027429,1.002692768318656,0.0008316878716858448
-0.00027422,1.002692768318656,0.0008316878716858448
-0.00027415,1.001367281748916,-0.0005093985988307797
-0.00027408,0.9993790518943063,0.000161144636427685
-0.00027401,0.9987163086094367,0.0004964162540566886
-0.00027394,0.9997104235367416,0.0001611446364275325
-0.00027387,0.9997104235367408,0.0004964162540563837
-0.0002738,0.9980535653245668,-0.0001741269812016236
-0.00027373,0.9987163086094367,0.0008316878716858448
-0.00027366,0.9980535653245663,0.0001611446364273801
-0.00027359,0.9970594503972624,-0.0001741269812014711
-0.00027352,0.997059450397262,-0.001179941834089092
-0.00027345,0.9967280787548274,-0.0005093985988306272
-0.00027338,0.9973908220396966,-0.000174126981201776
-0.00027331,0.997390822039697,-0.0008446702164599358
-0.00027324,0.9950712205426522,-0.0008446702164596309
-0.00027317,0.9947398489002175,-0.0001741269812019284
-0.0002731,0.9950712205426523,-0.0001741269812016236
-0.00027303,0.9940771056153471,-0.000174126981201776
-0.00027296,0.9934143623304779,-0.0005093985988306272
-0.00027289,0.9940771056153475,-0.0008446702164599358
-0.00027282,0.9924202474031733,-0.00117994183408894
-0.00027275,0.993745733972912,-0.0008446702164600882
-0.00027268,0.9934143623304775,-0.001179941834089092
-0.00027261,0.9927516190456073,-0.0005093985988309321
-0.00027254,0.9917575041183033,-0.0008446702164597833
-0.00027247,0.990763389190998,-0.0001741269812016236
-0.0002724,0.9891065309788234,-0.0005093985988307797
-0.00027233,0.9894379026212581,-0.0005093985988307797
-0.00027226,0.9891065309788233,-0.001179941834089092
-0.00027219,0.9887751593363878,-0.0008446702164596309
-0.00027212,0.9874496727666491,-0.0001741269812019284
-0.00027205,0.9874496727666485,-0.001179941834089092
-0.00027198,0.9867869294817787,-0.0001741269812022334
-0.00027191,0.9871183011242135,-0.001515213451717638
-0.00027184,0.9851300712696039,-0.0008446702164599358
-0.00027177,0.9834732130574295,-0.0015152134517184
-0.0002717,0.9841359563422988,-0.001850485069347251
-0.00027163,0.9821477264876893,-0.00218575668697656
-0.00027156,0.9808222399179495,-0.002521028304605259
-0.00027149,0.9804908682755148,-0.001515213451718705
-0.00027142,0.9794967533482098,-0.001179941834089092
-0.00027135,0.9781712667784694,-0.001850485069347556
-0.00027128,0.9768457802087308,-0.002185756686976408
-0.00027121,0.9761830369238603,-0.001850485069347404
-0.00027114,0.9755202936389903,-0.001850485069347861
-0.00027107,0.9751889219965556,-0.002856299922234415
-0.000271,0.9735320637843807,-0.002856299922234872
-0.00027093,0.9715438339297706,-0.002185756686976408
-0.00027086,0.9705497190024667,-0.001850485069347556
-0.00027079,0.9695556040751614,-0.002521028304605716
-0.00027072,0.9675673742205517,-0.002856299922234872
-0.00027065,0.9675673742205517,-0.002856299922234872
-0.00027058,0.9655791443659421,-0.002856299922234872
-0.00027051,0.9649164010810721,-0.00218575668697656
-0.00027044,0.9632595428688981,-0.003191571539863571
-0.00027037,0.9629281712264625,-0.002856299922234872
-0.0002703,0.9616026846567227,-0.002521028304605716
-0.00027023,0.9602771980869834,-0.002185756686976713
-0.00027016,0.9596144548021129,-0.003191571539864028
-0.00027009,0.9563007383777635,-0.002521028304605716
-0.00027002,0.9563007383777635,-0.003526843157492727
-0.00026995,0.9549752518080237,-0.00218575668697656
-0.00026988,0.952987021953414,-0.001850485069347404
-0.00026981,0.9513301637412401,-0.002185756686976408
-0.00026974,0.9509987920988043,-0.002521028304605716
-0.00026967,0.9496733055290646,-0.002521028304605716
-0.0002696,0.947353704032021,-0.002185756686976713
-0.00026953,0.947022332389585,-0.003191571539864028
-0.00026946,0.9456968458198453,-0.002856299922234872
-0.00026939,0.9417203861106276,-0.002856299922234872
-0.00026932,0.9427145010379306,-0.002521028304605716
-0.00026925,0.9397321562560161,-0.003191571539864028
-0.00026918,0.9380752980438422,-0.002856299922235025
-0.00026911,0.9374125547589716,-0.004532658010380653
-0.00026904,0.9357556965467968,-0.002856299922234872
-0.00026897,0.9327733517648836,-0.002521028304605869
-0.0002689,0.9327733517648823,-0.003191571539864028
-0.00026883,0.9304537502678376,-0.004197386392751497
-0.00026876,0.9291282636980984,-0.003862114775122493
-0.00026869,0.9271400338434882,-0.003191571539864028
-0.00026862,0.9254831756313134,-0.003191571539864028
-0.00026855,0.9234949457767047,-0.00419738639275104
-0.00026848,0.9228322024918338,-0.003526843157493184
-0.00026841,0.9215067159220941,-0.003526843157493184
-0.00026834,0.9188557427826157,-0.003526843157493184
-0.00026827,0.9162047696431349,-0.003191571539864028
-0.0002682,0.9145479114309601,-0.003191571539864028
-0.0002681300000000001,0.9122283099339166,-0.002856299922235025
-0.00026806,0.9109028233641757,-0.003191571539864028
-0.00026799,0.9085832218671311,-0.003191571539864028
-0.0002679200000000001,0.9059322487276528,-0.002521028304606021
-0.00026785,0.9059322487276515,-0.003862114775122341
-0.00026778,0.9022871606608671,-0.003191571539864028
-0.0002677100000000001,0.9019557890184323,-0.003191571539864028
-0.00026764,0.8989734442365177,-0.004532658010380653
-0.00026757,0.8963224710970381,-0.003191571539864028
-0.0002675000000000001,0.8949969845272988,-0.004532658010380043
-0.00026743,0.8936714979575585,-0.004197386392751497
-0.00026736,0.8913518964605139,-0.003191571539864028
-0.0002672900000000001,0.8887009233210356,-0.00419738639275104
-0.00026722,0.8853872068966848,-0.003526843157493184
-0.00026715,0.8853872068966848,-0.004532658010380653
-0.0002670800000000001,0.883398977042076,-0.003862114775122646
-0.00026701,0.8804166322601606,-0.003862114775122341
-0.00026694,0.8797538889752907,-0.004532658010380653
-0.0002668700000000001,0.8764401725509429,-0.003862114775122646
-0.0002668,0.8741205710538966,-0.003526843157493184
-0.00026673,0.872132341199287,-0.003862114775122341
-0.0002666600000000001,0.8694813680598086,-0.004197386392751344
-0.00026659,0.8674931382051977,-0.003862114775122341
-0.00026652,0.865504908350588,-0.004532658010380653
-0.0002664500000000001,0.8631853068535444,-0.004532658010380653
-0.00026638,0.8605343337140638,-0.004532658010380653
-0.00026631,0.8582147322170192,-0.005203201245638965
-0.00026624,0.8565578740048432,-0.004867929628010114
-0.00026617,0.8539069008653649,-0.005538472863268121
-0.0002661,0.8519186710107552,-0.005873744480897277
-0.00026603,0.8505931844410141,-0.004867929628010266
-0.00026596,0.8476108396591009,-0.005873744480897277
-0.00026589,0.8439657515923165,-0.005203201245638965
-0.00026582,0.8416461500952703,-0.005538472863267968
-0.00026575,0.8383324336709224,-0.005203201245638965
-0.00026568,0.8373383187436175,-0.006544287716155589
-0.00026561,0.8350187172465722,-0.004532658010381263
-0.00026554,0.8333618590343982,-0.005873744480897277
-0.00026547,0.8300481426100487,-0.005203201245638965
-0.0002654,0.8280599127554384,-0.005873744480896972
-0.00026533,0.8267344261856993,-0.005203201245638965
-0.00026526,0.8227579664764798,-0.005538472863268121
-0.00026519,0.8194442500521296,-0.005538472863268578
-0.00026512,0.8177873918399556,-0.006544287716155589
-0.00026505,0.8148050470580411,-0.005203201245638965
-0.00026498,0.811822702276125,-0.005538472863268274
-0.00026491,0.8081776142093422,-0.005873744480897277
-0.00026484,0.8065207559971674,-0.004867929628009809
-0.00026477,0.8042011545001225,-0.005873744480897277
-0.0002647,0.8035384112152529,-0.005873744480897277
-0.00026463,0.8002246947909034,-0.006544287716155589
-0.00026456,0.7965796067241186,-0.005538472863268274
-0.00026449,0.7959168634392492,-0.005873744480897277
-0.00026442,0.7909462888027249,-0.005873744480897277
-0.00026435,0.7889580589481137,-0.005538472863268578
-0.00026428,0.7856443425237658,-0.006544287716155589
-0.00026421,0.7833247410267211,-0.005538472863268121
-0.00026414,0.7819992544569793,-0.006209016098526586
-0.00026407,0.7773600514628921,-0.006544287716155589
-0.000264,0.7757031932507173,-0.006544287716155589
-0.00026393,0.7743777066809756,-0.005538472863268578
-0.00026386,0.7700698753293233,-0.006544287716155589
-0.00026379,0.7687443887595835,-0.006879559333784745
-0.00026372,0.7637738141230584,-0.006544287716155436
-0.00026365,0.7621169559108846,-0.006209016098526433
-0.00026358,0.7607914693411447,-0.006544287716155589
-0.00026351,0.7558208947046194,-0.005873744480897277
-0.00026344,0.753501293207576,-0.005873744480897277
-0.00026337,0.7491934618559216,-0.005873744480897277
-0.0002633,0.7478679752861797,-0.005873744480897124
-0.00026323,0.7428974006496576,-0.005538472863268121
-0.00026316,0.740246427510178,-0.006544287716155589
-0.00026309,0.7379268260131323,-0.006544287716155894
-0.00026302,0.7356072245160887,-0.007214830951413902
-0.00026295,0.7319621364493044,-0.005873744480897277
-0.00026288,0.7303052782371279,-0.007885374186671146
-0.00026281,0.7263288185279103,-0.005538472863268121
-0.00026274,0.7223523588186909,-0.006879559333784745
-0.00026267,0.7183758991094706,-0.005538472863268731
-0.0002626,0.7163876692548619,-0.006879559333784745
-0.00026253,0.7140680677578172,-0.006544287716155589
-0.00026246,0.7104229796910316,-0.006544287716155742
-0.00026239,0.7077720065515533,-0.006879559333784745
-0.00026232,0.7034641751998989,-0.006209016098526433
-0.00026225,0.7018073169877224,-0.007550102569043058
-0.00026218,0.6978308572785048,-0.007550102569043058
-0.00026211,0.6951798841390252,-0.007550102569043058
-0.00026204,0.691866167714674,-0.006544287716155894
-0.00026197,0.6878897080054565,-0.007214830951413902
-0.0002619,0.6859014781508467,-0.007214830951413902
-0.00026183,0.6809309035143214,-0.007550102569042753
-0.00026176,0.678611302017279,-0.00687955933378505
-0.00026169,0.6743034706656236,-0.007214830951413902
-0.00026162,0.6713211258837071,-0.00687955933378505
-0.00026155,0.6670132945320567,-0.007550102569042753
-0.00026148,0.6660191796047499,-0.007550102569043058
-0.00026141,0.6623740915379634,-0.00755010256904321
-0.00026134,0.6580662601863132,-0.00788537418667206
-0.00026127,0.6560780303317015,-0.008220645804301371
-0.0002612,0.6530956855497849,-0.008555917421930069
-0.00026113,0.6487878541981347,-0.007550102569043515
-0.00026106,0.646468252701088,-0.007550102569043058
