2020_assignments/jhuffer1_diode/3L_1_3_sweep.csv

#Digilent WaveForms Oscilloscope Acquisition
#Device Name: Discovery2
#Serial Number: SN:210321AE36B6
#Date Time: 2020-09-21 08:16:53.967
#Sample rate: 1.5873e+06Hz
#Samples: 8192
#Trigger: Source: Channel 1 Type: Edge Condition: Rising Level: 0 V Hyst.: Auto HoldOff: 0 s
#Channel 1: Range: 500 mV/div Offset: 0 V Attenuation: 1 X
#Channel 2: Range: 100 mV/div Offset: 0 V Attenuation: 1 X
#Wavegen Channel 1: Running
#Mode: Sweep
#Type: Sine
#Frequency: 16.5 kHz
#Period: 60.6060606 us
#Stop: 17 kHz
#Amplitude: 1 V
#Offset: 0 V
#Symmetry: 50 %
#Phase: 0 °

Time (s),Channel 1 (V),Channel 2 (V)
-0.0005307594059405941,0.596431134693411,-0.0001741269812016236
-0.0005301294059405944,0.6491192258405436,0.01725999713550657
-0.0005294994059405942,0.6984936005633747,0.0340235780169723
-0.000528869405940594,0.7438915155769817,0.05078715889843742
-0.0005282394059405943,0.7863070858086357,0.06688019654462959
-0.0005276094059405941,0.8257403112583944,0.08330850580845825
-0.0005269794059405944,0.8618598202837872,0.09906627183702141
-0.0005263494059405942,0.8946656128848633,0.1144887662479697
-0.0005257194059405941,0.9228322024918338,0.1289054458060235
-0.0005250894059405944,0.9476850756744436,0.1429868537464416
-0.0005244594059405942,0.9672360025781168,0.1570682616868726
-0.000523829405940594,0.9834732130574345,0.1698085831567858
-0.0005231994059405943,0.9950712205426523,0.181543089773801
-0.0005225694059405941,1.002030025033786,0.1926070531555631
-0.000521939405940594,1.004680998173265,0.2040062881549589
-0.0005213094059405943,1.003024139961091,0.2137291650662
-0.0005206794059405941,0.997390822039697,0.222446227124558
-0.0005200494059405944,0.9871183011242183,0.2301574743300251
-0.0005194194059405942,0.9728693204995109,0.2368629066826117
-0.000518789405940594,0.9539811368807084,0.2428977957999388
-0.0005181594059405943,0.9311164935527075,0.2479268700643739
-0.0005175294059405942,0.9039440188730419,0.2512795862406654
-0.000516899405940594,0.872795084484141,0.2536264875640703
-0.0005162694059405943,0.8380010620284875,0.2553028456522153
-0.0005156394059405941,0.7992305798635986,0.2559733888874736
-0.0005150094059405944,0.7574777529168143,0.2549675740345866
-0.0005143794059405942,0.7120798379032075,0.2529559443288112
-0.000513749405940594,0.6633682064652472,0.2499384997701471
-0.0005131194059405943,0.6126683451727234,0.2462505119762281
-0.0005124894059405942,0.5586547674558271,0.2408861660941616
-0.000511859405940594,0.5026529598842939,0.2348512769768334
-0.0005112294059405943,0.4430060642460305,0.2274753013889954
-0.0005105994059405941,0.3826964253228701,0.2190935109482665
-0.0005099694059405944,0.3200671849026936,0.2103764488899124
-0.0005093394059405942,0.2564438295551553,0.2003183003610337
-0.0005087094059405941,0.1914949876379057,0.1895896085969007
-0.0005080794059405943,0.1255520307933513,0.1785256452151386
-0.0005074494059405942,0.05927770230636183,0.1661205953628598
-0.000506819405940594,-0.007659369465527318,0.1527097306576874
-0.0005061894059405943,-0.073270954667617,0.1392988659525273
-0.0005055594059405941,-0.1385511682273015,0.1248821863944736
-0.0005049294059405944,-0.204494125071826,0.1097949636011684
-0.0005042994059405942,-0.2684488520618008,0.09437246919022038
-0.0005036694059405941,-0.3324035790517456,0.07861470316165006
-0.0005030394059405943,-0.3943700761870807,0.06218639389782141
-0.0005024094059405942,-0.4556738300375459,0.04575808463399276
-0.000501779405940594,-0.5136638674636868,0.02899450375252764
-0.0005011494059405943,-0.5690029317502977,0.01290146610633546
-0.0005005194059405941,-0.6226851378247592,-0.004197386392751497
-0.0004998894059405944,-0.6730536274748482,-0.02129623889183068
-0.0004992594059405942,-0.7211025156279385,-0.03805981977329626
-0.0004986294059405941,-0.7658376873566562,-0.05448812903712491
-0.0004979994059405943,-0.8065963993761363,-0.07125170991857509
-0.0004973694059405942,-0.8437100233288688,-0.08734474756478222
-0.000496739405940594,-0.8785040457845519,-0.1024319703581011
-0.0004961094059405943,-0.9083274936036835,-0.1175191931514062
-0.0004954794059405941,-0.9341744817136094,-0.13193587270946
-0.0004948494059405944,-0.9570391250416103,-0.1460172806498781
-0.0004942194059405942,-0.974270450448238,-0.1590928737374216
-0.0004935894059405941,-0.9871939445032009,-0.1721684668249587
-0.0004929594059405944,-0.9961409788489404,-0.1842382450596028
-0.0004923294059405942,-1.001442925127904,-0.1956374800589996
-0.000491699405940594,-1.002768411697641,-0.2056956285878784
-0.0004910694059405943,-0.9977978370611192,-0.2147479622638615
-0.0004904394059405941,-0.9891821743578106,-0.2231297527045904
-0.0004898094059405944,-0.9775841668725926,-0.2311762715276865
-0.0004891794059405942,-0.9603528414659702,-0.2378817038802733
-0.0004885494059405941,-0.9388136847076987,-0.2435813213799689
-0.0004879194059405944,-0.9129666965977845,-0.247604580791517
-0.0004872894059405942,-0.8838059920634974,-0.2509572969678104
-0.000486659405940594,-0.8513315711048557,-0.2533041982912148
-0.0004860294059405943,-0.8138865755097237,-0.2539747415264728
-0.0004853994059405941,-0.77345923513266,-0.2539747415264728
-0.000484769405940594,-0.7300495499736604,-0.2529689266735843
-0.0004841394059405943,-0.6826634051054846,-0.2506220253501812
-0.0004835094059405941,-0.6322949154553726,-0.2476045807915188
-0.0004828794059405944,-0.5802695675931095,-0.2432460497623418
-0.0004822494059405942,-0.5249305033064497,-0.2375464322626441
-0.000481619405940594,-0.4666090942378719,-0.2311762715276867
-0.0004809894059405943,-0.4066308269571737,-0.2234650243222196
-0.0004803594059405942,-0.3449957014642736,-0.215753777116749
-0.000479729405940594,-0.2820350894016045,-0.2067014434407569
-0.0004790994059405943,-0.2180803624116888,-0.1959727516766288
-0.0004784694059405941,-0.1528001488520043,-0.1845735166772375
-0.0004778394059405944,-0.08685719200747982,-0.1725037384425933
-0.0004772094059405942,-0.01992012023559052,-0.1600986885903091
-0.0004765794059405941,0.04635420825139888,-0.1463525522675137
-0.0004759494059405943,0.1126285367383883,-0.1326064159447183
-0.0004753194059405942,0.1785714935829428,-0.1181897363866646
-0.000474689405940594,0.2435203355002216,-0.1024319703580872
-0.0004740594059405943,0.3078064341325721,-0.08700947594715305
-0.0004734294059405941,0.371098417837647,-0.07125170991858271
-0.0004727994059405944,0.4324021716880843,-0.05515867227239055
-0.0004721694059405942,0.4910549523990978,-0.03906563462618373
-0.0004715394059405941,0.5480508748979087,-0.02230205374472593
-0.0004709094059405943,0.6027271958996751,-0.005203201245638965
-0.0004702794059405942,0.6550839154043967,0.01156037963581884
-0.000469649405940594,0.7041269184847894,0.02832396051728411
-0.0004690194059405943,0.7491934618559216,0.0447522697811053
-0.0004683894059405941,0.7922717753724647,0.06118057904493394
-0.0004677594059405944,0.8307108858949012,0.07727361669112613
-0.0004671294059405942,0.8658362799930229,0.09336665433733293
-0.0004664994059405941,0.896985214381908,0.1087891487482741
-0.0004658694059405943,0.9254831756313004,0.1235410999239503
-0.0004652394059405942,0.9496733055290646,0.1382930510996399
-0.000464609405940594,0.9695556040751685,0.151703915804812
-0.0004639794059405943,0.9851300712696039,0.1647795088923432
-0.0004633494059405941,0.9957339638275222,0.1775198303622511
-0.0004627194059405944,1.003024139961088,0.1895896085968952
-0.0004620894059405942,1.005343741458136,0.1999830287434046
-0.0004614594059405941,1.003686883245961,0.2100411772722793
-0.0004608294059405943,0.9963967071123955,0.2187582393306333
-0.0004601994059405942,0.9857928145544738,0.226804758153737
-0.000459569405940594,0.9705497190024577,0.2338454621239521
-0.0004589394059405943,0.9516615353836743,0.2398803512412742
-0.0004583094059405941,0.927802777128358,0.2452446971233407
-0.0004576794059405944,0.8999675591638352,0.2492679565348887
-0.0004570494059405942,0.8688186247749375,0.2526206727111821
-0.0004564194059405941,0.8333618590343982,0.2542970307993279
-0.0004557894059405944,0.7942600052270922,0.2553028456522149
-0.0004551594059405942,0.752507178280271,0.2542970307993279
-0.000454529405940594,0.7064465199817915,0.2532912159464393
-0.0004538994059405943,0.6583976318287461,0.2509443146230363
-0.0004532694059405941,0.6063722839664595,0.2469210552114864
-0.000452639405940594,0.5516959629646673,0.2422272525646757
-0.0004520094059405943,0.4947000404658822,0.2365276350649826
-0.0004513794059405941,0.4357158881124616,0.2301574743300286
-0.0004507494059405944,0.3747435059044592,0.2221109555069326
-0.0004501194059405942,0.3114515221993565,0.2130586218309417
-0.000449489405940594,0.2474967952093825,0.2033357449196913
-0.0004488594059405943,0.183210696577032,0.1926070531555631
-0.0004482294059405941,0.1175991113749125,0.1812078181561718
-0.000447599405940594,0.05132478288789265,0.1694733115391456
-0.0004469694059405943,-0.01561228888393621,0.1567329900692434
-0.0004463394059405941,-0.08188661737092562,0.1426515821288189
-0.0004457094059405944,-0.1478295742154501,0.1289054458060297
-0.0004450794059405942,-0.2131097877751646,0.1141534946303406
-0.000444449405940594,-0.2777272580500086,0.09906627183702126
-0.0004438194059405943,-0.342013356682359,0.08297323419082908
-0.0004431894059405942,-0.4029857388903893,0.06721546816225876
-0.000442559405940594,-0.4626326345287059,0.05045188728079363
-0.0004419294059405943,-0.5199599286699256,0.03435884963460145
-0.0004412994059405941,-0.5762931078838666,0.01793054037077281
-0.0004406694059405944,-0.629312570673434,0.001166959489322623
-0.0004400394059405942,-0.67968106032357,-0.0155966213921428
-0.0004394094059405941,-0.7270672051917675,-0.03236020227360061
-0.0004387794059405943,-0.7711396336356154,-0.04912378315505841
-0.0004381494059405942,-0.811566974012679,-0.06555209241888707
-0.000437519405940594,-0.8486805979654084,-0.0813098584474647
-0.0004368894059405943,-0.8824805054937577,-0.0974028960936569
-0.0004362594059405941,-0.9119725816704679,-0.1128253905045981
-0.0004356294059405944,-0.9374881981379473,-0.1272420700626452
-0.0004349994059405942,-0.9593587265386654,-0.1416587496207055
-0.0004343694059405941,-0.9765900519452826,-0.1550696143258717
-0.0004337394059405943,-0.9891821743578106,-0.1678099357957797
-0.0004331094059405942,-0.9977978370611192,-0.1802149856480584
-0.000432479405940594,-1.001111553485469,-0.1912789490298253
-0.0004318494059405943,-1.001442925127904,-0.2016723691763244
-0.0004312194059405941,-0.9971350937762493,-0.2110599744699408
-0.0004305894059405944,-0.9885194310729446,-0.2204475797635529
-0.0004299594059405942,-0.9752645653755428,-0.2281588269690278
-0.0004293294059405941,-0.9580332399689255,-0.23519953093924
-0.0004286994059405943,-0.9351685966409247,-0.2408991484389331
-0.0004280694059405942,-0.9096529801734233,-0.2452576794681147
-0.000427439405940594,-0.879498160711828,-0.2489456672620367
-0.0004268094059405943,-0.8460296248259135,-0.2516278402030687
-0.0004261794059405941,-0.8082532575883296,-0.2533041982912145
-0.0004255494059405944,-0.76683180228398,-0.2533041982912145
-0.0004249194059405942,-0.7234221171249831,-0.2526336550559561
-0.0004242894059405941,-0.6757046006143507,-0.2506220253501812
-0.0004236594059405943,-0.6246733676793921,-0.2472693091738912
-0.0004230294059405942,-0.5716539048897773,-0.2439165929975981
-0.000422399405940594,-0.5153207256758098,-0.238887518733158
-0.0004217694059405943,-0.4569993166072857,-0.2328526296158359
-0.0004211394059405941,-0.3970210493265603,-0.2258119256456237
-0.0004205094059405944,-0.3353859238336881,-0.2174301352048986
-0.0004198794059405942,-0.2717625684861503,-0.2083778015289076
-0.0004192494059405941,-0.2074764698537706,-0.1983196530000329
-0.0004186194059405944,-0.1418648846516809,-0.1875909612359048
-0.0004179894059405942,-0.07559055616466163,-0.1761917262365086
-0.000417359405940594,-0.008653484392772186,-0.1634514047665945
-0.0004167294059405943,0.05762084409418709,-0.1500405400614344
-0.0004160994059405941,0.1235638009387415,-0.1366296753562682
-0.000415469405940594,0.1891753861408905,-0.1215424525629494
-0.0004148394059405943,0.2537928564156757,-0.1067905013872733
-0.0004142094059405941,0.3174162117631856,-0.09136800697633207
-0.0004135794059405944,0.3803768238257969,-0.0759455125653979
-0.0004129494059405942,0.4416805776762907,-0.06018774653682057
-0.000412319405940594,0.5003333583873022,-0.0440947088906136
-0.0004116894059405943,0.5573292808860872,-0.02766639962679242
-0.0004110594059405942,0.6116742302454186,-0.01023227551007631
-0.000410429405940594,0.6633682064652919,0.006196033753759965
-0.0004097994059405943,0.7110857229759027,0.02295961463521015
-0.0004091694059405941,0.7568150096319254,0.03938792389903879
-0.0004085394059405944,0.7988992082211446,0.05581623316285997
-0.0004079094059405942,0.8373383187436175,0.07224454242669609
-0.000407279405940594,0.871800969556852,0.08800230845526644
-0.0004066494059405943,0.902949903945737,0.1034248028662076
-0.0004060194059405942,0.9297910069829678,0.1188472972771488
-0.000405389405940594,0.9529870219534226,0.133263976835209
-0.0004047594059405943,0.9718752055722061,0.1476806563932562
-0.0004041294059405941,0.9864555578393437,0.1610915210984225
-0.0004034994059405944,0.9970594503972572,0.1734965709506956
-0.0004028694059405942,1.002692768318656,0.1852310775677217
-0.0004022394059405941,1.004680998173266,0.1959597693318547
-0.0004016094059405943,1.002030025033786,0.2063531894783585
-0.0004009794059405942,0.9944084772577825,0.2154055231543457
-0.000400349405940594,0.9828104697725524,0.223787313595078
-0.0003997194059405943,0.9675673742205517,0.2311632891829161
-0.0003990894059405941,0.9476850756744549,0.2378687215354992
-0.0003984594059405944,0.9244890607040191,0.2428977957999343
-0.0003978294059405942,0.8953283561697333,0.2469210552114864
-0.0003971994059405941,0.8631853068535434,0.250273771387778
-0.0003965694059405943,0.8270657978281506,0.25295594432881
-0.0003959394059405942,0.7869698290935055,0.2539617591816987
-0.000395309405940594,0.7435601439345068,0.2539617591816979
-0.0003946794059405943,0.6978308572785048,0.2522854010935529
-0.0003940494059405941,0.6481251109132627,0.2499384997701488
-0.0003934194059405944,0.5964311346934346,0.2465857835938588
-0.0003927894059405942,0.5414234420492098,0.2422272525646783
-0.0003921594059405941,0.483764776265529,0.2368629066826117
-0.0003915294059405943,0.4247806239121352,0.2304927459476607
-0.0003908994059405942,0.3634768700616432,0.2231167703598163
-0.000390269405940594,0.3008476296414089,0.2147349799190832
-0.0003896394059405943,0.2365615310090585,0.2053473746254711
-0.0003890094059405941,0.170618574164504,0.1946186828613381
-0.0003883794059405944,0.1036815023926752,0.1835547194795809
-0.0003877494059405942,0.03806991719052522,0.1714849412449263
-0.0003871194059405941,-0.0282044112964642,0.1590798913926475
-0.0003864894059405944,-0.09414736814098867,0.1456690266874874
-0.0003858594059405942,-0.1600903249855731,0.1319228903646859
-0.000385229405940594,-0.2263646534725916,0.1178414824242545
-0.0003845994059405943,-0.2903193804625073,0.1027542596309493
-0.0003839694059405941,-0.3529486208827123,0.08699649360237896
-0.000383339405940594,-0.4142523747332046,0.07190927080905933
-0.0003827094059405942,-0.473899270371468,0.05514568992760913
-0.0003820794059405941,-0.5318893077975837,0.03905265228140964
-0.0003814494059405944,-0.5872283720841946,0.02262434301758846
-0.0003808194059405942,-0.6399164632313764,0.005190218900864874
-0.000380189405940594,-0.6889594663117697,-0.01190863359822956
-0.0003795594059405943,-0.7356828678950761,-0.02833694286205074
-0.0003789294059405941,-0.7790925530540541,-0.04375943727299192
-0.000378299405940594,-0.8191885217886993,-0.0608582897720862
-0.0003776694059405943,-0.8556394024565269,-0.07695132741827837
-0.0003770394059405941,-0.8884451950575867,-0.09304436506447786
-0.0003764094059405944,-0.9169431563069792,-0.107796316240154
-0.0003757794059405942,-0.9414646578471783,-0.1222129957982144
-0.000375149405940594,-0.9620096996781526,-0.1366296753562746
-0.0003745194059405943,-0.9789096534423273,-0.1507110832966927
-0.0003738894059405942,-0.9915017758548552,-0.1637866763842298
-0.000373259405940594,-0.9994546952732953,-0.1758564546188847
-0.0003726294059405943,-1.002437040055209,-0.1875909612358999
-0.0003719994059405941,-1.002105668412774,-0.198654924617662
-0.0003713694059405944,-0.9968037221338168,-0.2083778015289031
-0.0003707394059405942,-0.986531201218331,-0.2167595919696365
-0.000370109405940594,-0.9716194773087584,-0.2251413824103654
-0.0003694794059405943,-0.9527312936899665,-0.2318468147629485
-0.0003688494059405942,-0.9308607652892599,-0.2382169754979024
-0.000368219405940594,-0.9043510338944497,-0.2429107781447123
-0.0003675894059405943,-0.8725393562207092,-0.2465987659386313
-0.0003669594059405941,-0.8377453337650398,-0.2492809388796646
-0.0003663294059405944,-0.7993062232426034,-0.2509572969678096
-0.0003656994059405942,-0.7585475112230875,-0.2519631118206979
-0.0003650694059405941,-0.7134809678519346,-0.2519631118206979
-0.0003644394059405943,-0.6647693364139975,-0.250286753732552
-0.0003638094059405942,-0.6140694751214505,-0.2476045807915188
-0.000363179405940594,-0.5597245257620937,-0.2435813213799665
-0.0003625494059405943,-0.5037227181906132,-0.2382169754979024
-0.0003619194059405941,-0.4454013091220625,-0.2321820863805776
-0.0003612894059405944,-0.3850916701989296,-0.2254766540279976
-0.0003606594059405942,-0.3221310581362622,-0.2177654068225239
-0.0003600294059405941,-0.2585077027887524,-0.2090483447641659
-0.0003593994059405943,-0.1935588608715323,-0.1996607394705538
-0.0003587694059405942,-0.1282786473118182,-0.1892673193240456
-0.000358139405940594,-0.06134157553992892,-0.1775328127070194
-0.0003575094059405943,0.004601381304595559,-0.1647924912371173
-0.0003568794059405941,0.07120708143401991,-0.1520521697672093
-0.0003562494059405944,0.1381441532058488,-0.1386413050620492
-0.0003556194059405942,0.2034243667655638,-0.1248951687392477
-0.0003549894059405941,0.2677104653979435,-0.1101432175635648
-0.0003543594059405943,0.331996564030294,-0.09505599477025967
-0.0003537294059405942,0.3936316895232234,-0.07929822874168246
-0.000353099405940594,0.45460407173128,-0.0635404627131048
-0.0003524694059405943,0.5125941091573695,-0.04744742506691263
-0.0003518394059405941,0.5689272883713105,-0.03101911580308398
-0.0003512094059405944,0.6229408660881822,-0.0142555349216338
-0.0003505794059405942,0.6736407273807536,0.002172774342202469
-0.0003499494059405941,0.7210268722489511,0.01893635522366027
-0.0003493194059405944,0.7650993006927791,0.03536466448748145
-0.0003486894059405942,0.8068521276396023,0.05179297375131757
-0.000348059405940594,0.8452912381620711,0.06822128301515337
-0.0003474294059405943,0.878097030763116,0.08397904904371656
-0.0003467994059405941,0.909577336794436,0.09873100021939943
-0.000346169405940594,0.9360870681892417,0.1138182230127183
-0.0003455394059405942,0.9579575965899383,0.1289054458060235
-0.0003449094059405941,0.9758516652814254,0.142986853746448
-0.0003442794059405944,0.9897692742636869,0.1567329900692372
-0.0003436494059405942,0.9990476802518716,0.168802768303893
-0.000343019405940594,1.003355511603526,0.1808725465385477
-0.0003423894059405943,1.004349626530831,0.1919365099203048
-0.0003417594059405941,1.000373166821611,0.2019946584491795
-0.000341129405940594,0.9917575041182973,0.211717535360429
-0.0003404994059405943,0.9794967533482098,0.2204345974187831
-0.0003398694059405941,0.9625967995840276,0.2281458446242537
-0.0003392394059405944,0.9417203861106354,0.2348512769768338
-0.0003386094059405942,0.9171988845704397,0.2402156228589033
-0.000337979405940594,0.8877068083937144,0.2449094255057132
-0.0003373494059405943,0.8545696441502347,0.2485974132996322
-0.0003367194059405942,0.8177873918399556,0.250273771387778
-0.000336089405940594,0.7770286798204373,0.2519501294759239
-0.0003354594059405943,0.7332876230190442,0.2522854010935529
-0.0003348294059405941,0.6862328497932817,0.2512795862406654
-0.0003341994059405944,0.6361957317856274,0.2492679565348914
