2020_assignments/jhuffer1_diode/3L_1_4.csv

#Digilent WaveForms Oscilloscope Acquisition
#Device Name: Discovery2
#Serial Number: SN:210321AE36B6
#Date Time: 2020-09-20 21:59:33.406
#Sample rate: 1.08696e+06Hz
#Samples: 8192
#Trigger: Source: Channel 1 Type: Edge Condition: Rising Level: 0 V Hyst.: Auto HoldOff: 0 s
#Channel 1: Range: 500 mV/div Offset: 0 V Attenuation: 1 X
#Channel 2: Range: 200 mV/div Offset: 0 V Attenuation: 1 X
#Wavegen Channel 1: Running
#Mode: Sweep
#Type: Square
#Frequency: 1 kHz
#Period: 1 ms
#Stop: 20 kHz
#Amplitude: 1 V
#Offset: 0 V
#Symmetry: 50 %
#Phase: 0 °

Time (s),Channel 1 (V),Channel 2 (V)
-0.003767477835575486,1.003024139961091,0.01357200934159378
-0.003766557835575486,1.003686883245961,0.00820766345952728
-0.003765637835575486,1.003686883245961,0.002843317577460781
-0.003764717835575486,1.004018254888396,-0.002521028304605716
-0.003763797835575486,1.003686883245961,-0.008220645804301371
-0.003762877835575486,1.003355511603526,-0.01358499168636787
-0.003761957835575486,1.003686883245961,-0.01894933756843437
-0.003761037835575486,1.003355511603526,-0.02364314021524453
-0.003760117835575486,1.002692768318656,-0.02800167124442158
-0.003759197835575486,1.003024139961091,-0.03269547389122977
-0.003758277835575486,1.004018254888396,-0.03705400492040879
-0.003757357835575486,1.003686883245961,-0.04107726433195866
-0.003756437835575486,1.003355511603526,-0.0444299805082516
-0.003755517835575486,1.003686883245961,-0.04744742506691263
-0.003754597835575486,1.003024139961091,-0.04945905477268757
-0.003753677835575486,1.003024139961091,-0.05180595609609166
-0.003752757835575486,1.003686883245961,-0.05348231418423744
-0.003751837835575486,-0.5580676675492344,-0.05549394389001146
-0.003750917835575486,-1.012378189328257,-0.05817611683104563
-0.003749997835575486,-1.011052702758517,-0.0591819316839331
-0.003749077835575486,-1.007407614691733,-0.06119356138970803
-0.003748157835575486,-1.004756641552253,-0.0621993762425955
-0.003747237835575486,-1.00177429677034,-0.0628699194778535
-0.003746317835575486,-1.001111553485469,-0.06253464786022465
-0.003745397835575486,-1.001442925127904,-0.06152883300733719
-0.003744477835575486,-1.001111553485469,-0.06018774653682057
-0.003743557835575486,-1.000448810200599,-0.05817611683104563
-0.003742637835575486,-0.9997860669157288,-0.05582921550764153
-0.003741717835575486,-0.9997860669157288,-0.05314704256660829
-0.003740797835575486,-0.999123323630859,-0.04912378315505841
-0.003739877835575486,-0.9997860669157288,-0.04577106697876685
-0.003738957835575486,-0.9997860669157288,-0.04107726433195866
-0.003738037835575486,-0.999123323630859,-0.03705400492040879
-0.003737117835575486,-0.999454695273294,-0.0316896590383423
-0.003736197835575486,-0.9997860669157288,-0.02666058477390496
-0.003735277835575486,-1.000117438558164,-0.02163151050946761
-0.003734357835575486,-0.999123323630859,-0.0155966213921428
-0.003733437835575486,-1.000117438558164,-0.009561732274817995
-0.003732517835575486,-0.9977978370611192,-0.003862114775122341
-0.003731597835575486,-0.9987919519884241,0.001502231106944157
-0.003730677835575486,-0.999454695273294,0.007872391841898124
-0.003729757835575486,-0.999454695273294,0.01357200934159378
-0.003728837835575486,-0.999123323630859,0.01893635522366027
-0.003727917835575486,-0.9997860669157288,0.02430070110572677
-0.003726997835575486,-1.000117438558164,0.02966504698779327
-0.003726077835575486,-0.999123323630859,0.03469412125223061
-0.003725157835575486,-0.9987919519884241,0.03905265228140964
-0.003724237835575486,-0.9997860669157288,0.04307591169295951
-0.003723317835575486,-0.999454695273294,0.04676389948688023
-0.003722397835575486,-0.999123323630859,0.05045188728080095
-0.003721477835575486,-0.999123323630859,0.05313406022183419
-0.003720557835575486,-0.9987919519884241,0.05548096154523829
-0.003719637835575486,-0.999123323630859,0.05715731963338407
-0.003718717835575486,0.8257403112583944,0.05983949257441732
-0.003717797835575486,1.016941748943359,0.06285693713307972
-0.003716877835575486,1.013959404161444,0.06553911007411298
-0.003715957835575486,1.011308431021965,0.06620965330937129
-0.003715037835575486,1.00898882952492,0.06721546816225876
-0.003714117835575486,1.006669228027876,0.06822128301514621
-0.003713197835575486,1.004680998173266,0.0675507397798879
-0.003712277835575486,1.004018254888396,0.06688019654462959
-0.003711357835575486,1.004349626530831,0.06553911007411298
-0.003710437835575486,1.004680998173266,0.06352748036833802
-0.003709517835575486,1.004680998173266,0.06084530742730478
-0.003708597835575486,1.003355511603526,0.05816313448627154
-0.003707677835575486,1.004018254888396,0.05447514669235082
-0.003706757835575486,1.004349626530831,0.05011661566317179
-0.003705837835575486,1.003686883245961,0.04575808463399276
-0.003704917835575486,1.004018254888396,0.04106428198718458
-0.003703997835575486,1.003686883245961,0.03569993610511808
-0.003703077835575486,1.003355511603526,0.02966504698779327
-0.003702157835575486,1.003024139961091,0.02396542948809761
-0.003701237835575486,1.002692768318656,0.01793054037077281
-0.003700317835575486,1.003355511603526,0.01223092287107715
-0.003699397835575486,1.003355511603526,0.005860762136123186
-0.003698477835575486,1.003355511603526,-0.0001741269812016236
-0.003697557835575486,1.004018254888396,-0.006879559333784745
-0.003696637835575486,1.004018254888396,-0.01224390521585124
-0.003695717835575486,1.004018254888396,-0.01861406595080521
-0.003694797835575486,1.003024139961091,-0.02498422668575917
-0.003693877835575486,1.003686883245961,-0.03034857256782567
-0.003692957835575486,1.004349626530831,-0.03504237521463386
-0.003692037835575486,1.003686883245961,-0.04074199271432951
-0.003691117835575486,1.003355511603526,-0.04510052374350854
-0.003690197835575486,1.003355511603526,-0.04912378315505841
-0.003689277835575486,1.003024139961091,-0.05247649933134997
-0.003688357835575486,1.003355511603526,-0.05616448712527069
-0.003687437835575486,1.003355511603526,-0.05851138844867478
-0.003686517835575486,0.3154279819085758,-0.06052301815444972
-0.003685597835575486,-1.009064472903907,-0.06454627756599959
-0.003684677835575486,-1.012378189328257,-0.06689317888940369
-0.003683757835575486,-1.008733101261472,-0.06924008021280778
-0.003682837835575486,-1.005750756479558,-0.07091643830095357
-0.003681917835575486,-1.002768411697643,-0.07192225315384101
-0.003680997835575486,-1.001111553485469,-0.07225752477147018
-0.003680077835575486,-1.000780181843034,-0.07192225315384101
-0.003679157835575486,-0.9997860669157288,-0.07091643830095357
-0.003678237835575486,-1.000448810200599,-0.06924008021280778
-0.003677317835575486,-1.000117438558164,-0.06655790727177452
-0.003676397835575486,-1.000780181843034,-0.06421100594837043
-0.003675477835575486,-1.000448810200599,-0.06052301815444972
-0.003674557835575486,-1.000117438558164,-0.05717030197815816
-0.003673637835575486,-0.9997860669157288,-0.05247649933134997
-0.003672717835575486,-0.9997860669157288,-0.04778269668454179
-0.003671797835575486,-0.9997860669157288,-0.04174780756721698
-0.003670877835575486,-0.9997860669157288,-0.03638346168515048
-0.003669957835575486,-0.999454695273294,-0.03068384418545483
-0.003669037835575486,-0.9997860669157288,-0.02431368345050086
-0.003668117835575486,-0.9997860669157288,-0.0179435227155469
-0.003667197835575486,-1.000117438558164,-0.01090281874533462
-0.003666277835575486,-0.9997860669157288,-0.004532658010380653
-0.003665357835575486,-0.9997860669157288,0.002172774342202469
-0.003664437835575486,-0.9997860669157288,0.008878206694785592
-0.003663517835575486,-1.000117438558164,0.01591891066499787
-0.003662597835575486,-0.9997860669157288,0.02195379978232268
-0.003661677835575486,-1.000117438558164,0.02832396051727664
-0.003660757835575486,-1.000117438558164,0.03435884963460145
-0.003659837835575486,-1.000117438558164,0.04005846713429711
-0.003658917835575486,-0.9987919519884241,0.04508754139873445
-0.003657997835575486,-0.9987919519884241,0.04944607242791348
-0.003657077835575486,-1.000117438558164,0.05380460345709251
-0.003656157835575486,-1.000117438558164,0.05749259125101323
-0.003655237835575486,-1.000448810200599,0.06017476419204647
-0.003654317835575486,-0.8755217010026237,0.06319220875070888
-0.003653397835575486,1.006669228027876,0.0675507397798879
-0.003652477835575486,1.016279005658489,0.0705681843385503
-0.003651557835575486,1.013296660876574,0.07358562889721271
-0.003650637835575486,1.010645687737095,0.0759325302206168
-0.003649717835575486,1.007994714597615,0.07760888830876259
-0.003648797835575486,1.005675113100571,0.07827943154402089
-0.003647877835575486,1.006006484743005,0.07827943154402089
-0.003646957835575486,1.005343741458136,0.07794415992639175
-0.003646037835575486,1.005343741458136,0.07660307345587511
-0.003645117835575486,1.005012369815701,0.07425617213247102
-0.003644197835575486,1.004349626530831,0.07157399919143778
-0.003643277835575486,1.004680998173266,0.06855655463277538
-0.003642357835575486,1.005012369815701,0.0645332952212255
-0.003641437835575486,1.004349626530831,0.05950422095678816
-0.003640517835575486,1.004349626530831,0.05447514669235082
-0.003639597835575486,1.003024139961091,0.04944607242791348
-0.003638677835575486,1.003024139961091,0.04374645492821783
-0.003637757835575486,1.003355511603526,0.03737629419326386
-0.003636837835575486,1.003686883245961,0.03100613345830989
-0.003635917835575486,1.003686883245961,0.02396542948809761
-0.003634997835575486,1.003355511603526,0.01692472551788213
-0.003634077835575486,1.002692768318656,0.009884021547673059
-0.003633157835575486,1.003024139961091,0.002508045959831625
-0.003632237835575486,1.003686883245961,-0.004867929628009809
-0.003631317835575486,1.004349626530831,-0.01190863359822209
-0.003630397835575486,1.00368688324596,-0.01928460918606626
-0.003629477835575486,1.002692768318656,-0.02531949830338833
-0.003628557835575486,1.002692768318656,-0.03202493065597145
-0.003627637835575486,1.003355511603526,-0.03805981977329626
-0.003626717835575486,1.003686883245961,-0.04442998050825023
-0.003625797835575486,1.004018254888396,-0.04979432639031428
-0.003624877835575486,1.004018254888396,-0.05415285741949576
-0.003623957835575486,1.003686883245961,-0.05884666006630394
-0.003623037835575486,1.002030025033786,-0.06286991947785381
-0.003622117835575486,0.8787597740479859,-0.06588736403651621
-0.003621197835575486,-1.003431154981657,-0.06991062344806426
-0.003620277835575486,-1.012709560970692,-0.07426915447724511
-0.003619357835575486,-1.009727216188777,-0.07762187065353668
-0.003618437835575486,-1.006082128121993,-0.08030404359456994
-0.003617517835575486,-1.003431154982513,-0.08231567330034487
-0.003616597835575486,-1.002105668412774,-0.08298621653560287
-0.003615677835575486,-1.001111553485469,-0.08332148815323234
-0.003614757835575486,-1.001774296770339,-0.08298621653560317
-0.003613837835575486,-1.001442925127904,-0.0819804016827157
-0.003612917835575486,-1.000117438558164,-0.0796335003593116
-0.003611997835575486,-1.000448810200599,-0.07728659903590754
-0.003611077835575486,-1.000780181843034,-0.07393388285961597
-0.003610157835575486,-1.000780181843034,-0.06991062344806609
-0.003609237835575486,-1.000117438558164,-0.0652168208012579
-0.003608317835575486,-0.9997860669157288,-0.06018774653682057
-0.003607397835575486,-1.000117438558164,-0.05448812903712491
-0.003606477835575486,-1.000448810200599,-0.0484532399198001
-0.003605557835575486,-1.000117438558164,-0.04141253594958783
-0.003604637835575486,-0.999454695273294,-0.03437183197937554
-0.003603717835575486,-0.9997860669157288,-0.02733112800916327
-0.003602797835575486,-0.999123323630859,-0.01995515242132183
-0.003601877835575486,-0.999123323630859,-0.01190863359822209
-0.003600957835575486,-1.000117438558164,-0.004867929628009809
-0.003600037835575486,-0.9997860669157288,0.002843317577460781
-0.003599117835575486,-0.999454695273294,0.01088983640056053
-0.003598197835575486,-0.9997860669157288,0.01860108360603112
-0.003597277835575486,-1.000117438558164,0.02597705919387255
-0.003596357835575486,-0.999123323630859,0.03301776316408483
-0.003595437835575486,-0.999454695273294,0.04005846713429711
-0.003594517835575486,-0.9997860669157288,0.04609335625162192
-0.003593597835575486,-1.000117438558164,0.05212824536894672
-0.003592677835575486,-0.9997860669157288,0.05749259125101323
-0.003591757835575486,-0.999454695273294,0.06218639389782141
-0.003590837835575486,-0.999454695273294,0.06721546816225876
-0.003589917835575486,-0.311195793935909,0.07090345595617947
-0.003588997835575486,1.012633917591705,0.07626780183824597
-0.003588077835575486,1.015616262373619,0.08062633286742499
-0.003587157835575486,1.01230254594927,0.08397904904371656
-0.003586237835575486,1.00965157280979,0.08666122198474979
-0.003585317835575486,1.007331971312745,0.08900812330815389
-0.003584397835575486,1.006006484743005,0.09068448139629967
-0.003583477835575486,1.004680998173266,0.09101975301392884
-0.003582557835575486,1.004018254888396,0.09068448139629967
-0.003581637835575486,1.004680998173266,0.08934339492578305
-0.003580717835575486,1.004680998173266,0.08733176522000813
-0.003579797835575486,1.004680998173266,0.0843143206613457
-0.003578877835575486,1.005012369815701,0.08062633286742499
-0.003577957835575486,1.005012369815701,0.07660307345587511
-0.003577037835575486,1.004349626530831,0.07190927080906695
-0.003576117835575486,1.004349626530831,0.06688019654462959
-0.003575197835575486,1.003024139961091,0.06051003580967563
-0.003574277835575486,1.003686883245961,0.05413987507472166
-0.003573357835575486,1.003686883245961,0.04676389948688023
-0.003572437835575486,1.003686883245961,0.03871738066378048
-0.003571517835575486,1.003686883245961,0.0316766766935682
-0.003570597835575486,1.003686883245961,0.02363015787046846
-0.003569677835575486,1.004018254888396,0.0149130958121104
-0.003568757835575486,1.004018254888396,0.006866576989010655
-0.003567837835575486,1.003355511603526,-0.001179941834089092
-0.003566917835575486,1.002361396676221,-0.009226460657188839
-0.003565997835575486,1.002030025033786,-0.0179435227155469
-0.003565077835575486,1.002692768318656,-0.02565476992101749
-0.003564157835575486,1.002692768318656,-0.03370128874411724
-0.003563237835575486,1.003024139961091,-0.04107726433195866
-0.003562317835575486,1.003355511603526,-0.04811796830217095
-0.003561397835575486,1.003355511603526,-0.05448812903712491
-0.003560477835575486,1.003355511603526,-0.06052301815444972
-0.003559557835575486,1.003686883245961,-0.06555209241888707
-0.003558637835575486,1.004018254888396,-0.06991062344806609
-0.003557717835575486,-0.7777670664843144,-0.07594551256539089
-0.003556797835575486,-1.012378189328257,-0.08130985844745739
-0.003555877835575486,-1.010721331116082,-0.08600366109426558
-0.003554957835575486,-1.006744871406863,-0.09002692050581546
-0.003554037835575486,-1.003431154982513,-0.09270909344684872
-0.003553117835575486,-1.001774296770339,-0.09505599477025281
-0.003552197835575486,-1.001111553485469,-0.09639708124076943
-0.003551277835575486,-1.001111553485469,-0.09639708124076943
-0.003550357835575486,-1.000448810200599,-0.09572653800551112
-0.003549437835575486,-1.000448810200599,-0.09438545153499447
-0.003548517835575486,-1.000448810200599,-0.09203855021159038
-0.003547597835575486,-1.000448810200599,-0.09002692050581546
-0.003546677835575486,-0.999454695273294,-0.08600366109426558
-0.003545757835575486,-0.999454695273294,-0.08130985844745739
-0.003544837835575486,-1.000117438558164,-0.07594551256539089
-0.003543917835575486,-1.000117438558164,-0.07024589506569526
-0.003542997835575486,-0.9997860669157288,-0.06354046271311212
-0.003542077835575486,-0.9997860669157288,-0.05616448712527069
-0.003541157835575486,-1.000117438558164,-0.0484532399198001
-0.003540237835575486,-0.999454695273294,-0.04040672109670036
-0.003539317835575486,-0.9997860669157288,-0.03202493065597145
-0.003538397835575486,-1.000448810200599,-0.0233078685976134
-0.003537477835575486,-1.000117438558164,-0.01459080653925534
-0.003536557835575486,-0.999123323630859,-0.005538472863268121
-0.003535637835575486,-0.999454695273294,0.003178589195089937
-0.003534717835575486,-0.9981292087035541,0.01223092287107715
-0.003533797835575486,-0.9987919519884241,0.02094798492943521
-0.003532877835575486,-0.9984605803459891,0.02966504698779327
-0.003531957835575486,-0.9987919519884241,0.03771156581089301
-0.003531037835575486,-0.999123323630859,0.0454228130163636
-0.003530117835575486,-1.000117438558164,0.05279878860420504
-0.003529197835575486,-1.000117438558164,0.05983949257441732
-0.003528277835575486,-0.999123323630859,0.06587438169174212
-0.003527357835575486,-0.999123323630859,0.07157399919143778
-0.003526437835575486,0.3873356283169594,0.07794415992639175
-0.003525517835575486,1.015947634016054,0.08464959227897487
-0.003524597835575486,1.014622147446314,0.09001393816104136
-0.003523677835575486,1.009982944452225,0.09470774080784955
-0.003522757835575486,1.007994714597615,0.09806045698414112
-0.003521837835575486,1.006669228027876,0.1010779015428035
-0.003520917835575486,1.006006484743005,0.1034248028662076
-0.003519997835575486,1.004349626530831,0.1040953461014659
-0.003519077835575486,1.004680998173266,0.1044306177190951
-0.003518157835575486,1.004018254888396,0.1040953461014659
-0.003517237835575486,1.003024139961091,0.1024189880133201
-0.003516317835575486,1.004018254888396,0.100072086689916
-0.003515397835575486,1.004349626530831,0.09671937051362448
-0.003514477835575486,1.004349626530831,0.09135502463155798
-0.003513557835575486,1.004018254888396,0.08632595036712065
-0.003512637835575486,1.004018254888396,0.08062633286742499
-0.003511717835575486,1.004018254888396,0.07392090051484188
-0.003510797835575486,1.002692768318656,0.06654492492700043
-0.003509877835575486,1.004018254888396,0.05883367772152985
-0.003508957835575486,1.003686883245961,0.05045188728079683
-0.003508037835575486,1.004018254888396,0.04139955360481373
-0.003507117835575486,1.003024139961091,0.03234721992882652
-0.003506197835575486,1.002361396676221,0.02295961463521015
-0.003505277835575486,1.002692768318656,0.01290146610633546
-0.003504357835575486,1.003024139961091,0.004184404047972832
-0.003503437835575486,1.003355511603526,-0.005873744480897277
-0.003502517835575486,1.003024139961091,-0.01526134977451365
-0.003501597835575486,1.003686883245961,-0.02464895506813002
-0.003500677835575486,1.004349626530831,-0.03370128874411724
-0.003499757835575486,1.003355511603526,-0.0424183508024791
-0.003498837835575486,1.003024139961091,-0.05080014124320419
-0.003497917835575486,1.002692768318656,-0.05851138844867478
-0.003496997835575486,1.003024139961091,-0.06588736403651621
-0.003496077835575486,1.003355511603526,-0.07259279638909935
-0.003495157835575486,-0.4712482972313179,-0.0796335003593084
-0.003494237835575486,-1.013040932613127,-0.08700947594715305
-0.003493317835575486,-1.011052702758517,-0.09304436506447786
-0.003492397835575486,-1.007738986334168,-0.09840871094654435
-0.003491477835575486,-1.005750756479558,-0.1037730568286108
-0.003490557835575486,-1.00243704005521,-0.1071257730049009
-0.003489637835575486,-1.001774296770339,-0.1098079459459357
-0.003488717835575486,-1.001442925127904,-0.1114843040340814
-0.003487797835575486,-1.000448810200599,-0.1121548472693397
-0.003486877835575486,-0.9997860669157288,-0.1118195756517106
-0.003485957835575486,-0.9997860669157288,-0.110478489181194
-0.003485037835575486,-0.9997860669157288,-0.1077963162401607
-0.003484117835575486,-0.999454695273294,-0.1044436000638692
-0.003483197835575486,-0.9997860669157288,-0.1000850690346901
-0.003482277835575486,-0.999454695273294,-0.09505599477025281
-0.003481357835575486,-0.9987919519884241,-0.08902110565292798
-0.003480437835575486,-0.999123323630859,-0.08231567330034487
-0.003479517835575486,-0.999123323630859,-0.07493969771250344
-0.003478597835575486,-0.999454695273294,-0.06655790727177452
-0.003477677835575486,-0.9997860669157288,-0.05784084521341647
-0.003476757835575486,-0.999454695273294,-0.0484532399198001
