2020_assignments/jhuffer1_diode/3l_2_half.csv

#Digilent WaveForms Oscilloscope Acquisition
#Device Name: Discovery2
#Serial Number: SN:210321AE36B6
#Date Time: 2020-09-20 23:42:44.495
#Sample rate: 182149Hz
#Samples: 8192
#Trigger: Source: Channel 1 Type: Edge Condition: Rising Level: 0 V Hyst.: Auto HoldOff: 0 s
#Channel 1: Range: 500 mV/div Offset: 0 V Attenuation: 1 X
#Channel 2: Range: 500 mV/div Offset: 0 V Attenuation: 1 X
#Wavegen Channel 1: Enabled
#Mode: Simple
#Type: Sine
#Frequency: 60 Hz
#Period: 16.6666667 ms
#Amplitude: 1 V
#Offset: 0 V
#Symmetry: 50 %
#Phase: 0 °

Time (s),Channel 1 (V),Channel 2 (V)
-0.018672405,-0.6873026080995739,0.0001611446364275325
-0.018666915,-0.685977121529834,0.0004964162540566886
-0.018661425,-0.6839888916752244,0.0008316878716858448
-0.018655935,-0.6826634051054846,0.0004964162540566886
-0.018650445,-0.6810065468933099,0.0001611446364275325
-0.018644955,-0.6793496886811343,0.0008316878716856924
-0.018639465,-0.6776928304689611,0.0004964162540568411
-0.018633975,-0.6763673438992212,0.000161144636427685
-0.018628485,-0.6747104856870458,0.0001611446364275325
-0.018622995,-0.6730536274748711,0.0008316878716858448
-0.018617505,-0.6713967692626964,0.0004964162540566886
-0.018612015,-0.6694085394080866,-0.0001741269812016236
-0.018606525,-0.6687457961232168,0.0004964162540566886
-0.018601035,-0.667751681195912,0.0001611446364275325
-0.018595545,-0.6657634513413023,0.0001611446364275325
-0.018590055,-0.6641065931291268,0.0001611446364275325
-0.018584565,-0.6624497349169536,0.0001611446364275325
-0.018579075,-0.6611242483472136,0.0001611446364275325
-0.018573585,-0.6591360184926033,0.0001611446364275325
-0.018568095,-0.6571477886379936,0.0004964162540566886
-0.018562605,-0.6558223020682539,0.0001611446364275325
-0.018557115,-0.6538340722136442,0.0004964162540566886
-0.018551625,-0.6525085856439043,0.0001611446364275325
-0.018546135,-0.6515144707165995,0.0004964162540566886
-0.018540645,-0.6498576125044249,0.0004964162540566886
-0.018535155,-0.6478693826498148,0.0004964162540565362
-0.018529665,-0.6472066393649456,0.000161144636427685
-0.018524175,-0.6448870378679006,0.0004964162540566886
-0.018518685,-0.6432301796557259,0.0008316878716858448
-0.018513195,-0.642236064728421,0.0004964162540566886
-0.018507705,-0.6402478348738113,0.0004964162540566886
-0.018502215,-0.6385909766616367,0.0004964162540566886
-0.018496725,-0.6366027468070269,0.0008316878716858448
-0.018491235,-0.6359400035221571,0.0004964162540566886
-0.018485745,-0.6339517736675468,0.0004964162540566886
-0.018480255,-0.6326262870978068,0.0004964162540566886
-0.018474765,-0.6309694288856336,0.0004964162540566886
-0.018469275,-0.6293125706734581,0.0008316878716858448
-0.018463785,-0.6273243408188485,0.0004964162540566886
-0.018458295,-0.6253361109642387,0.0004964162540566886
-0.018452805,-0.6240106243944989,0.0004964162540566886
-0.018447315,-0.6230165094671941,0.0008316878716858448
-0.018441825,-0.6210282796125844,0.0004964162540566886
-0.018436335,-0.6193714214004097,0.0004964162540566886
-0.018430845,-0.6170518199033647,0.0004964162540566886
-0.018425355,-0.6160577049760607,0.0004964162540566886
-0.018419865,-0.6153949616911907,0.0004964162540566886
-0.018414375,-0.6137381034790156,0.0004964162540566886
-0.018408885,-0.611418501981971,0.0008316878716858448
-0.018403395,-0.6094302721273612,0.0008316878716858448
-0.018397905,-0.6077734139151866,0.0004964162540566886
-0.018392415,-0.6064479273454467,0.0004964162540566886
-0.018386925,-0.6044596974908371,0.0004964162540566886
-0.018381435,-0.6028028392786623,0.0001611446364275325
-0.018375945,-0.6011459810664869,0.0004964162540566886
-0.018370455,-0.5994891228543137,0.0004964162540566886
-0.018364965,-0.5978322646421389,0.000161144636427685
-0.018359475,-0.5965067780723984,0.0004964162540566886
-0.018353985,-0.5948499198602236,0.0008316878716858448
-0.018348495,-0.5935244332904839,0.0004964162540566886
-0.018343005,-0.592198946720744,0.0004964162540566886
-0.018337515,-0.5895479735812644,0.0004964162540566886
-0.018332025,-0.5882224870115247,0.0004964162540566886
-0.018326535,-0.586234257156915,0.0004964162540566886
-0.018321045,-0.5849087705871741,0.0004964162540568411
-0.018315555,-0.5825891690901317,0.0008316878716856924
-0.018310065,-0.5809323108779558,0.0004964162540566886
-0.018304575,-0.5789440810233462,0.0008316878716858448
-0.018299085,-0.5772872228111714,0.0008316878716858448
-0.018293595,-0.5769558511687365,0.0004964162540566886
-0.018288105,-0.5746362496716918,0.0008316878716858448
-0.018282615,-0.5733107631019521,0.0008316878716858448
-0.018277125,-0.5709911616049074,0.0008316878716858448
-0.018271635,-0.5686715601078624,0.0008316878716858448
-0.018266145,-0.5676774451805571,0.0008316878716856924
-0.018260655,-0.5656892153259492,0.0004964162540568411
-0.018255165,-0.5640323571137735,0.0004964162540566886
-0.018249675,-0.5620441272591639,0.0008316878716858448
-0.018244185,-0.5603872690469891,0.001166959489315001
-0.018238695,-0.5593931541196843,0.0008316878716858448
-0.018233205,-0.5580676675499445,0.0004964162540566886
-0.018227715,-0.5557480660528998,0.0008316878716858448
-0.018222225,-0.554753951125595,0.0008316878716858448
-0.018216735,-0.5524343496285493,0.0004964162540566886
-0.018211245,-0.5501147481315067,0.0004964162540566886
-0.018205755,-0.5487892615617666,0.0008316878716856924
-0.018200265,-0.5464696600647213,0.0008316878716858448
-0.018194775,-0.5451441734949816,0.0004964162540566886
-0.018189285,-0.5434873152828068,0.0004964162540566886
-0.018183795,-0.5411677137857622,0.0004964162540566886
-0.018178305,-0.5398422272160224,0.0004964162540566886
-0.018172815,-0.5388481122887175,0.0004964162540566886
-0.018167325,-0.5375226257189778,0.0004964162540566886
-0.018161835,-0.5352030242219323,0.0008316878716856924
-0.018156345,-0.5335461660097592,0.0004964162540568411
-0.018150855,-0.5315579361551496,0.000161144636427685
-0.018145365,-0.529569706300539,0.0004964162540566886
-0.018139875,-0.5282442197307993,0.0008316878716858448
-0.018134385,-0.5259246182337546,0.0004964162540566886
-0.018128895,-0.5239363883791449,0.0004964162540566886
-0.018123405,-0.5219481585245352,0.0004964162540566886
-0.018117915,-0.5206226719547955,0.0008316878716858448
-0.018112425,-0.5192971853850556,0.0004964162540566886
-0.018106935,-0.5179716988153147,0.0004964162540566886
-0.018101445,-0.5153207256758375,0.0004964162540566886
-0.018095955,-0.5143266107485315,0.0001611446364275325
-0.018090465,-0.5120070092514869,0.0001611446364275325
-0.018084975,-0.5103501510393121,0.0001611446364275325
-0.018079485,-0.5086932928271374,0.0004964162540566886
-0.018073995,-0.5067050629725277,0.0004964162540566886
-0.018068505,-0.504385461475483,0.0004964162540566886
-0.018063015,-0.5027286032633084,0.0004964162540566886
-0.018057525,-0.5010717450511327,0.0008316878716858448
-0.018052035,-0.4990835151965235,0.0008316878716855399
-0.018046545,-0.4980894002692196,0.0001611446364278374
-0.018041055,-0.4964325420570444,0.0001611446364275325
-0.018035565,-0.4941129405599998,0.0004964162540566886
-0.018030075,-0.49278745399026,0.0004964162540566886
-0.018024585,-0.4907992241356503,0.0004964162540566886
-0.018019095,-0.4888109942810406,0.0004964162540566886
-0.018013605,-0.4868227644264309,0.0004964162540566886
-0.018008115,-0.4841717912869514,0.0004964162540566886
-0.018002625,-0.4828463047172107,0.0004964162540566886
-0.017997135,-0.4808580748626028,0.0004964162540566886
-0.017991645,-0.4788698450079931,0.0008316878716856924
-0.017986155,-0.4775443584382524,0.0004964162540566886
-0.017980665,-0.4768816151533825,0.0004964162540566886
-0.017975175,-0.4742306420139029,0.0004964162540566886
-0.017969685,-0.4725737838017282,0.0004964162540566886
-0.017964195,-0.4709169255895534,0.0001611446364275325
-0.017958705,-0.4685973240925088,0.0004964162540566886
-0.017953215,-0.4666090942378991,0.0004964162540566886
-0.017947725,-0.463958121098419,0.0008316878716856924
-0.017942235,-0.4626326345286804,0.0004964162540568411
-0.017936745,-0.4603130330316362,0.0008316878716856924
-0.017931255,-0.4586561748194604,0.0004964162540566886
-0.017925765,-0.4569993166072857,0.0008316878716858448
-0.017920275,-0.4563365733224158,0.0004964162540566886
-0.017914785,-0.4543483434678061,0.0008316878716858448
-0.017909295,-0.4520287419707615,0.001166959489315001
-0.017903805,-0.4503718837585868,0.0008316878716858448
-0.017898315,-0.4480522822615421,0.0004964162540566886
-0.017892825,-0.4467267956918011,0.0008316878716856924
-0.017887335,-0.444075822552324,0.0004964162540568411
-0.017881845,-0.442750335982583,0.0004964162540566886
-0.017876355,-0.4400993628431034,0.0004964162540566886
-0.017870865,-0.4384425046309287,0.0008316878716858448
-0.017865375,-0.436454274776319,0.0008316878716858448
-0.017859885,-0.4351287882065792,0.0008316878716858448
-0.017854395,-0.4334719299944045,0.0004964162540566886
-0.017848905,-0.4314837001397948,0.0004964162540566886
-0.017843415,-0.4301582135700541,0.0004964162540566886
-0.017837925,-0.428169983715444,0.0004964162540565362
-0.017832435,-0.4251876389335321,0.000161144636427685
-0.017826945,-0.423862152363791,0.0004964162540566886
-0.017821455,-0.4218739225091813,0.0008316878716858448
-0.017815965,-0.4202170642970066,0.0008316878716858448
-0.017810475,-0.417566091157527,0.0008316878716858448
-0.017804985,-0.4159092329453523,0.0008316878716858448
-0.017799495,-0.4152464896604824,0.0004964162540566886
-0.017794005,-0.4132582598058727,0.0008316878716858448
-0.017788515,-0.4112700299512622,0.0004964162540568411
-0.017783025,-0.4096131717390891,0.0008316878716856924
-0.017777535,-0.4079563135269143,0.0004964162540568411
-0.017772045,-0.4053053403874339,0.0001611446364275325
-0.017766555,-0.4033171105328243,0.0008316878716858448
-0.017761065,-0.4006661373933447,0.0004964162540566886
-0.017755575,-0.39900927918117,0.0008316878716858448
-0.017750085,-0.3966896776841253,0.0001611446364275325
-0.017744595,-0.3940387045446457,0.0004964162540566886
-0.017739105,-0.392713217974906,0.0008316878716858448
-0.017733615,-0.3927132179749052,0.0008316878716856924
-0.017728125,-0.391056359762732,0.0004964162540568411
-0.017722635,-0.3884053866232529,0.0004964162540566886
-0.017717145,-0.3857544134837721,0.0004964162540566886
-0.017711655,-0.3840975552715973,0.0001611446364275325
-0.017706165,-0.3827720687018575,0.0004964162540566886
-0.017700675,-0.3807838388472479,0.0004964162540566886
-0.017695185,-0.3778014940653334,0.0004964162540566886
-0.017689695,-0.3764760074955936,0.0001611446364275325
-0.017684205,-0.3741564059985489,0.0008316878716858448
-0.017678715,-0.3728309194288084,0.0008316878716856924
-0.017673225,-0.3711740612166352,0.0004964162540568411
-0.017667735,-0.3695172030044597,0.0008316878716858448
-0.017662245,-0.36752897314985,0.0008316878716858448
-0.017656755,-0.3652093716528054,0.0004964162540566886
-0.017651265,-0.3632211417981957,0.0004964162540566886
-0.017645775,-0.3609015403011511,0.0004964162540566886
-0.017640285,-0.3592446820889763,0.0004964162540566886
-0.017634795,-0.3572564522343666,0.0004964162540566886
-0.017629305,-0.3549368507373211,0.000161144636427685
-0.017623815,-0.3529486208827115,0.0004964162540565362
-0.017618325,-0.3509603910281035,0.000161144636427685
-0.017612835,-0.3499662761007978,0.0004964162540566886
-0.017607345,-0.3479780462461881,0.0004964162540566886
-0.017601855,-0.3466525596764483,0.0004964162540566886
-0.017596365,-0.3443329581794037,0.0004964162540566886
-0.017590875,-0.342344728324794,0.0004964162540566886
-0.017585385,-0.3396937551853144,0.0001611446364275325
-0.017579895,-0.3380368969731397,0.0001611446364275325
-0.017574405,-0.3360486671185292,0.0008316878716855399
-0.017568915,-0.3340604372639212,0.0001611446364278374
-0.017563425,-0.3324035790517464,0.0004964162540565362
-0.017557935,-0.329752605912266,0.0004964162540566886
-0.017552445,-0.3274330044152214,0.0004964162540566886
-0.017546955,-0.3267702611303515,0.0004964162540566886
-0.017541465,-0.3251134029181768,0.0008316878716858448
-0.017535975,-0.3224624297786972,0.0001611446364275325
-0.017530485,-0.3204741999240875,0.0004964162540566886
-0.017524995,-0.3181545984270429,0.0001611446364275325
-0.017519505,-0.3164977402148671,0.0004964162540566886
-0.017514015,-0.3141781387178246,0.0004964162540566886
-0.017508525,-0.3118585372207799,0.0004964162540566886
-0.017503035,-0.3105330506510391,0.0001611446364275325
-0.017497545,-0.3078820775115595,0.0004964162540566886
-0.017492055,-0.3055624760145149,0.0008316878716858448
-0.017486565,-0.304899732729645,0.0008316878716858448
-0.017481075,-0.3029115028750353,0.0004964162540566886
-0.017475585,-0.3012546446628606,0.0008316878716858448
-0.017470095,-0.298603671523381,0.0008316878716858448
-0.017464605,-0.2966154416687703,0.0004964162540565362
-0.017459115,-0.2942958401717278,0.000161144636427685
-0.017453625,-0.292307610317117,0.0004964162540566886
-0.017448135,-0.2899880088200724,0.0008316878716858448
-0.017442645,-0.2879997789654627,0.0004964162540566886
-0.017437155,-0.286342920753288,0.0001611446364275325
-0.017431665,-0.2840233192562434,0.0004964162540566886
-0.017426175,-0.2843546908986783,0.0004964162540566886
-0.017420685,-0.2813723461167638,0.0001611446364275325
-0.017415195,-0.279384116262153,0.0004964162540568411
-0.017409705,-0.2770645147651086,0.0008316878716856924
-0.017404215,-0.2750762849105007,0.0004964162540568411
-0.017398725,-0.2730880550558901,0.0004964162540566886
-0.017393235,-0.2704370819164105,0.0004964162540566886
-0.017387745,-0.2687802237042358,0.0004964162540566886
-0.017382255,-0.2661292505647562,0.0008316878716858448
-0.017376765,-0.2638096490677116,0.0004964162540566886
-0.017371275,-0.2621527908555368,0.0004964162540566886
-0.017365785,-0.2601645610009272,0.0004964162540566886
-0.017360295,-0.2595018177160562,0.0004964162540566886
-0.017354805,-0.2571822162190137,0.0004964162540566886
-0.017349315,-0.2551939863644038,0.0004964162540566886
-0.017343825,-0.2528743848673583,0.0004964162540566886
-0.017338335,-0.2508861550127486,0.0004964162540566886
-0.017332845,-0.2488979251581389,0.0004964162540566886
-0.017327355,-0.2465783236610943,0.0008316878716858448
-0.017321865,-0.2445900938064846,0.0004964162540566886
-0.017316375,-0.2426018639518749,0.0004964162540566886
-0.017310885,-0.2406136340972652,0.0001611446364275325
-0.017305395,-0.2382940326002202,0.0004964162540565362
-0.017299905,-0.2372999176729162,0.000161144636427685
-0.017294415,-0.2346489445334374,0.0004964162540565362
-0.017288925,-0.2329920863212615,0.0004964162540566886
-0.017283435,-0.2306724848242168,0.0008316878716858448
-0.017277945,-0.2290156266120421,0.0008316878716858448
-0.017272455,-0.2270273967574324,0.0004964162540566886
-0.017266965,-0.2243764236179528,0.0008316878716858448
-0.017261475,-0.2213940788360383,0.0008316878716858448
-0.017255985,-0.2203999639087335,0.0004964162540566886
-0.017250495,-0.2180803624116878,0.0008316878716858448
-0.017245005,-0.2157607609146453,0.0008316878716858448
-0.017239515,-0.2141039027024695,0.0004964162540566886
-0.017234025,-0.2124470444902948,0.0008316878716858448
-0.017228535,-0.21079018627812,0.0008316878716858448
-0.017223045,-0.2081392131386404,0.0004964162540566886
-0.017217555,-0.2061509832840308,0.0004964162540566886
-0.017212065,-0.2041627534294211,0.0008316878716858448
-0.017206575,-0.2018431519323765,0.0004964162540566886
-0.017201085,-0.199854922077766,0.0008316878716859973
-0.017195595,-0.1981980638655908,0.001166959489314696
-0.017190105,-0.1955470907261136,0.0004964162540569935
-0.017184615,-0.1932274892290678,0.0004964162540566886
-0.017179125,-0.1912392593744581,0.0004964162540566886
-0.017173635,-0.1899137728047184,0.0004964162540566886
-0.017168145,-0.1875941713076737,0.0004964162540566886
-0.017162655,-0.185937313095499,0.0001611446364275325
-0.017157165,-0.1836177115984544,0.0008316878716858448
-0.017151675,-0.1816294817438447,0.0004964162540566886
-0.017146185,-0.1793098802467993,0.0004964162540566886
-0.017140695,-0.177653022034626,0.0004964162540566886
-0.017135205,-0.1756647921800165,0.0008316878716856924
-0.017129715,-0.1730138190405361,0.0004964162540566886
-0.017124225,-0.1706942175434914,0.0001611446364275325
-0.017118735,-0.1683746160464468,0.0004964162540566886
-0.017113245,-0.1677118727615769,0.0001611446364275325
-0.017107755,-0.1660550145494022,0.0001611446364275325
-0.017102265,-0.1637354130523575,0.0001611446364275325
-0.017096775,-0.1617471831977478,0.0001611446364275325
-0.017091285,-0.1594275817007022,0.000161144636427685
-0.017085795,-0.1571079802036597,0.0004964162540565362
-0.017080305,-0.1554511219914846,0.000161144636427685
-0.017074815,-0.1528001488520043,0.0004964162540566886
-0.017069325,-0.1508119189973946,0.0001611446364275325
-0.017063835,-0.14849231750035,0.0001611446364275325
-0.017058345,-0.1458413443608704,0.0001611446364275325
-0.017052855,-0.1445158577911306,0.0004964162540566886
-0.017047365,-0.1435217428638258,0.0004964162540566886
-0.017041875,-0.1412021413667811,0.0001611446364275325
-0.017036385,-0.1392139115121702,0.0004964162540566886
-0.017030895,-0.1365629383726931,0.0004964162540566886
-0.017025405,-0.1352374518029521,0.0001611446364275325
-0.017019915,-0.1325864786634725,0.0004964162540566886
-0.017014425,-0.1302668771664279,0.0004964162540566886
-0.017008935,-0.1279472756693832,0.0004964162540566886
-0.017003445,-0.1259590458147736,0.0001611446364275325
-0.016997955,-0.1243021876025988,0.0004964162540566886
-0.016992465,-0.1216512144631193,0.0008316878716858448
-0.016986975,-0.1203257278933787,0.0004964162540568411
-0.016981485,-0.1186688696812037,0.0008316878716856924
-0.016975995,-0.1163492681841612,0.0004964162540568411
-0.016970505,-0.1143610383295504,0.0004964162540566886
-0.016965015,-0.1120414368325058,0.0004964162540566886
-0.016959525,-0.1093904636930262,0.0001611446364275325
-0.016954035,-0.1077336054808515,0.0004964162540566886
-0.016948545,-0.1060767472686768,0.0008316878716858448
-0.016943055,-0.1034257741291972,0.0001611446364275325
-0.016937565,-0.1011061726321525,0.0004964162540566886
-0.016932075,-0.09878657113510718,0.0001611446364278375
-0.016926585,-0.09712971292293393,0.0008316878716855399
-0.016921095,-0.0967983412804984,0.0004964162540568411
-0.016915605,-0.09381599649858371,0.0004964162540566886
-0.016910115,-0.09116502335910415,0.0001611446364275325
-0.016904625,-0.08983953678936435,0.0004964162540566886
-0.016899135,-0.08785130693475467,0.0004964162540566886
-0.016893645,-0.08486896215284015,0.0001611446364275325
-0.016888155,-0.08288073229823047,0.0004964162540566886
-0.016882665,-0.08122387408605573,0.0001611446364275325
-0.016877175,-0.07890427258900989,0.0004964162540565362
-0.016871685,-0.07625329944953273,0.000161144636427685
-0.016866195,-0.07360232631005316,0.0008316878716855399
-0.016860705,-0.07293958302518205,0.0008316878716858448
-0.016855215,-0.07128272481300732,0.0004964162540566886
-0.016849725,-0.06929449495839764,0.0004964162540566886
-0.016844235,-0.06664352181891806,0.0004964162540566886
-0.016838745,-0.06432392032187342,0.0004964162540566886
-0.016833255,-0.06200431882482879,0.0001611446364275325
-0.016827765,-0.06001608897021911,0.0004964162540566886
-0.016822275,-0.05736511583073849,0.0004964162540566886
-0.016816785,-0.05504551433369596,0.0004964162540566886
-0.016811295,-0.05338865612152018,0.0001611446364275325
-0.016805805,-0.05106905462447554,0.0004964162540566886
-0.016800315,-0.04974356805473576,0.0001611446364275325
-0.016794825,-0.04874945312743091,0.0004964162540566886
-0.016789335,-0.04609847998795134,0.0001611446364275325
-0.016783845,-0.04344750684847176,0.0004964162540566886
-0.016778355,-0.04145927699386208,0.0001611446364275325
-0.016772865,-0.03947104713925164,0.0001611446364275325
-0.016767375,-0.03781418892707646,0.000161144636427685
-0.016761885,-0.03516321578759929,0.0004964162540565362
-0.016756395,-0.0331749859329884,0.0008316878716858448
-0.016750905,-0.03085538443594377,0.0004964162540566886
-0.016745415,-0.02886715458133409,0.0008316878716858448
-0.016739925,-0.0275416680115943,0.0008316878716858448
