2020_assignments/jhuffer1_diode/3l_3_Full wave-bridge.csv

#Digilent WaveForms Oscilloscope Acquisition
#Device Name: Discovery2
#Serial Number: SN:210321AE36B6
#Date Time: 2020-09-20 23:25:52.305
#Sample rate: 182149Hz
#Samples: 8192
#Trigger: Source: Channel 1 Type: Edge Condition: Rising Level: 0 V Hyst.: Auto HoldOff: 0 s
#Channel 1: Range: 500 mV/div Offset: 0 V Attenuation: 1 X
#Channel 2: Range: 500 mV/div Offset: 0 V Attenuation: 1 X
#Wavegen Channel 1: Running
#Mode: Simple
#Type: Sine
#Frequency: 60 Hz
#Period: 16.6666667 ms
#Amplitude: 1 V
#Offset: 0 V
#Symmetry: 50 %
#Phase: 0 °
#Wavegen Channel 2: Running
#Mode: Simple
#Type: Sine
#Frequency: 60 Hz
#Period: 16.6666667 ms
#Amplitude: 1 V
#Offset: 0 V
#Symmetry: 50 %
#Phase: 180 °

Time (s),Channel 1 (V),Channel 2 (V)
-0.01867191230769231,-1.370922306442869,0.1946186828613381
-0.01866642230769231,-1.36760859001852,0.1929423247731923
-0.01866093230769231,-1.364626245236606,0.1912659666850465
-0.01865544230769231,-1.361312528812256,0.1902601518321591
-0.01864995230769231,-1.358330184030342,0.1895896085969007
-0.01864446230769231,-1.355016467605991,0.1875779788911255
-0.01863897230769231,-1.353690981036253,0.1869074356558678
-0.01863348230769231,-1.350708636254339,0.1862368924206095
-0.01862799230769231,-1.347394919829988,0.1845605343324634
-0.01862250230769231,-1.344412575048074,0.1832194478619468
-0.01861701230769231,-1.341098858623724,0.1822136330090593
-0.01861152230769231,-1.33745377055694,0.1812078181561718
-0.01860603230769231,-1.335134169059895,0.1798667316856552
-0.01860054230769231,-1.331820452635546,0.1788609168327677
-0.01859505230769231,-1.328506736211196,0.177184558744622
-0.01858956230769231,-1.32486164814441,0.1761787438917337
-0.01858407230769231,-1.321547931720064,0.1745023858035895
-0.01857858230769231,-1.318234215295714,0.1731612993330727
-0.01857309230769231,-1.316908728725973,0.1731612993330721
-0.01856760230769231,-1.313926383944059,0.1721554844801846
-0.01856211230769231,-1.310612667519709,0.1701438547744097
-0.01855662230769231,-1.30729895109536,0.1691380399215222
-0.01855113230769231,-1.30464797795588,0.1677969534510056
-0.01854564230769231,-1.301334261531531,0.166455866980489
-0.01854015230769231,-1.297026430179876,0.1647795088923432
-0.01853466230769231,-1.294375457040395,0.1641089656570843
-0.01852917230769231,-1.290730368973614,0.1627678791865688
-0.01852368230769231,-1.287416652549263,0.1614267927160516
-0.01851819230769231,-1.284434307767348,0.160085706245535
-0.01851270230769231,-1.283440192840044,0.1594151630102767
-0.01850721230769231,-1.280457848058129,0.1587446197750184
-0.01850172230769231,-1.276150016706475,0.1567329900692434
-0.01849623230769231,-1.27316767192456,0.155727175216356
-0.01849074230769231,-1.269853955500211,0.1543860887458393
-0.01848525230769231,-1.266871610718294,0.1533802738929511
-0.01847976230769231,-1.26256377936664,0.1517039158048057
-0.01847427230769231,-1.259250062942294,0.1506981009519191
-0.01846878230769231,-1.256267718160378,0.149357014481402
-0.01846329230769231,-1.253285373378463,0.1483511996285145
-0.01845780230769231,-1.249971656954114,0.1470101131579979
-0.01845231230769231,-1.247652055457069,0.1456690266874813
-0.01844682230769231,-1.24500108231759,0.1453337550698521
-0.01844133230769231,-1.24102462260837,0.1439926685993355
-0.01843584230769231,-1.238373649468891,0.1426515821288189
-0.01843035230769231,-1.234065818117235,0.1409752240406725
-0.01842486230769231,-1.230752101692889,0.1396341375701571
-0.01841937230769231,-1.227438385268539,0.1382930510996405
-0.01841388230769231,-1.223793297201753,0.1369519646291232
-0.01840839230769231,-1.220810952419839,0.1359461497762358
-0.01840290230769231,-1.216834492710619,0.1346050633057191
-0.01839741230769231,-1.21352077628627,0.1332639768352025
-0.01839192230769231,-1.209875688219485,0.1315876187470567
-0.01838643230769231,-1.208550201649746,0.1312523471294276
-0.01838094230769231,-1.205567856867831,0.1305818038941693
-0.01837545230769231,-1.20225414044348,0.129240717423652
-0.01836996230769231,-1.198940424019134,0.1278996309531366
-0.01836447230769231,-1.194963964309915,0.126223272864991
-0.01835898230769231,-1.191318876243128,0.1248821863944736
-0.01835349230769231,-1.188005159818779,0.1232058283063278
-0.01834800230769231,-1.184360071751994,0.1225352850710695
-0.01834251230769231,-1.18137772697008,0.1218647418358112
-0.01833702230769231,-1.177732638903295,0.1201883837476654
-0.01833153230769231,-1.174418922478946,0.1188472972771488
-0.01832604230769231,-1.172099320981901,0.1181767540418905
-0.01832055230769231,-1.17011109112729,0.1171709391890026
-0.01831506230769231,-1.165803259775639,0.116165124336116
-0.01830957230769231,-1.162158171708853,0.1144887662479697
-0.01830408230769231,-1.158181711999634,0.1134829513950823
-0.01829859230769231,-1.155199367217719,0.1124771365421948
-0.01829310230769231,-1.151554279150935,0.110800778454049
-0.01828761230769231,-1.14790919108415,0.1094596919835324
-0.01828212230769231,-1.144264103017366,0.1087891487482741
-0.01827663230769231,-1.140619014950581,0.1074480622777575
-0.01827114230769231,-1.137305298526231,0.1057717041896114
-0.01826565230769231,-1.135317068671621,0.1051011609543532
-0.01826016230769231,-1.132997467174579,0.1047658893367244
-0.01825467230769231,-1.128358264180488,0.1030895312485784
-0.01824918230769231,-1.125044547756139,0.1017484447780618
-0.01824369230769231,-1.12173083133179,0.1004073583075452
-0.01823820230769231,-1.118085743265005,0.09940154345465774
-0.01823271230769231,-1.114109283555786,0.09806045698414112
-0.01822722230769231,-1.110795567131436,0.09671937051362448
-0.01822173230769231,-1.106487735779782,0.09571355566073703
-0.01821624230769231,-1.103174019355431,0.09437246919021992
-0.01821075230769231,-1.099860302931084,0.09336665433733339
-0.01820526230769231,-1.095883843221865,0.09202556786681693
-0.01819977230769231,-1.093564241724819,0.09101975301392884
-0.01819428230769231,-1.090581896942904,0.09068448139629967
-0.01818879230769231,-1.08759955216099,0.08934339492578305
-0.01818330230769231,-1.08362309245177,0.08800230845526644
-0.01817781230769231,-1.079315261100116,0.08666122198474979
-0.01817232230769231,-1.076001544675767,0.08599067874949148
-0.01816683230769231,-1.072356456608982,0.0843143206613457
-0.01816134230769231,-1.068711368542196,0.08330850580845764
-0.01815585230769231,-1.064403537190546,0.08196741933794224
-0.01815036230769231,-1.060758449123761,0.08096160448505461
-0.01814487230769231,-1.05810747598428,0.07962051801453754
-0.01813938230769231,-1.05611924612967,0.0789499747792792
-0.01813389230769231,-1.05280552970532,0.07827943154402089
-0.01812840230769231,-1.048497698353666,0.07693834507350428
-0.01812291230769231,-1.045183981929317,0.0759325302206168
-0.01811742230769231,-1.041870265504967,0.07492671536772935
-0.01811193230769231,-1.037231062510878,0.07358562889721271
-0.01810644230769231,-1.033585974444092,0.07257981404432465
-0.01810095230769231,-1.029609514734876,0.07123872757380922
-0.01809546230769231,-1.02662716995296,0.0705681843385503
-0.01808997230769231,-1.02265071024374,0.06922709786803369
-0.01808448230769231,-1.018342878892086,0.06788601139751707
-0.01807899230769231,-1.016023277395041,0.06688019654462959
-0.01807350230769231,-1.013703675897997,0.06654492492700043
-0.01806801230769231,-1.010058587831212,0.06553911007411298
-0.01806252230769231,-1.005750756479558,0.0645332952212255
-0.01805703230769231,-1.002105668412772,0.06319220875070858
-0.01805154230769231,-0.9977978370611179,0.06252166551545012
-0.01804605230769231,-0.9948154922792061,0.06151585066256356
-0.01804056230769231,-0.9905076609275504,0.06017476419204647
-0.01803507230769231,-0.986862572860766,0.059168949339159
-0.01802958230769231,-0.9832174847939815,0.05849840610390069
-0.01802409230769231,-0.9795723967271971,0.05715731963338407
-0.01801860230769231,-0.9752645653755428,0.05548096154523829
-0.01801311230769231,-0.9729449638784982,0.05548096154523829
-0.01800762230769231,-0.9702939907390186,0.05481041830997998
-0.01800213230769231,-0.9669802743146672,0.05380460345709205
-0.01799664230769231,-0.9626724429630168,0.0527987886042055
-0.01799115230769231,-0.9586959832537972,0.05212824536894703
-0.01798566230769231,-0.9560450101143159,0.05112243051605926
-0.01798017230769231,-0.9517371787626616,0.05045188728080095
-0.01797468230769231,-0.9477607190534422,0.04911080081028432
-0.01796919230769231,-0.9431215160593529,0.0477697143397677
-0.01796370230769231,-0.9391450563501336,0.04676389948688023
-0.01795821230769231,-0.936494083210654,0.04609335625162192
-0.01795272230769231,-0.9331803667863046,0.04508754139873445
-0.01794723230769231,-0.9308607652892581,0.04475226978110484
-0.01794174230769231,-0.9268843055800423,0.04374645492821828
-0.01793625230769231,-0.9225764742283883,0.04274064007533081
-0.01793076230769231,-0.9189313861616019,0.04207009684007204
-0.01792527230769231,-0.9142921831675126,0.04106428198718458
-0.01791978230769231,-0.9106470951007282,0.04039373875192626
-0.01791429230769231,-0.9070020070339437,0.03938792389903879
-0.01790880230769231,-0.9030255473247244,0.03871738066378048
-0.01790331230769231,-0.8990490876155049,0.03804683742852217
-0.01789782230769231,-0.8947412562638507,0.03670575095800555
-0.01789233230769231,-0.8914275398395003,0.03603520772274708
-0.01788684230769231,-0.8894393099848924,0.03569993610511823
-0.01788135230769231,-0.886456965202977,0.03502939286985977
-0.01787586230769231,-0.8821491338513227,0.03435884963460145
-0.01787037230769231,-0.8781726741421033,0.03335303478171399
-0.01786488230769231,-0.8745275860753189,0.03301776316408483
-0.01785939230769231,-0.8702197547236646,0.03234721992882652
-0.01785390230769231,-0.8665746666568802,0.03134140507593905
-0.01784841230769231,-0.8619354636627909,0.03000031860542243
-0.01784292230769231,-0.8582903755960049,0.02966504698779296
-0.01783743230769231,-0.8546452875292205,0.0289945037525345
-0.01783194230769231,-0.8513315711048742,0.02798868889964795
-0.01782645230769231,-0.8476864830380882,0.02731814566438918
-0.01782096230769231,-0.8453668815410436,0.02698287404676002
-0.01781547230769231,-0.8410590501893893,0.02664760242913086
-0.01780998230769231,-0.8370825904801699,0.02597705919387255
-0.01780449230769231,-0.8334375024133854,0.02497124434098508
-0.01779900230769231,-0.8294610427041661,0.02430070110572677
-0.01779351230769231,-0.8258159546373817,0.02396542948809761
-0.01778802230769231,-0.8205140083584213,0.02329488625283884
-0.01778253230769231,-0.8175316635765093,0.02228907139995229
-0.01777704230769231,-0.8135552038672904,0.02228907139995184
-0.01777155230769231,-0.8092473725156344,0.02128325654706437
-0.01776606230769231,-0.8065963993761548,0.02061271331180605
-0.01776057230769231,-0.8042767978791101,0.02061271331180605
-0.01775508230769231,-0.7996375948850208,0.01994217007654774
-0.01774959230769231,-0.7956611351758015,0.01927162684128943
-0.01774410230769231,-0.7920160471090171,0.01893635522366027
-0.01773861230769231,-0.7877082157573628,0.01826581198840196
-0.01773312230769231,-0.7840631276905764,0.01759526875314365
-0.01772763230769231,-0.779755296338926,0.01759526875314365
-0.01772214230769231,-0.7751160933448369,0.01692472551788564
-0.01771665230769231,-0.7718023769204854,0.01625418228262702
-0.01771116230769231,-0.767494545568831,0.01558363904736871
-0.01770567230769231,-0.7631867142171767,0.01524836742973956
-0.01770018230769231,-0.761198484362567,0.0149130958121104
-0.01769469230769231,-0.7575533962957826,0.01457782419448124
-0.01768920230769231,-0.7535769365865632,0.01390728095922293
-0.01768371230769231,-0.7496004768773439,0.01390728095922293
-0.01767822230769231,-0.7459553888105572,0.01357200934159347
-0.01767273230769231,-0.7409848141740375,0.01290146610633577
-0.01766724230769231,-0.7380024693921208,0.01256619448870631
-0.01766175230769231,-0.7330318947555965,0.01223092287107715
-0.01765626230769231,-0.7297181783312471,0.011895651253448
-0.01765077230769231,-0.7247476036947228,0.01122510801818968
-0.01764528230769231,-0.7211025156279385,0.01122510801818968
-0.01763979230769231,-0.7184515424884589,0.01088983640056053
-0.01763430230769231,-0.7158005693489793,0.01055456478293137
-0.01762881230769231,-0.7121554812821927,0.01055456478293122
-0.01762332230769231,-0.7075162782881039,0.01021929316530191
-0.01761783230769231,-0.7038711902213228,0.009548749930044209
-0.01761234230769231,-0.6992319872272319,0.009213478312414747
-0.01760685230769231,-0.6955868991604475,0.008878206694785592
-0.01760136230769231,-0.6909476961663582,0.008878206694785592
-0.01759587230769231,-0.686639864814704,0.00820766345952728
-0.01759038230769231,-0.6826634051054846,0.007872391841898124
-0.01758489230769231,-0.6786869453962652,0.007872391841898124
-0.01757940230769231,-0.6760359722567857,0.007201848606639811
-0.01757391230769231,-0.6727222558324345,0.007201848606640116
-0.01756842230769231,-0.6690771677656534,0.007872391841897818
-0.01756293230769231,-0.6647693364139995,0.006866576989011112
-0.01755744230769231,-0.6611242483472131,0.006866576989010655
-0.01755195230769231,-0.6571477886379936,0.006866576989010655
-0.01754646230769231,-0.6528399572863394,0.006196033753752342
-0.01754097230769231,-0.6478693826498151,0.006196033753752342
-0.01753548230769231,-0.6442242945830308,0.005860762136123186
-0.01752999230769231,-0.6402478348738113,0.00552549051849403
-0.01752450230769231,-0.6352772602372871,0.00552549051849403
-0.01751901230769231,-0.6316321721705015,0.005525490518493725
-0.01751352230769231,-0.6289811990310243,0.004854947283236023
-0.01750803230769231,-0.6259988542491099,0.005190218900864721
-0.01750254230769231,-0.6220223945398893,0.004854947283235718
-0.01749705230769231,-0.6177145631882349,0.004854947283235718
-0.01749156230769231,-0.6137381034790156,0.004854947283235718
-0.01748607230769231,-0.6087675288424914,0.004854947283235718
-0.01748058230769231,-0.605122440775707,0.004184404047977406
-0.01747509230769231,-0.6004832377816177,0.004184404047977406
-0.01746960230769231,-0.5965067780723984,0.004184404047977406
-0.01746411230769231,-0.5925303183631768,0.004184404047977406
-0.01745862230769231,-0.5878911153690918,0.004184404047977406
-0.01745313230769231,-0.5845773989447403,0.003513860812719094
-0.01744764230769231,-0.5825891690901306,0.003513860812719094
-0.01744215230769231,-0.5782813377384762,0.003513860812719094
-0.01743666230769231,-0.5733107631019521,0.003178589195089937
-0.01743117230769231,-0.5696656750351676,0.003178589195089937
-0.01742568230769231,-0.5656892153259483,0.003178589195089937
-0.01742019230769231,-0.5613813839742939,0.003178589195089937
-0.01741470230769231,-0.5577362959075075,0.003178589195089784
-0.01740921230769231,-0.5534284645558532,0.002843317577460934
-0.01740372230769231,-0.5487892615617681,0.003178589195089784
-0.01739823230769231,-0.5444814302101116,0.002843317577460781
-0.01739274230769231,-0.5414990854281971,0.002508045959831625
-0.01738725230769231,-0.5385167406462826,0.002843317577460781
-0.01738176230769231,-0.5352030242219331,0.002843317577460781
-0.01737627230769231,-0.5305638212278438,0.002508045959831625
-0.01737078230769231,-0.5265873615186245,0.002172774342202469
-0.01736529230769231,-0.5226109018094052,0.002172774342202469
-0.01735980230769231,-0.5179716988153139,0.002508045959831473
-0.01735431230769231,-0.5136638674636635,0.002172774342202622
-0.01734882230769231,-0.5090246644695744,0.001837502724573466
-0.01734333230769231,-0.504385461475483,0.001837502724573313
-0.01733784230769231,-0.5007403734086987,0.002172774342202469
-0.01733235230769231,-0.4964325420570444,0.001837502724573313
-0.01732686230769231,-0.4941129405599998,0.001837502724573313
-0.01732137230769231,-0.4907992241356503,0.002172774342202469
-0.01731588230769231,-0.4868227644264309,0.001837502724573313
-0.01731039230769231,-0.4818521897899067,0.001837502724573313
-0.01730490230769231,-0.4782071017231202,0.001502231106944309
-0.01729941230769231,-0.4735678987290352,0.001837502724573161
-0.01729392230769231,-0.4692600673773807,0.001837502724573313
-0.01728843230769231,-0.4652836076681593,0.001837502724573313
-0.01728294230769231,-0.460975776316505,0.002172774342202469
-0.01727745230769231,-0.4569993166072857,0.001837502724573313
-0.01727196230769231,-0.4523601136131964,0.001502231106944157
-0.01726647230769231,-0.4493777688312819,0.001502231106944157
-0.01726098230769231,-0.4460640524069324,0.001502231106944157
-0.01725549230769231,-0.442418964340148,0.001502231106944157
-0.01725000230769231,-0.4381111329884919,0.001502231106944157
-0.01724451230769231,-0.4341346732792762,0.001502231106944157
-0.01723902230769231,-0.4294954702851851,0.001166959489315001
-0.01723353230769231,-0.4245248956486609,0.001502231106944157
-0.01722804230769231,-0.4208798075818765,0.001166959489315001
-0.01722255230769231,-0.4169033478726571,0.0008316878716858448
-0.01721706230769231,-0.4122641448785678,0.001166959489315001
-0.01721157230769231,-0.4076249418844786,0.001166959489315001
-0.01720608230769231,-0.4043112254601291,0.0008316878716858448
-0.01720059230769231,-0.4016602523206479,0.0008316878716859973
-0.01719510230769231,-0.398015164253863,0.001166959489315001
-0.01718961230769231,-0.393375961259778,0.001166959489315001
-0.01718412230769231,-0.3887367582656866,0.0008316878716858448
-0.01717863230769231,-0.3857544134837721,0.0008316878716858448
-0.01717314230769231,-0.3804524672048129,0.001166959489315001
-0.01716765230769231,-0.3761446358531586,0.0008316878716858448
-0.01716216230769231,-0.3715054328590693,0.0008316878716858448
-0.01715667230769231,-0.367197601507415,0.0008316878716858448
-0.01715118230769231,-0.3632211417981957,0.001166959489315001
-0.01714569230769231,-0.3589133104465397,0.0008316878716858448
-0.01714020230769231,-0.3552682223797586,0.0008316878716858448
-0.01713471230769231,-0.3522858775978437,0.0004964162540568411
-0.01712922230769231,-0.3496349044583629,0.0008316878716858448
-0.01712373230769231,-0.3453270731067085,0.0008316878716858448
-0.01711824230769231,-0.3400251268277494,0.0004964162540566886
-0.01711275230769231,-0.33604866711853,0.0004964162540566886
-0.01710726230769231,-0.3314094641244408,0.001166959489315001
-0.01710177230769231,-0.3274330044152214,0.0008316878716858448
-0.01709628230769231,-0.3227938014211321,0.0008316878716858448
-0.01709079230769231,-0.3188173417119104,0.0008316878716858448
-0.01708530230769231,-0.313515395432956,0.0008316878716858448
-0.01707981230769231,-0.3105330506510404,0.0008316878716858448
-0.01707432230769231,-0.3082134491539945,0.0008316878716858448
-0.01706883230769231,-0.3042369894447751,0.0004964162540566886
-0.01706334230769231,-0.2995977864506859,0.0004964162540566886
-0.01705785230769231,-0.2952899550990316,0.0004964162540566886
-0.01705236230769231,-0.2906507521049423,0.0004964162540566886
-0.01704687230769231,-0.286011549110853,0.0008316878716858448
-0.01704138230769231,-0.2817037177591987,0.0008316878716858448
-0.01703589230769231,-0.2780586296924122,0.0004964162540566886
-0.01703040230769231,-0.2734194266983271,0.0004964162540566886
-0.01702491230769231,-0.2694429669891057,0.0004964162540566886
-0.01701942230769231,-0.2651351356374513,0.0004964162540566886
-0.01701393230769231,-0.2628155341404067,0.0004964162540566886
-0.01700844230769231,-0.2585077027887524,0.0004964162540566886
-0.01700295230769231,-0.254862614721968,0.0008316878716858448
-0.01699746230769231,-0.2502234117278788,0.0004964162540566886
-0.01699197230769231,-0.2459155803762244,0.0008316878716858448
-0.01698648230769231,-0.241607749024568,0.0004964162540568411
-0.01698099230769231,-0.236968546030479,0.0008316878716856924
-0.01697550230769231,-0.2329920863212633,0.0004964162540568411
-0.01697001230769231,-0.2286842549696071,0.0004964162540566886
-0.01696452230769231,-0.2237136803330829,0.0008316878716858448
-0.01695903230769231,-0.2187431056965587,0.0004964162540566886
-0.01695354230769231,-0.2164235041995141,0.0004964162540566886
-0.01694805230769231,-0.2137725310600345,0.0008316878716858448
-0.01694256230769231,-0.2097960713508152,0.0004964162540566886
-0.01693707230769231,-0.204825496714291,0.0004964162540566886
